

APNS Upload API - For Example 

APNS Upoload using REST API - Written Rest Controller in Validation Service

POST http://10.211.242.243:8080/apns/upload-apns

{"customerId":"V3bt2A-LRXmHl7R9wpBtDQ","domainId":"g1oMmhAuTqy00cltlEzzhg","email":"jmeteruser_$B64JGtestmail.qalabs.symantec.com","password":"Symc4now!","r3Url":"https://r3-epmp-load-1.vip.ash2.symcpe.com"}

----------------------------Ios / MAC Enrollment-----------------------------------------------------------------------

java -jar ../scep_client/scepClient.jar &

10.211.241.232 (root,root@123)

cd /root/PythonMobileServices

-----------------pythonmobile service command line
final String parameters = customerId + " " + domainId + " "
+ userId + " " + adminEmail + " " + adminPassword + " "
+ r3url + " " + scepUrl + " " + deviceFlag + " "
+retryCount;

----------------------------------------------------------Example
--ios Enrollment
k http://10.211.242.243:8080/validation-service cc-load 1

-- Mac Enrollmebnt - Example Commnd

python test.py tKVtql3_T9i1Ek-MlB8SYQ nqvdjyulTwSy1F-h1JuLhw vkzLkpz8RoKr-Vf4R0Oovw jmeteruser_$6TdIY@testmail.qalabs.symantec.com Symc4now! https://r3-epmp-load-1.vip.ash2.symcpe.com  http://pki-scep.symauth.com/scep/2.16.840.1.113733.1.16.1.2.3.1.1.125856983/cgi-bin/pkiclient.exe 1 1 http://10.211.242.243:8080/validation-service cc-load 1



https://r3-epmp-load-1.vip.ash2.symcpe.com/r3_epmp_i/v1/mdr/mdm_global_settings

https://r3-epmp-load-1.vip.ash2.symcpe.com/r3_epmp_i/v1/mdr/mdm_certificates





