M-t7a878RHSLPAfHk7l-XQ,HKSxYE6xSLW7Ec4i-qtd2w,saep_acp_load196539@testmail.qalabs.symantec.com,iiKpP30xQlmc3KLPFmqHhg,uiyp1kT5SjKnAZnlndvPig
B8V4o235TgyAEzpNAE3dfA,uSvJ59UTR6iwCeTci_MKwQ,saep_acp_load148801@testmail.qalabs.symantec.com,oSU427CtQpG_qtAJPQ3aMw,Cb6JqEqKTUy3mAmDTLweeg
Onyk5zWtS9inqiH9ERnr5w,LxEUH7H0Rj-qNqHdhPPwVg,saep_acp_load130293@testmail.qalabs.symantec.com,41hxmHxqQpa3FN3mdhrxNg,FZ37K1oVSbCMqoWv_ACKMg
ryqb6J4bTbyaSwmFJpB3-A,7ETUPDUZSOegfGoLddP-gw,saep_acp_load149081@testmail.qalabs.symantec.com,9_o4MpHzQem2IHssDw1lgw,8Hcg8liFRGqedPwZceUNsQ
M-t7a878RHSLPAfHk7l-XQ,HKSxYE6xSLW7Ec4i-qtd2w,saep_acp_load196539@testmail.qalabs.symantec.com,iiKpP30xQlmc3KLPFmqHhg,jBvRzG-3RTSiZO-cZWw98w
apDv1PvTQ8afVyvPqBVcBQ,eAJBDweoRWCWfIwdoIZHxg,saep_acp_load110586@testmail.qalabs.symantec.com,me7QpGf1SB2zexDSv1pdfQ,MhE_x2OhRx6sJrOFjKrwVQ
Onyk5zWtS9inqiH9ERnr5w,LxEUH7H0Rj-qNqHdhPPwVg,saep_acp_load130293@testmail.qalabs.symantec.com,41hxmHxqQpa3FN3mdhrxNg,gVWxLeqBTY2BpRxZzqUzqA
B8V4o235TgyAEzpNAE3dfA,uSvJ59UTR6iwCeTci_MKwQ,saep_acp_load148801@testmail.qalabs.symantec.com,oSU427CtQpG_qtAJPQ3aMw,Fjv9AxZkSCa8efm3N3jqTQ
M-t7a878RHSLPAfHk7l-XQ,HKSxYE6xSLW7Ec4i-qtd2w,saep_acp_load196539@testmail.qalabs.symantec.com,iiKpP30xQlmc3KLPFmqHhg,130vPvIdTd2NrV5XZDe3xA
UtEUDtNtTLa76pIKNVkE8w,suBYSPMNQBSmo4sK0sMhng,saep_acp_load175804@testmail.qalabs.symantec.com,OkNY_EyqT3qIy2nhgka-xg,aqwAJw06TMKCtj2vx0bsAA
Onyk5zWtS9inqiH9ERnr5w,LxEUH7H0Rj-qNqHdhPPwVg,saep_acp_load130293@testmail.qalabs.symantec.com,41hxmHxqQpa3FN3mdhrxNg,HQv4YwI9RW-VsEAYseBcwQ
apDv1PvTQ8afVyvPqBVcBQ,eAJBDweoRWCWfIwdoIZHxg,saep_acp_load110586@testmail.qalabs.symantec.com,me7QpGf1SB2zexDSv1pdfQ,BVUncxMVTn6PP1jpzNqPWw
M-t7a878RHSLPAfHk7l-XQ,HKSxYE6xSLW7Ec4i-qtd2w,saep_acp_load196539@testmail.qalabs.symantec.com,iiKpP30xQlmc3KLPFmqHhg,mp3CNJfJSnGFWzykF6CRTw
1nztX6MOSnq95azdkGzclg,BxpEmh2EQjGExWka-8nRIg,saep_acp_load184073@testmail.qalabs.symantec.com,qKmt9VRrQ0OjP6BWi24SUg,ThpeoPSnSrC0PnqMhCyEbQ
Onyk5zWtS9inqiH9ERnr5w,LxEUH7H0Rj-qNqHdhPPwVg,saep_acp_load130293@testmail.qalabs.symantec.com,41hxmHxqQpa3FN3mdhrxNg,l6CJjcqzQfqxHE0hxLcYrQ
UtEUDtNtTLa76pIKNVkE8w,suBYSPMNQBSmo4sK0sMhng,saep_acp_load175804@testmail.qalabs.symantec.com,OkNY_EyqT3qIy2nhgka-xg,nPu6ymBuSfCi-cdXeNldrg
B8V4o235TgyAEzpNAE3dfA,uSvJ59UTR6iwCeTci_MKwQ,saep_acp_load148801@testmail.qalabs.symantec.com,oSU427CtQpG_qtAJPQ3aMw,g4-BKtBgRVitIwKhi9sEoA
M-t7a878RHSLPAfHk7l-XQ,HKSxYE6xSLW7Ec4i-qtd2w,saep_acp_load196539@testmail.qalabs.symantec.com,iiKpP30xQlmc3KLPFmqHhg,hcoKjB3MTDeqqagN1bzo6w
apDv1PvTQ8afVyvPqBVcBQ,eAJBDweoRWCWfIwdoIZHxg,saep_acp_load110586@testmail.qalabs.symantec.com,me7QpGf1SB2zexDSv1pdfQ,xIudjxqrR-mKFIwXBoVZNg
9xPolTlYQzmMIoDObeTxpA,VktVU88ZT1a_AusVXXK4Qw,saep_acp_load107690@testmail.qalabs.symantec.com,Fx3x-ucvRpiRqcEbdR3jYA,hy8U0zT2Ta6liX8WHUHzGg
B8V4o235TgyAEzpNAE3dfA,uSvJ59UTR6iwCeTci_MKwQ,saep_acp_load148801@testmail.qalabs.symantec.com,oSU427CtQpG_qtAJPQ3aMw,Ke64mdlYSf2JoxfDf_JLbg
M-t7a878RHSLPAfHk7l-XQ,HKSxYE6xSLW7Ec4i-qtd2w,saep_acp_load196539@testmail.qalabs.symantec.com,iiKpP30xQlmc3KLPFmqHhg,JHNvJSmHQZWcmCqbHOiDQQ
UtEUDtNtTLa76pIKNVkE8w,suBYSPMNQBSmo4sK0sMhng,saep_acp_load175804@testmail.qalabs.symantec.com,OkNY_EyqT3qIy2nhgka-xg,k3rqPNo-RX-Y3seq6j7olQ
1nztX6MOSnq95azdkGzclg,BxpEmh2EQjGExWka-8nRIg,saep_acp_load184073@testmail.qalabs.symantec.com,qKmt9VRrQ0OjP6BWi24SUg,k97bnylYSZyAM8R9gUlilw
apDv1PvTQ8afVyvPqBVcBQ,eAJBDweoRWCWfIwdoIZHxg,saep_acp_load110586@testmail.qalabs.symantec.com,me7QpGf1SB2zexDSv1pdfQ,5vbV5dKFT6SRYlCEO5A5sg
Onyk5zWtS9inqiH9ERnr5w,LxEUH7H0Rj-qNqHdhPPwVg,saep_acp_load130293@testmail.qalabs.symantec.com,41hxmHxqQpa3FN3mdhrxNg,ZhYD_NzuSkmpMIzlslOM-w
B8V4o235TgyAEzpNAE3dfA,uSvJ59UTR6iwCeTci_MKwQ,saep_acp_load148801@testmail.qalabs.symantec.com,oSU427CtQpG_qtAJPQ3aMw,ltAR4P4kTkuQrlaX0jQqvA
9xPolTlYQzmMIoDObeTxpA,VktVU88ZT1a_AusVXXK4Qw,saep_acp_load107690@testmail.qalabs.symantec.com,Fx3x-ucvRpiRqcEbdR3jYA,5FawttzLT1ap2uagBGQdqQ
UtEUDtNtTLa76pIKNVkE8w,suBYSPMNQBSmo4sK0sMhng,saep_acp_load175804@testmail.qalabs.symantec.com,OkNY_EyqT3qIy2nhgka-xg,SQ-1GlrjSt6ALU-Qguju3w
M-t7a878RHSLPAfHk7l-XQ,HKSxYE6xSLW7Ec4i-qtd2w,saep_acp_load196539@testmail.qalabs.symantec.com,iiKpP30xQlmc3KLPFmqHhg,jPuUxdd_Qw68rCGN0pk8XQ
1nztX6MOSnq95azdkGzclg,BxpEmh2EQjGExWka-8nRIg,saep_acp_load184073@testmail.qalabs.symantec.com,qKmt9VRrQ0OjP6BWi24SUg,MF8L4PfAQPmBnmcJ_2u2Bw
apDv1PvTQ8afVyvPqBVcBQ,eAJBDweoRWCWfIwdoIZHxg,saep_acp_load110586@testmail.qalabs.symantec.com,me7QpGf1SB2zexDSv1pdfQ,ch_DaQWQR3m3qayplziWmA
B8V4o235TgyAEzpNAE3dfA,uSvJ59UTR6iwCeTci_MKwQ,saep_acp_load148801@testmail.qalabs.symantec.com,oSU427CtQpG_qtAJPQ3aMw,VSgh33rOT0ePGeii8FeTbw
UtEUDtNtTLa76pIKNVkE8w,suBYSPMNQBSmo4sK0sMhng,saep_acp_load175804@testmail.qalabs.symantec.com,OkNY_EyqT3qIy2nhgka-xg,fUinCnMAQCugstZ-WbPdnw
9xPolTlYQzmMIoDObeTxpA,VktVU88ZT1a_AusVXXK4Qw,saep_acp_load107690@testmail.qalabs.symantec.com,Fx3x-ucvRpiRqcEbdR3jYA,wHdVSCDiQ6OMmocctzCozA
M-t7a878RHSLPAfHk7l-XQ,HKSxYE6xSLW7Ec4i-qtd2w,saep_acp_load196539@testmail.qalabs.symantec.com,iiKpP30xQlmc3KLPFmqHhg,HHmw_uDSRuiIB-wA6Qt6XA
apDv1PvTQ8afVyvPqBVcBQ,eAJBDweoRWCWfIwdoIZHxg,saep_acp_load110586@testmail.qalabs.symantec.com,me7QpGf1SB2zexDSv1pdfQ,oKZI8IdWR6Kix2eDzahlkw
Onyk5zWtS9inqiH9ERnr5w,LxEUH7H0Rj-qNqHdhPPwVg,saep_acp_load130293@testmail.qalabs.symantec.com,41hxmHxqQpa3FN3mdhrxNg,08TTGcinRaKOepHmAuqwdg
1nztX6MOSnq95azdkGzclg,BxpEmh2EQjGExWka-8nRIg,saep_acp_load184073@testmail.qalabs.symantec.com,qKmt9VRrQ0OjP6BWi24SUg,w5c5gyLmT7GJmBeHIQwifQ
UtEUDtNtTLa76pIKNVkE8w,suBYSPMNQBSmo4sK0sMhng,saep_acp_load175804@testmail.qalabs.symantec.com,OkNY_EyqT3qIy2nhgka-xg,0AdsFVldT5OefqU3w9PQUg
B8V4o235TgyAEzpNAE3dfA,uSvJ59UTR6iwCeTci_MKwQ,saep_acp_load148801@testmail.qalabs.symantec.com,oSU427CtQpG_qtAJPQ3aMw,EGq1pksBTiS5T6hSfJ4OgA
9xPolTlYQzmMIoDObeTxpA,VktVU88ZT1a_AusVXXK4Qw,saep_acp_load107690@testmail.qalabs.symantec.com,Fx3x-ucvRpiRqcEbdR3jYA,kjIKlxNoSbSA9rLaUSERoQ
M-t7a878RHSLPAfHk7l-XQ,HKSxYE6xSLW7Ec4i-qtd2w,saep_acp_load196539@testmail.qalabs.symantec.com,iiKpP30xQlmc3KLPFmqHhg,sUzBAvrZRS2rsAMk_sTuQQ
apDv1PvTQ8afVyvPqBVcBQ,eAJBDweoRWCWfIwdoIZHxg,saep_acp_load110586@testmail.qalabs.symantec.com,me7QpGf1SB2zexDSv1pdfQ,g_29el0yRZ-NPxBA_1_Ltg
1nztX6MOSnq95azdkGzclg,BxpEmh2EQjGExWka-8nRIg,saep_acp_load184073@testmail.qalabs.symantec.com,qKmt9VRrQ0OjP6BWi24SUg,_5wgRvufQi22nPmnrkvpGQ
UtEUDtNtTLa76pIKNVkE8w,suBYSPMNQBSmo4sK0sMhng,saep_acp_load175804@testmail.qalabs.symantec.com,OkNY_EyqT3qIy2nhgka-xg,0J-1gBPTTou5hCj8Wj8gzg
Onyk5zWtS9inqiH9ERnr5w,LxEUH7H0Rj-qNqHdhPPwVg,saep_acp_load130293@testmail.qalabs.symantec.com,41hxmHxqQpa3FN3mdhrxNg,yPDFD8RCQBu1jckcwVkrqQ
B8V4o235TgyAEzpNAE3dfA,uSvJ59UTR6iwCeTci_MKwQ,saep_acp_load148801@testmail.qalabs.symantec.com,oSU427CtQpG_qtAJPQ3aMw,07um7FzkQXmBhl6jmib6lw
9xPolTlYQzmMIoDObeTxpA,VktVU88ZT1a_AusVXXK4Qw,saep_acp_load107690@testmail.qalabs.symantec.com,Fx3x-ucvRpiRqcEbdR3jYA,_730ra_GQqShjLjk2C_cMg
apDv1PvTQ8afVyvPqBVcBQ,eAJBDweoRWCWfIwdoIZHxg,saep_acp_load110586@testmail.qalabs.symantec.com,me7QpGf1SB2zexDSv1pdfQ,5bE4Ct64SISxx_YXskUAsg
1nztX6MOSnq95azdkGzclg,BxpEmh2EQjGExWka-8nRIg,saep_acp_load184073@testmail.qalabs.symantec.com,qKmt9VRrQ0OjP6BWi24SUg,ngEvnSsRRZKkJoobzeQlHA
UtEUDtNtTLa76pIKNVkE8w,suBYSPMNQBSmo4sK0sMhng,saep_acp_load175804@testmail.qalabs.symantec.com,OkNY_EyqT3qIy2nhgka-xg,3MKcRb5_S9ygfLr-dcwLww
Onyk5zWtS9inqiH9ERnr5w,LxEUH7H0Rj-qNqHdhPPwVg,saep_acp_load130293@testmail.qalabs.symantec.com,41hxmHxqQpa3FN3mdhrxNg,V3Wm0HGdQie2Iv36m-9c3Q
B8V4o235TgyAEzpNAE3dfA,uSvJ59UTR6iwCeTci_MKwQ,saep_acp_load148801@testmail.qalabs.symantec.com,oSU427CtQpG_qtAJPQ3aMw,3LwZmY9iQtCypu6IGb3FuQ
9xPolTlYQzmMIoDObeTxpA,VktVU88ZT1a_AusVXXK4Qw,saep_acp_load107690@testmail.qalabs.symantec.com,Fx3x-ucvRpiRqcEbdR3jYA,OMgo70dDR56ka_bqyKh-qA
apDv1PvTQ8afVyvPqBVcBQ,eAJBDweoRWCWfIwdoIZHxg,saep_acp_load110586@testmail.qalabs.symantec.com,me7QpGf1SB2zexDSv1pdfQ,avH9XI8pQ9uZxmELcKikQg
1nztX6MOSnq95azdkGzclg,BxpEmh2EQjGExWka-8nRIg,saep_acp_load184073@testmail.qalabs.symantec.com,qKmt9VRrQ0OjP6BWi24SUg,zb8KEvRnRkSw7JVCFcbiJQ
UtEUDtNtTLa76pIKNVkE8w,suBYSPMNQBSmo4sK0sMhng,saep_acp_load175804@testmail.qalabs.symantec.com,OkNY_EyqT3qIy2nhgka-xg,6l8g7sbARX--ieW050k0RQ
B8V4o235TgyAEzpNAE3dfA,uSvJ59UTR6iwCeTci_MKwQ,saep_acp_load148801@testmail.qalabs.symantec.com,oSU427CtQpG_qtAJPQ3aMw,9HxlUHnbT9qenUcMxejnrw
9xPolTlYQzmMIoDObeTxpA,VktVU88ZT1a_AusVXXK4Qw,saep_acp_load107690@testmail.qalabs.symantec.com,Fx3x-ucvRpiRqcEbdR3jYA,K1eu5qhGSdKw3PVMNeAENQ
Onyk5zWtS9inqiH9ERnr5w,LxEUH7H0Rj-qNqHdhPPwVg,saep_acp_load130293@testmail.qalabs.symantec.com,41hxmHxqQpa3FN3mdhrxNg,0ZG7UDL7TrefDjTzNx_ELA
apDv1PvTQ8afVyvPqBVcBQ,eAJBDweoRWCWfIwdoIZHxg,saep_acp_load110586@testmail.qalabs.symantec.com,me7QpGf1SB2zexDSv1pdfQ,_9c8zmqjTIKbQUhFj9gxww
1nztX6MOSnq95azdkGzclg,BxpEmh2EQjGExWka-8nRIg,saep_acp_load184073@testmail.qalabs.symantec.com,qKmt9VRrQ0OjP6BWi24SUg,lN88y9jLRFSER9fhtRJXaw
UtEUDtNtTLa76pIKNVkE8w,suBYSPMNQBSmo4sK0sMhng,saep_acp_load175804@testmail.qalabs.symantec.com,OkNY_EyqT3qIy2nhgka-xg,cXaYkijnTpeI4U4vpgUnvw
B8V4o235TgyAEzpNAE3dfA,uSvJ59UTR6iwCeTci_MKwQ,saep_acp_load148801@testmail.qalabs.symantec.com,oSU427CtQpG_qtAJPQ3aMw,2tgkgpFrQiWn9w6AROOawg
9xPolTlYQzmMIoDObeTxpA,VktVU88ZT1a_AusVXXK4Qw,saep_acp_load107690@testmail.qalabs.symantec.com,Fx3x-ucvRpiRqcEbdR3jYA,yKTHsw_hQMuMLDgB0b0AHw
1nztX6MOSnq95azdkGzclg,BxpEmh2EQjGExWka-8nRIg,saep_acp_load184073@testmail.qalabs.symantec.com,qKmt9VRrQ0OjP6BWi24SUg,9jG_cUPXQYOYjysKtrDk2w
Onyk5zWtS9inqiH9ERnr5w,LxEUH7H0Rj-qNqHdhPPwVg,saep_acp_load130293@testmail.qalabs.symantec.com,41hxmHxqQpa3FN3mdhrxNg,7uMv8Oc0RDyxCe--KMzvVg
apDv1PvTQ8afVyvPqBVcBQ,eAJBDweoRWCWfIwdoIZHxg,saep_acp_load110586@testmail.qalabs.symantec.com,me7QpGf1SB2zexDSv1pdfQ,mde5r7KDQ5aOIq5iqWOlpQ
UtEUDtNtTLa76pIKNVkE8w,suBYSPMNQBSmo4sK0sMhng,saep_acp_load175804@testmail.qalabs.symantec.com,OkNY_EyqT3qIy2nhgka-xg,UMdylfvTSC-5_21LEGprow
B8V4o235TgyAEzpNAE3dfA,uSvJ59UTR6iwCeTci_MKwQ,saep_acp_load148801@testmail.qalabs.symantec.com,oSU427CtQpG_qtAJPQ3aMw,-PQ2f2oPQSSLMnfVFo3cSQ
9xPolTlYQzmMIoDObeTxpA,VktVU88ZT1a_AusVXXK4Qw,saep_acp_load107690@testmail.qalabs.symantec.com,Fx3x-ucvRpiRqcEbdR3jYA,mRIVbA4OTwGYHwzWBVCVuw
1nztX6MOSnq95azdkGzclg,BxpEmh2EQjGExWka-8nRIg,saep_acp_load184073@testmail.qalabs.symantec.com,qKmt9VRrQ0OjP6BWi24SUg,0VAUII8UTDOJjzuuKq6fgw
Onyk5zWtS9inqiH9ERnr5w,LxEUH7H0Rj-qNqHdhPPwVg,saep_acp_load130293@testmail.qalabs.symantec.com,41hxmHxqQpa3FN3mdhrxNg,RJKbDtacQQqQzRKcZCPUBQ
B8V4o235TgyAEzpNAE3dfA,uSvJ59UTR6iwCeTci_MKwQ,saep_acp_load148801@testmail.qalabs.symantec.com,oSU427CtQpG_qtAJPQ3aMw,DKP1l8L8STKCSoXLO8pAwA
UtEUDtNtTLa76pIKNVkE8w,suBYSPMNQBSmo4sK0sMhng,saep_acp_load175804@testmail.qalabs.symantec.com,OkNY_EyqT3qIy2nhgka-xg,mQB3q9SjQUGfsm3hJkO7aA
apDv1PvTQ8afVyvPqBVcBQ,eAJBDweoRWCWfIwdoIZHxg,saep_acp_load110586@testmail.qalabs.symantec.com,me7QpGf1SB2zexDSv1pdfQ,pK48GMyAQh6pxm8FYkPPww
9xPolTlYQzmMIoDObeTxpA,VktVU88ZT1a_AusVXXK4Qw,saep_acp_load107690@testmail.qalabs.symantec.com,Fx3x-ucvRpiRqcEbdR3jYA,NFjuRNMHS_mEwxHa6ZILtw
1nztX6MOSnq95azdkGzclg,BxpEmh2EQjGExWka-8nRIg,saep_acp_load184073@testmail.qalabs.symantec.com,qKmt9VRrQ0OjP6BWi24SUg,-nhSjrWDSTi7KcCHFuZSFQ
Onyk5zWtS9inqiH9ERnr5w,LxEUH7H0Rj-qNqHdhPPwVg,saep_acp_load130293@testmail.qalabs.symantec.com,41hxmHxqQpa3FN3mdhrxNg,hZYOMYHeTFiXczZIr2dxeQ
B8V4o235TgyAEzpNAE3dfA,uSvJ59UTR6iwCeTci_MKwQ,saep_acp_load148801@testmail.qalabs.symantec.com,oSU427CtQpG_qtAJPQ3aMw,gRfahdYFR7OcUyby2DliRA
UtEUDtNtTLa76pIKNVkE8w,suBYSPMNQBSmo4sK0sMhng,saep_acp_load175804@testmail.qalabs.symantec.com,OkNY_EyqT3qIy2nhgka-xg,xvL6N_9bSy2qBdTY0O8lQQ
apDv1PvTQ8afVyvPqBVcBQ,eAJBDweoRWCWfIwdoIZHxg,saep_acp_load110586@testmail.qalabs.symantec.com,me7QpGf1SB2zexDSv1pdfQ,urp74m8eRsmDCGTEMEjh-w
9xPolTlYQzmMIoDObeTxpA,VktVU88ZT1a_AusVXXK4Qw,saep_acp_load107690@testmail.qalabs.symantec.com,Fx3x-ucvRpiRqcEbdR3jYA,u8ScdtPnRguqjZvUvogSBg
1nztX6MOSnq95azdkGzclg,BxpEmh2EQjGExWka-8nRIg,saep_acp_load184073@testmail.qalabs.symantec.com,qKmt9VRrQ0OjP6BWi24SUg,FrG82vSmQbmHsVZG0lEd_w
Onyk5zWtS9inqiH9ERnr5w,LxEUH7H0Rj-qNqHdhPPwVg,saep_acp_load130293@testmail.qalabs.symantec.com,41hxmHxqQpa3FN3mdhrxNg,uJqc3RjVSEy9K6Mur7I6Bg
B8V4o235TgyAEzpNAE3dfA,uSvJ59UTR6iwCeTci_MKwQ,saep_acp_load148801@testmail.qalabs.symantec.com,oSU427CtQpG_qtAJPQ3aMw,tmROTYd8RvOFXX31OeEvCA
UtEUDtNtTLa76pIKNVkE8w,suBYSPMNQBSmo4sK0sMhng,saep_acp_load175804@testmail.qalabs.symantec.com,OkNY_EyqT3qIy2nhgka-xg,Ljb5-oN-TsWKnOq4KVoI3g
apDv1PvTQ8afVyvPqBVcBQ,eAJBDweoRWCWfIwdoIZHxg,saep_acp_load110586@testmail.qalabs.symantec.com,me7QpGf1SB2zexDSv1pdfQ,VLqlB0rLT3i4mltj0o6ptw
9xPolTlYQzmMIoDObeTxpA,VktVU88ZT1a_AusVXXK4Qw,saep_acp_load107690@testmail.qalabs.symantec.com,Fx3x-ucvRpiRqcEbdR3jYA,5UKNGOPURjOmiZWYo4fX-w
1nztX6MOSnq95azdkGzclg,BxpEmh2EQjGExWka-8nRIg,saep_acp_load184073@testmail.qalabs.symantec.com,qKmt9VRrQ0OjP6BWi24SUg,oM9IOFOKT7yYQrZOtO_SCA
Onyk5zWtS9inqiH9ERnr5w,LxEUH7H0Rj-qNqHdhPPwVg,saep_acp_load130293@testmail.qalabs.symantec.com,41hxmHxqQpa3FN3mdhrxNg,uSBVAybaSQmW4238Ma16OQ
B8V4o235TgyAEzpNAE3dfA,uSvJ59UTR6iwCeTci_MKwQ,saep_acp_load148801@testmail.qalabs.symantec.com,oSU427CtQpG_qtAJPQ3aMw,xr6fA6QOQhiIKc8FyA5eig
UtEUDtNtTLa76pIKNVkE8w,suBYSPMNQBSmo4sK0sMhng,saep_acp_load175804@testmail.qalabs.symantec.com,OkNY_EyqT3qIy2nhgka-xg,LeCcr0DxRvOaDhTgxxJzvw
apDv1PvTQ8afVyvPqBVcBQ,eAJBDweoRWCWfIwdoIZHxg,saep_acp_load110586@testmail.qalabs.symantec.com,me7QpGf1SB2zexDSv1pdfQ,QadPw0fXRhK51-x8DraOJw
9xPolTlYQzmMIoDObeTxpA,VktVU88ZT1a_AusVXXK4Qw,saep_acp_load107690@testmail.qalabs.symantec.com,Fx3x-ucvRpiRqcEbdR3jYA,-w3YGoZERXm--Nex0gDMmw
1nztX6MOSnq95azdkGzclg,BxpEmh2EQjGExWka-8nRIg,saep_acp_load184073@testmail.qalabs.symantec.com,qKmt9VRrQ0OjP6BWi24SUg,DPsN9CeST6Kq3u6uphmVPQ
Onyk5zWtS9inqiH9ERnr5w,LxEUH7H0Rj-qNqHdhPPwVg,saep_acp_load130293@testmail.qalabs.symantec.com,41hxmHxqQpa3FN3mdhrxNg,ByLRcVMXQPKi_3_CH5k7tQ
B8V4o235TgyAEzpNAE3dfA,uSvJ59UTR6iwCeTci_MKwQ,saep_acp_load148801@testmail.qalabs.symantec.com,oSU427CtQpG_qtAJPQ3aMw,2Xi30gUYQNq7FNCrvZtk2A
UtEUDtNtTLa76pIKNVkE8w,suBYSPMNQBSmo4sK0sMhng,saep_acp_load175804@testmail.qalabs.symantec.com,OkNY_EyqT3qIy2nhgka-xg,pRj73li3SwOrbtcnu1wfKg
apDv1PvTQ8afVyvPqBVcBQ,eAJBDweoRWCWfIwdoIZHxg,saep_acp_load110586@testmail.qalabs.symantec.com,me7QpGf1SB2zexDSv1pdfQ,uoKuBiQBRK-3E7fTIqI_LA
9xPolTlYQzmMIoDObeTxpA,VktVU88ZT1a_AusVXXK4Qw,saep_acp_load107690@testmail.qalabs.symantec.com,Fx3x-ucvRpiRqcEbdR3jYA,5--LtHoQQFuuE5VN05dy8A
1nztX6MOSnq95azdkGzclg,BxpEmh2EQjGExWka-8nRIg,saep_acp_load184073@testmail.qalabs.symantec.com,qKmt9VRrQ0OjP6BWi24SUg,rrSNBJtmQwKAN-Ot77StgA
Onyk5zWtS9inqiH9ERnr5w,LxEUH7H0Rj-qNqHdhPPwVg,saep_acp_load130293@testmail.qalabs.symantec.com,41hxmHxqQpa3FN3mdhrxNg,8ugrLpoDToWild3clEcZmg
B8V4o235TgyAEzpNAE3dfA,uSvJ59UTR6iwCeTci_MKwQ,saep_acp_load148801@testmail.qalabs.symantec.com,oSU427CtQpG_qtAJPQ3aMw,vFmzbVKaRy2dCY5Isjfewg
UtEUDtNtTLa76pIKNVkE8w,suBYSPMNQBSmo4sK0sMhng,saep_acp_load175804@testmail.qalabs.symantec.com,OkNY_EyqT3qIy2nhgka-xg,KO2EU3EcRyS6tXuWOf_Tkw
apDv1PvTQ8afVyvPqBVcBQ,eAJBDweoRWCWfIwdoIZHxg,saep_acp_load110586@testmail.qalabs.symantec.com,me7QpGf1SB2zexDSv1pdfQ,dnsQBwxSQxO87b3LQsnY8g
9xPolTlYQzmMIoDObeTxpA,VktVU88ZT1a_AusVXXK4Qw,saep_acp_load107690@testmail.qalabs.symantec.com,Fx3x-ucvRpiRqcEbdR3jYA,jKBztzh6TgSb3aKdPOpzug
1nztX6MOSnq95azdkGzclg,BxpEmh2EQjGExWka-8nRIg,saep_acp_load184073@testmail.qalabs.symantec.com,qKmt9VRrQ0OjP6BWi24SUg,8DbzalDeSKyj4tRoM5_ugQ
Onyk5zWtS9inqiH9ERnr5w,LxEUH7H0Rj-qNqHdhPPwVg,saep_acp_load130293@testmail.qalabs.symantec.com,41hxmHxqQpa3FN3mdhrxNg,Eeu37NnLTAWeu7rGEAFNfA
B8V4o235TgyAEzpNAE3dfA,uSvJ59UTR6iwCeTci_MKwQ,saep_acp_load148801@testmail.qalabs.symantec.com,oSU427CtQpG_qtAJPQ3aMw,xwsPecR_Qle1nVvU3uvk0Q
apDv1PvTQ8afVyvPqBVcBQ,eAJBDweoRWCWfIwdoIZHxg,saep_acp_load110586@testmail.qalabs.symantec.com,me7QpGf1SB2zexDSv1pdfQ,OI-nADZcQdGcy5s6SXtQbw
UtEUDtNtTLa76pIKNVkE8w,suBYSPMNQBSmo4sK0sMhng,saep_acp_load175804@testmail.qalabs.symantec.com,OkNY_EyqT3qIy2nhgka-xg,4HyUayGhQLKn-gQJmJdf8A
9xPolTlYQzmMIoDObeTxpA,VktVU88ZT1a_AusVXXK4Qw,saep_acp_load107690@testmail.qalabs.symantec.com,Fx3x-ucvRpiRqcEbdR3jYA,nCkRAE5-SI-zEwgs3C6Prg
1nztX6MOSnq95azdkGzclg,BxpEmh2EQjGExWka-8nRIg,saep_acp_load184073@testmail.qalabs.symantec.com,qKmt9VRrQ0OjP6BWi24SUg,tR05ePGCSvOBAHWKoN5WMA
Onyk5zWtS9inqiH9ERnr5w,LxEUH7H0Rj-qNqHdhPPwVg,saep_acp_load130293@testmail.qalabs.symantec.com,41hxmHxqQpa3FN3mdhrxNg,xib3_ofaRZuKrMA-uyWStw
B8V4o235TgyAEzpNAE3dfA,uSvJ59UTR6iwCeTci_MKwQ,saep_acp_load148801@testmail.qalabs.symantec.com,oSU427CtQpG_qtAJPQ3aMw,GZAgMli8QgWEWJ6Gj-H5Cg
UtEUDtNtTLa76pIKNVkE8w,suBYSPMNQBSmo4sK0sMhng,saep_acp_load175804@testmail.qalabs.symantec.com,OkNY_EyqT3qIy2nhgka-xg,ZzIe9jDbSSOK9zqT9nkC0A
apDv1PvTQ8afVyvPqBVcBQ,eAJBDweoRWCWfIwdoIZHxg,saep_acp_load110586@testmail.qalabs.symantec.com,me7QpGf1SB2zexDSv1pdfQ,o1TW-9cuQfSs6IY0trxGgA
9xPolTlYQzmMIoDObeTxpA,VktVU88ZT1a_AusVXXK4Qw,saep_acp_load107690@testmail.qalabs.symantec.com,Fx3x-ucvRpiRqcEbdR3jYA,DQwxiHT1R463dDTCebEEXA
1nztX6MOSnq95azdkGzclg,BxpEmh2EQjGExWka-8nRIg,saep_acp_load184073@testmail.qalabs.symantec.com,qKmt9VRrQ0OjP6BWi24SUg,37-2ixQqSmu4MYVRsq4ftA
Onyk5zWtS9inqiH9ERnr5w,LxEUH7H0Rj-qNqHdhPPwVg,saep_acp_load130293@testmail.qalabs.symantec.com,41hxmHxqQpa3FN3mdhrxNg,mwo4wHwfTeGEgwydzoGEYg
B8V4o235TgyAEzpNAE3dfA,uSvJ59UTR6iwCeTci_MKwQ,saep_acp_load148801@testmail.qalabs.symantec.com,oSU427CtQpG_qtAJPQ3aMw,4CxXXROkQVmTPeExy2mZFA
UtEUDtNtTLa76pIKNVkE8w,suBYSPMNQBSmo4sK0sMhng,saep_acp_load175804@testmail.qalabs.symantec.com,OkNY_EyqT3qIy2nhgka-xg,p3hMPXd7REeuiIoitXXJRA
apDv1PvTQ8afVyvPqBVcBQ,eAJBDweoRWCWfIwdoIZHxg,saep_acp_load110586@testmail.qalabs.symantec.com,me7QpGf1SB2zexDSv1pdfQ,kSPsgz0xSpaTI_HsIgRr4Q
9xPolTlYQzmMIoDObeTxpA,VktVU88ZT1a_AusVXXK4Qw,saep_acp_load107690@testmail.qalabs.symantec.com,Fx3x-ucvRpiRqcEbdR3jYA,DJtjLJ3AT7iHcEQAMV4KrA
Onyk5zWtS9inqiH9ERnr5w,LxEUH7H0Rj-qNqHdhPPwVg,saep_acp_load130293@testmail.qalabs.symantec.com,41hxmHxqQpa3FN3mdhrxNg,RlPdNQl8Qz-DfimKzs6xhQ
B8V4o235TgyAEzpNAE3dfA,uSvJ59UTR6iwCeTci_MKwQ,saep_acp_load148801@testmail.qalabs.symantec.com,oSU427CtQpG_qtAJPQ3aMw,1gJG-2hISn-wwOvY2KCv_Q
1nztX6MOSnq95azdkGzclg,BxpEmh2EQjGExWka-8nRIg,saep_acp_load184073@testmail.qalabs.symantec.com,qKmt9VRrQ0OjP6BWi24SUg,CvXpmw3aTDCCZY7gHOkZ5A
UtEUDtNtTLa76pIKNVkE8w,suBYSPMNQBSmo4sK0sMhng,saep_acp_load175804@testmail.qalabs.symantec.com,OkNY_EyqT3qIy2nhgka-xg,r2_gWknySMiId5ABtprrEA
apDv1PvTQ8afVyvPqBVcBQ,eAJBDweoRWCWfIwdoIZHxg,saep_acp_load110586@testmail.qalabs.symantec.com,me7QpGf1SB2zexDSv1pdfQ,io3nLg-uQ7-edWtnm3XvhQ
9xPolTlYQzmMIoDObeTxpA,VktVU88ZT1a_AusVXXK4Qw,saep_acp_load107690@testmail.qalabs.symantec.com,Fx3x-ucvRpiRqcEbdR3jYA,sc4AZlbLTE6XHsMtvvoPug
Onyk5zWtS9inqiH9ERnr5w,LxEUH7H0Rj-qNqHdhPPwVg,saep_acp_load130293@testmail.qalabs.symantec.com,41hxmHxqQpa3FN3mdhrxNg,ln0UU4VISE-c7qLVRqg7-Q
B8V4o235TgyAEzpNAE3dfA,uSvJ59UTR6iwCeTci_MKwQ,saep_acp_load148801@testmail.qalabs.symantec.com,oSU427CtQpG_qtAJPQ3aMw,EUHvGXZxQgKYYWLw1UhhTg
XGnh1AH_R_GouF0klWk2wg,3x1bT0qCSc-XivJvl8NeBw,saep_acp_load158752@testmail.qalabs.symantec.com,bFMSkIP_QyWtxswc89UgJA,5o00htccQmKuyYyreCudig
9xPolTlYQzmMIoDObeTxpA,VktVU88ZT1a_AusVXXK4Qw,saep_acp_load107690@testmail.qalabs.symantec.com,Fx3x-ucvRpiRqcEbdR3jYA,PXv3sLzrRhiEv4J4mONwCg
B8V4o235TgyAEzpNAE3dfA,uSvJ59UTR6iwCeTci_MKwQ,saep_acp_load148801@testmail.qalabs.symantec.com,oSU427CtQpG_qtAJPQ3aMw,4KwaAuISSEOExGRvl2bUxw
Onyk5zWtS9inqiH9ERnr5w,LxEUH7H0Rj-qNqHdhPPwVg,saep_acp_load130293@testmail.qalabs.symantec.com,41hxmHxqQpa3FN3mdhrxNg,-12VOzKhQCS6KeBpwrlQCQ
UtEUDtNtTLa76pIKNVkE8w,suBYSPMNQBSmo4sK0sMhng,saep_acp_load175804@testmail.qalabs.symantec.com,OkNY_EyqT3qIy2nhgka-xg,2-37lrWQTO6-aXJpVA0E0g
XGnh1AH_R_GouF0klWk2wg,3x1bT0qCSc-XivJvl8NeBw,saep_acp_load158752@testmail.qalabs.symantec.com,bFMSkIP_QyWtxswc89UgJA,AVOXxyGXQ7eGF2FJopBuKQ
9xPolTlYQzmMIoDObeTxpA,VktVU88ZT1a_AusVXXK4Qw,saep_acp_load107690@testmail.qalabs.symantec.com,Fx3x-ucvRpiRqcEbdR3jYA,tu8WPjJcSwGabRvGsrrLdw
B8V4o235TgyAEzpNAE3dfA,uSvJ59UTR6iwCeTci_MKwQ,saep_acp_load148801@testmail.qalabs.symantec.com,oSU427CtQpG_qtAJPQ3aMw,wJONmM8_QJ-qf86zkBcXow
Onyk5zWtS9inqiH9ERnr5w,LxEUH7H0Rj-qNqHdhPPwVg,saep_acp_load130293@testmail.qalabs.symantec.com,41hxmHxqQpa3FN3mdhrxNg,ivKxqvyRQZeFdj2MHWwyag
UtEUDtNtTLa76pIKNVkE8w,suBYSPMNQBSmo4sK0sMhng,saep_acp_load175804@testmail.qalabs.symantec.com,OkNY_EyqT3qIy2nhgka-xg,zTRqxhObQdqP8_XwSg0GvA
XGnh1AH_R_GouF0klWk2wg,3x1bT0qCSc-XivJvl8NeBw,saep_acp_load158752@testmail.qalabs.symantec.com,bFMSkIP_QyWtxswc89UgJA,p_SllnPhTGG4aYLX1YZdvA
B8V4o235TgyAEzpNAE3dfA,uSvJ59UTR6iwCeTci_MKwQ,saep_acp_load148801@testmail.qalabs.symantec.com,oSU427CtQpG_qtAJPQ3aMw,XxpJ0pDpQ_esbAcMZDN2SQ
9xPolTlYQzmMIoDObeTxpA,VktVU88ZT1a_AusVXXK4Qw,saep_acp_load107690@testmail.qalabs.symantec.com,Fx3x-ucvRpiRqcEbdR3jYA,ddGPWYIkT9mSGsiqjmXHXA
UtEUDtNtTLa76pIKNVkE8w,suBYSPMNQBSmo4sK0sMhng,saep_acp_load175804@testmail.qalabs.symantec.com,OkNY_EyqT3qIy2nhgka-xg,wuiC6ebqRwSJtWvRROnddQ
Onyk5zWtS9inqiH9ERnr5w,LxEUH7H0Rj-qNqHdhPPwVg,saep_acp_load130293@testmail.qalabs.symantec.com,41hxmHxqQpa3FN3mdhrxNg,PIkym_toS1eATOkZFHGw_w
XGnh1AH_R_GouF0klWk2wg,3x1bT0qCSc-XivJvl8NeBw,saep_acp_load158752@testmail.qalabs.symantec.com,bFMSkIP_QyWtxswc89UgJA,hD5V1XYWRH6132GQ0PoyVw
B8V4o235TgyAEzpNAE3dfA,uSvJ59UTR6iwCeTci_MKwQ,saep_acp_load148801@testmail.qalabs.symantec.com,oSU427CtQpG_qtAJPQ3aMw,ydPvESWpS5Kr9hR871hXjw
9xPolTlYQzmMIoDObeTxpA,VktVU88ZT1a_AusVXXK4Qw,saep_acp_load107690@testmail.qalabs.symantec.com,Fx3x-ucvRpiRqcEbdR3jYA,CdhpAHnHR8WYjzsk3tl-tA
Onyk5zWtS9inqiH9ERnr5w,LxEUH7H0Rj-qNqHdhPPwVg,saep_acp_load130293@testmail.qalabs.symantec.com,41hxmHxqQpa3FN3mdhrxNg,Sl-C9NVJQ_afH0UbPn8JIg
UtEUDtNtTLa76pIKNVkE8w,suBYSPMNQBSmo4sK0sMhng,saep_acp_load175804@testmail.qalabs.symantec.com,OkNY_EyqT3qIy2nhgka-xg,sIzApP5YT-CLAOzzOchMBQ
XGnh1AH_R_GouF0klWk2wg,3x1bT0qCSc-XivJvl8NeBw,saep_acp_load158752@testmail.qalabs.symantec.com,bFMSkIP_QyWtxswc89UgJA,FdLBpZ6vQBOCVgDJmvmscA
B8V4o235TgyAEzpNAE3dfA,uSvJ59UTR6iwCeTci_MKwQ,saep_acp_load148801@testmail.qalabs.symantec.com,oSU427CtQpG_qtAJPQ3aMw,yfeUF-2HSAqNdBJ7LO96fg
UtEUDtNtTLa76pIKNVkE8w,suBYSPMNQBSmo4sK0sMhng,saep_acp_load175804@testmail.qalabs.symantec.com,OkNY_EyqT3qIy2nhgka-xg,nQHZw8eESf-atgiusl7PMw
XGnh1AH_R_GouF0klWk2wg,3x1bT0qCSc-XivJvl8NeBw,saep_acp_load158752@testmail.qalabs.symantec.com,bFMSkIP_QyWtxswc89UgJA,ZZn87Jm6Q4-hfCb98R7ROg
B8V4o235TgyAEzpNAE3dfA,uSvJ59UTR6iwCeTci_MKwQ,saep_acp_load148801@testmail.qalabs.symantec.com,oSU427CtQpG_qtAJPQ3aMw,HYbSawmQTtOuJKra4CrJ9g
Onyk5zWtS9inqiH9ERnr5w,LxEUH7H0Rj-qNqHdhPPwVg,saep_acp_load130293@testmail.qalabs.symantec.com,41hxmHxqQpa3FN3mdhrxNg,G38HYZuAQ_6JFclQXEmElQ
9xPolTlYQzmMIoDObeTxpA,VktVU88ZT1a_AusVXXK4Qw,saep_acp_load107690@testmail.qalabs.symantec.com,Fx3x-ucvRpiRqcEbdR3jYA,-weJf9H_QsKMs9tMe2HLUw
UtEUDtNtTLa76pIKNVkE8w,suBYSPMNQBSmo4sK0sMhng,saep_acp_load175804@testmail.qalabs.symantec.com,OkNY_EyqT3qIy2nhgka-xg,1eduG0ABTl-d8BWAa6QAtA
Onyk5zWtS9inqiH9ERnr5w,LxEUH7H0Rj-qNqHdhPPwVg,saep_acp_load130293@testmail.qalabs.symantec.com,41hxmHxqQpa3FN3mdhrxNg,gwVdXJy-QYypIbDEbLPMXA
B8V4o235TgyAEzpNAE3dfA,uSvJ59UTR6iwCeTci_MKwQ,saep_acp_load148801@testmail.qalabs.symantec.com,oSU427CtQpG_qtAJPQ3aMw,CwBYNg8jTsOHCFHWS7LxDA
Onyk5zWtS9inqiH9ERnr5w,LxEUH7H0Rj-qNqHdhPPwVg,saep_acp_load130293@testmail.qalabs.symantec.com,41hxmHxqQpa3FN3mdhrxNg,_vW7E6kNT2-mEb87Pu_3pA
jDiIFeHdTx2Dlcu2v0fZuA,egCnWCZRSrOw9rWm4HumjA,saep_acp_load117292@testmail.qalabs.symantec.com,gtqPMS_MTCuqJJNMMyJyBQ,gBoz_JrtTQ2q-YvPG29iFw
B8V4o235TgyAEzpNAE3dfA,uSvJ59UTR6iwCeTci_MKwQ,saep_acp_load148801@testmail.qalabs.symantec.com,oSU427CtQpG_qtAJPQ3aMw,v-YOoAg_S-6rPuQ4fF4Z1g
Onyk5zWtS9inqiH9ERnr5w,LxEUH7H0Rj-qNqHdhPPwVg,saep_acp_load130293@testmail.qalabs.symantec.com,41hxmHxqQpa3FN3mdhrxNg,ydYdkbNkR-aeWK4sXxkzPg
jDiIFeHdTx2Dlcu2v0fZuA,egCnWCZRSrOw9rWm4HumjA,saep_acp_load117292@testmail.qalabs.symantec.com,gtqPMS_MTCuqJJNMMyJyBQ,GZk4ZCZ1SFOlYHnn4QR-6Q
B8V4o235TgyAEzpNAE3dfA,uSvJ59UTR6iwCeTci_MKwQ,saep_acp_load148801@testmail.qalabs.symantec.com,oSU427CtQpG_qtAJPQ3aMw,u_1pFEvmRFiAtd7e0JY2Eg
Onyk5zWtS9inqiH9ERnr5w,LxEUH7H0Rj-qNqHdhPPwVg,saep_acp_load130293@testmail.qalabs.symantec.com,41hxmHxqQpa3FN3mdhrxNg,KfXeYPojR8yGW2MK0_tmWg
jDiIFeHdTx2Dlcu2v0fZuA,egCnWCZRSrOw9rWm4HumjA,saep_acp_load117292@testmail.qalabs.symantec.com,gtqPMS_MTCuqJJNMMyJyBQ,llMyfo0oT52jIjbGOqdpgw
B8V4o235TgyAEzpNAE3dfA,uSvJ59UTR6iwCeTci_MKwQ,saep_acp_load148801@testmail.qalabs.symantec.com,oSU427CtQpG_qtAJPQ3aMw,GUGkt47fTXmWUfe4jndzgw
Onyk5zWtS9inqiH9ERnr5w,LxEUH7H0Rj-qNqHdhPPwVg,saep_acp_load130293@testmail.qalabs.symantec.com,41hxmHxqQpa3FN3mdhrxNg,Cc7rpA4pRLOqyklkEtifkg
jDiIFeHdTx2Dlcu2v0fZuA,egCnWCZRSrOw9rWm4HumjA,saep_acp_load117292@testmail.qalabs.symantec.com,gtqPMS_MTCuqJJNMMyJyBQ,6Y6IGUR3SvmxQVBnH9JOfA
B8V4o235TgyAEzpNAE3dfA,uSvJ59UTR6iwCeTci_MKwQ,saep_acp_load148801@testmail.qalabs.symantec.com,oSU427CtQpG_qtAJPQ3aMw,o3-ZUwsgRYqzewciWXA11A
Onyk5zWtS9inqiH9ERnr5w,LxEUH7H0Rj-qNqHdhPPwVg,saep_acp_load130293@testmail.qalabs.symantec.com,41hxmHxqQpa3FN3mdhrxNg,XtHQgQe0RmmknMtwJ9oTfQ
jDiIFeHdTx2Dlcu2v0fZuA,egCnWCZRSrOw9rWm4HumjA,saep_acp_load117292@testmail.qalabs.symantec.com,gtqPMS_MTCuqJJNMMyJyBQ,3bXS_g2VSd6JolT0bOZIog
B8V4o235TgyAEzpNAE3dfA,uSvJ59UTR6iwCeTci_MKwQ,saep_acp_load148801@testmail.qalabs.symantec.com,oSU427CtQpG_qtAJPQ3aMw,lmJrFXdaSXK1VNsonRe66A
Onyk5zWtS9inqiH9ERnr5w,LxEUH7H0Rj-qNqHdhPPwVg,saep_acp_load130293@testmail.qalabs.symantec.com,41hxmHxqQpa3FN3mdhrxNg,Wt7lgjtnTHKUMSi_3AXdjg
jDiIFeHdTx2Dlcu2v0fZuA,egCnWCZRSrOw9rWm4HumjA,saep_acp_load117292@testmail.qalabs.symantec.com,gtqPMS_MTCuqJJNMMyJyBQ,19H-hglvRrmfCkKLkCxoKg
apDv1PvTQ8afVyvPqBVcBQ,eAJBDweoRWCWfIwdoIZHxg,saep_acp_load110586@testmail.qalabs.symantec.com,me7QpGf1SB2zexDSv1pdfQ,aXM0JRnASBuvxpRMVGwK6g
1nztX6MOSnq95azdkGzclg,BxpEmh2EQjGExWka-8nRIg,saep_acp_load184073@testmail.qalabs.symantec.com,qKmt9VRrQ0OjP6BWi24SUg,61KYt1bJSOW4szOTwyD3eQ
UtEUDtNtTLa76pIKNVkE8w,suBYSPMNQBSmo4sK0sMhng,saep_acp_load175804@testmail.qalabs.symantec.com,OkNY_EyqT3qIy2nhgka-xg,3_e_xCO6Sxy3-8EH_UVHKQ
9xPolTlYQzmMIoDObeTxpA,VktVU88ZT1a_AusVXXK4Qw,saep_acp_load107690@testmail.qalabs.symantec.com,Fx3x-ucvRpiRqcEbdR3jYA,cIXqdh-ZR0WaMxceqK_PLg
M-t7a878RHSLPAfHk7l-XQ,HKSxYE6xSLW7Ec4i-qtd2w,saep_acp_load196539@testmail.qalabs.symantec.com,iiKpP30xQlmc3KLPFmqHhg,sjiyo-tHQset6vDFDn4IyA
XGnh1AH_R_GouF0klWk2wg,3x1bT0qCSc-XivJvl8NeBw,saep_acp_load158752@testmail.qalabs.symantec.com,bFMSkIP_QyWtxswc89UgJA,s6zQqtePTR2Oplr3h_8jpQ
KBvvx5PBQLm1LxwfdVa-Ig,25kQiiBETEqzpH_oNq8UXA,saep_acp_load190167@testmail.qalabs.symantec.com,3kQ8XkWzQuqKceqZVS3bCw,O9mexlfSScqRrybHCrtCwA
M-t7a878RHSLPAfHk7l-XQ,HKSxYE6xSLW7Ec4i-qtd2w,saep_acp_load196539@testmail.qalabs.symantec.com,iiKpP30xQlmc3KLPFmqHhg,RP2VEhOCQkKhqFZaDWi5GQ
9xPolTlYQzmMIoDObeTxpA,VktVU88ZT1a_AusVXXK4Qw,saep_acp_load107690@testmail.qalabs.symantec.com,Fx3x-ucvRpiRqcEbdR3jYA,MTqTUOrtQGWa-zM2OUm64Q
UtEUDtNtTLa76pIKNVkE8w,suBYSPMNQBSmo4sK0sMhng,saep_acp_load175804@testmail.qalabs.symantec.com,OkNY_EyqT3qIy2nhgka-xg,rNoqnT-hQdS0972OGTk9xw
1nztX6MOSnq95azdkGzclg,BxpEmh2EQjGExWka-8nRIg,saep_acp_load184073@testmail.qalabs.symantec.com,qKmt9VRrQ0OjP6BWi24SUg,jHfxexuOQvm2XXvWxjBB-g
jDiIFeHdTx2Dlcu2v0fZuA,egCnWCZRSrOw9rWm4HumjA,saep_acp_load117292@testmail.qalabs.symantec.com,gtqPMS_MTCuqJJNMMyJyBQ,8tJfmIXRSaKZsGS9EnAKlA
XGnh1AH_R_GouF0klWk2wg,3x1bT0qCSc-XivJvl8NeBw,saep_acp_load158752@testmail.qalabs.symantec.com,bFMSkIP_QyWtxswc89UgJA,HCzEHOjUSHeoLW9OUp1ffA
9xPolTlYQzmMIoDObeTxpA,VktVU88ZT1a_AusVXXK4Qw,saep_acp_load107690@testmail.qalabs.symantec.com,Fx3x-ucvRpiRqcEbdR3jYA,d1X52xSaSFqQjbyruhoeng
UtEUDtNtTLa76pIKNVkE8w,suBYSPMNQBSmo4sK0sMhng,saep_acp_load175804@testmail.qalabs.symantec.com,OkNY_EyqT3qIy2nhgka-xg,oVav184oS42SCF9o2RIaCQ
1nztX6MOSnq95azdkGzclg,BxpEmh2EQjGExWka-8nRIg,saep_acp_load184073@testmail.qalabs.symantec.com,qKmt9VRrQ0OjP6BWi24SUg,BrI2ko0kRwWdwE4HK56ILg
KBvvx5PBQLm1LxwfdVa-Ig,25kQiiBETEqzpH_oNq8UXA,saep_acp_load190167@testmail.qalabs.symantec.com,3kQ8XkWzQuqKceqZVS3bCw,Y-6o_baNRlOecha1vrJGOw
M-t7a878RHSLPAfHk7l-XQ,HKSxYE6xSLW7Ec4i-qtd2w,saep_acp_load196539@testmail.qalabs.symantec.com,iiKpP30xQlmc3KLPFmqHhg,s0IeBv_gQ_2-7Ff-WxwEyg
jDiIFeHdTx2Dlcu2v0fZuA,egCnWCZRSrOw9rWm4HumjA,saep_acp_load117292@testmail.qalabs.symantec.com,gtqPMS_MTCuqJJNMMyJyBQ,3DtLPaHlSLWZaD29L-0-Bw
UtEUDtNtTLa76pIKNVkE8w,suBYSPMNQBSmo4sK0sMhng,saep_acp_load175804@testmail.qalabs.symantec.com,OkNY_EyqT3qIy2nhgka-xg,1wNZFtEiQWOVR9AIjfKQPw
9xPolTlYQzmMIoDObeTxpA,VktVU88ZT1a_AusVXXK4Qw,saep_acp_load107690@testmail.qalabs.symantec.com,Fx3x-ucvRpiRqcEbdR3jYA,jTbxp6HsRWWJTWy83zCwCQ
XGnh1AH_R_GouF0klWk2wg,3x1bT0qCSc-XivJvl8NeBw,saep_acp_load158752@testmail.qalabs.symantec.com,bFMSkIP_QyWtxswc89UgJA,huW40PPoRY6F1NhNs84dCA
1nztX6MOSnq95azdkGzclg,BxpEmh2EQjGExWka-8nRIg,saep_acp_load184073@testmail.qalabs.symantec.com,qKmt9VRrQ0OjP6BWi24SUg,aaUlBGd_S4OmQ9Lo7SFFDg
KBvvx5PBQLm1LxwfdVa-Ig,25kQiiBETEqzpH_oNq8UXA,saep_acp_load190167@testmail.qalabs.symantec.com,3kQ8XkWzQuqKceqZVS3bCw,1njvUGiUQkiMwDjJ8SaoHg
M-t7a878RHSLPAfHk7l-XQ,HKSxYE6xSLW7Ec4i-qtd2w,saep_acp_load196539@testmail.qalabs.symantec.com,iiKpP30xQlmc3KLPFmqHhg,W2OWXlFMQ0ekzUHFu4kDVA
jDiIFeHdTx2Dlcu2v0fZuA,egCnWCZRSrOw9rWm4HumjA,saep_acp_load117292@testmail.qalabs.symantec.com,gtqPMS_MTCuqJJNMMyJyBQ,B6keVVHCSM2-ADsve89QuA
UtEUDtNtTLa76pIKNVkE8w,suBYSPMNQBSmo4sK0sMhng,saep_acp_load175804@testmail.qalabs.symantec.com,OkNY_EyqT3qIy2nhgka-xg,ouGt9g3MRnyW8aaj4pgcwQ
9xPolTlYQzmMIoDObeTxpA,VktVU88ZT1a_AusVXXK4Qw,saep_acp_load107690@testmail.qalabs.symantec.com,Fx3x-ucvRpiRqcEbdR3jYA,QRZKelNpRA-BXDsgdkdlpg
XGnh1AH_R_GouF0klWk2wg,3x1bT0qCSc-XivJvl8NeBw,saep_acp_load158752@testmail.qalabs.symantec.com,bFMSkIP_QyWtxswc89UgJA,gnRFq68RTte7mJ9YbwsYcQ
1nztX6MOSnq95azdkGzclg,BxpEmh2EQjGExWka-8nRIg,saep_acp_load184073@testmail.qalabs.symantec.com,qKmt9VRrQ0OjP6BWi24SUg,g_ybeUxDRD-h7M_L3S32Hg
M-t7a878RHSLPAfHk7l-XQ,HKSxYE6xSLW7Ec4i-qtd2w,saep_acp_load196539@testmail.qalabs.symantec.com,iiKpP30xQlmc3KLPFmqHhg,lIPkLXJNSq-fun8RWi4J0g
jDiIFeHdTx2Dlcu2v0fZuA,egCnWCZRSrOw9rWm4HumjA,saep_acp_load117292@testmail.qalabs.symantec.com,gtqPMS_MTCuqJJNMMyJyBQ,CqNS4ulNReewJUFDUXu7Eg
9xPolTlYQzmMIoDObeTxpA,VktVU88ZT1a_AusVXXK4Qw,saep_acp_load107690@testmail.qalabs.symantec.com,Fx3x-ucvRpiRqcEbdR3jYA,EgjqbOsaT7mYkyShWPisZA
KBvvx5PBQLm1LxwfdVa-Ig,25kQiiBETEqzpH_oNq8UXA,saep_acp_load190167@testmail.qalabs.symantec.com,3kQ8XkWzQuqKceqZVS3bCw,LXSqpNAuRdKHx85jrArz2Q
UtEUDtNtTLa76pIKNVkE8w,suBYSPMNQBSmo4sK0sMhng,saep_acp_load175804@testmail.qalabs.symantec.com,OkNY_EyqT3qIy2nhgka-xg,2mKcFA9YS9-kJuUHauI1Dg
XGnh1AH_R_GouF0klWk2wg,3x1bT0qCSc-XivJvl8NeBw,saep_acp_load158752@testmail.qalabs.symantec.com,bFMSkIP_QyWtxswc89UgJA,wRNVaLFnRyOif3WKhOuNAg
M-t7a878RHSLPAfHk7l-XQ,HKSxYE6xSLW7Ec4i-qtd2w,saep_acp_load196539@testmail.qalabs.symantec.com,iiKpP30xQlmc3KLPFmqHhg,XhDHtrpKSj-ZhCRn0ISLvg
1nztX6MOSnq95azdkGzclg,BxpEmh2EQjGExWka-8nRIg,saep_acp_load184073@testmail.qalabs.symantec.com,qKmt9VRrQ0OjP6BWi24SUg,cSDiuLjFQ_GMkiWdi0mZNw
jDiIFeHdTx2Dlcu2v0fZuA,egCnWCZRSrOw9rWm4HumjA,saep_acp_load117292@testmail.qalabs.symantec.com,gtqPMS_MTCuqJJNMMyJyBQ,EX94jAvnSRGkL5eKb4hmWQ
9xPolTlYQzmMIoDObeTxpA,VktVU88ZT1a_AusVXXK4Qw,saep_acp_load107690@testmail.qalabs.symantec.com,Fx3x-ucvRpiRqcEbdR3jYA,VOrAV6jBRue3tu6h_ptQjA
Onyk5zWtS9inqiH9ERnr5w,LxEUH7H0Rj-qNqHdhPPwVg,saep_acp_load130293@testmail.qalabs.symantec.com,41hxmHxqQpa3FN3mdhrxNg,JzmTBuasSWmvMiUvoWlxxg
9xPolTlYQzmMIoDObeTxpA,VktVU88ZT1a_AusVXXK4Qw,saep_acp_load107690@testmail.qalabs.symantec.com,Fx3x-ucvRpiRqcEbdR3jYA,HFjfI1eYTFC2vOIn9XlYjw
1nztX6MOSnq95azdkGzclg,BxpEmh2EQjGExWka-8nRIg,saep_acp_load184073@testmail.qalabs.symantec.com,qKmt9VRrQ0OjP6BWi24SUg,jE08iXruScqTejsTT73w1w
jDiIFeHdTx2Dlcu2v0fZuA,egCnWCZRSrOw9rWm4HumjA,saep_acp_load117292@testmail.qalabs.symantec.com,gtqPMS_MTCuqJJNMMyJyBQ,q6-gRk2iSoCXlxRCCWjD1g
XGnh1AH_R_GouF0klWk2wg,3x1bT0qCSc-XivJvl8NeBw,saep_acp_load158752@testmail.qalabs.symantec.com,bFMSkIP_QyWtxswc89UgJA,wqed3zTMQMqsAn2Dlv1zJg
Onyk5zWtS9inqiH9ERnr5w,LxEUH7H0Rj-qNqHdhPPwVg,saep_acp_load130293@testmail.qalabs.symantec.com,41hxmHxqQpa3FN3mdhrxNg,Wl6VdR1rSEK0uHlPTy3Vsw
9xPolTlYQzmMIoDObeTxpA,VktVU88ZT1a_AusVXXK4Qw,saep_acp_load107690@testmail.qalabs.symantec.com,Fx3x-ucvRpiRqcEbdR3jYA,Sfq3txbDRcuwiOI_iGCZKg
1nztX6MOSnq95azdkGzclg,BxpEmh2EQjGExWka-8nRIg,saep_acp_load184073@testmail.qalabs.symantec.com,qKmt9VRrQ0OjP6BWi24SUg,soVrphnCT7ebcRwUB3WO7w
jDiIFeHdTx2Dlcu2v0fZuA,egCnWCZRSrOw9rWm4HumjA,saep_acp_load117292@testmail.qalabs.symantec.com,gtqPMS_MTCuqJJNMMyJyBQ,CxopECW8SRq0Xy_OpjLdXA
XGnh1AH_R_GouF0klWk2wg,3x1bT0qCSc-XivJvl8NeBw,saep_acp_load158752@testmail.qalabs.symantec.com,bFMSkIP_QyWtxswc89UgJA,xBPZF_AyQcCJejTM6iv4Tg
Onyk5zWtS9inqiH9ERnr5w,LxEUH7H0Rj-qNqHdhPPwVg,saep_acp_load130293@testmail.qalabs.symantec.com,41hxmHxqQpa3FN3mdhrxNg,zRPc5WbLSo2M_hPFl0IvtA
9xPolTlYQzmMIoDObeTxpA,VktVU88ZT1a_AusVXXK4Qw,saep_acp_load107690@testmail.qalabs.symantec.com,Fx3x-ucvRpiRqcEbdR3jYA,OZHRfRmjQxWYMzt1HqxGvw
1nztX6MOSnq95azdkGzclg,BxpEmh2EQjGExWka-8nRIg,saep_acp_load184073@testmail.qalabs.symantec.com,qKmt9VRrQ0OjP6BWi24SUg,4a1ao3-TR96yZK-j1F3Azw
jDiIFeHdTx2Dlcu2v0fZuA,egCnWCZRSrOw9rWm4HumjA,saep_acp_load117292@testmail.qalabs.symantec.com,gtqPMS_MTCuqJJNMMyJyBQ,dWBV6TfoS2SGsUEpQQ4QgA
XGnh1AH_R_GouF0klWk2wg,3x1bT0qCSc-XivJvl8NeBw,saep_acp_load158752@testmail.qalabs.symantec.com,bFMSkIP_QyWtxswc89UgJA,KXD4NcOCQoyL88N2JtQjvQ
Onyk5zWtS9inqiH9ERnr5w,LxEUH7H0Rj-qNqHdhPPwVg,saep_acp_load130293@testmail.qalabs.symantec.com,41hxmHxqQpa3FN3mdhrxNg,XyZPFLAPTD6Q7G53Ayaq-A
9xPolTlYQzmMIoDObeTxpA,VktVU88ZT1a_AusVXXK4Qw,saep_acp_load107690@testmail.qalabs.symantec.com,Fx3x-ucvRpiRqcEbdR3jYA,ZEB2ouwcQ9a8QfqK2RNLGg
1nztX6MOSnq95azdkGzclg,BxpEmh2EQjGExWka-8nRIg,saep_acp_load184073@testmail.qalabs.symantec.com,qKmt9VRrQ0OjP6BWi24SUg,jD0r6O9IRYqO6ZURlIN_Vw
jDiIFeHdTx2Dlcu2v0fZuA,egCnWCZRSrOw9rWm4HumjA,saep_acp_load117292@testmail.qalabs.symantec.com,gtqPMS_MTCuqJJNMMyJyBQ,SJQZPI0oTrybJDKH_kfOig
Onyk5zWtS9inqiH9ERnr5w,LxEUH7H0Rj-qNqHdhPPwVg,saep_acp_load130293@testmail.qalabs.symantec.com,41hxmHxqQpa3FN3mdhrxNg,2FfcVASRTneePm61V7D3hg
XGnh1AH_R_GouF0klWk2wg,3x1bT0qCSc-XivJvl8NeBw,saep_acp_load158752@testmail.qalabs.symantec.com,bFMSkIP_QyWtxswc89UgJA,1Mnn8TYMQhyPXrtwk1ARWg
9xPolTlYQzmMIoDObeTxpA,VktVU88ZT1a_AusVXXK4Qw,saep_acp_load107690@testmail.qalabs.symantec.com,Fx3x-ucvRpiRqcEbdR3jYA,rMF1OmkuQr65Za8-fKmdJg
jDiIFeHdTx2Dlcu2v0fZuA,egCnWCZRSrOw9rWm4HumjA,saep_acp_load117292@testmail.qalabs.symantec.com,gtqPMS_MTCuqJJNMMyJyBQ,hXV2Z39rTYSrhAchROkq2Q
1nztX6MOSnq95azdkGzclg,BxpEmh2EQjGExWka-8nRIg,saep_acp_load184073@testmail.qalabs.symantec.com,qKmt9VRrQ0OjP6BWi24SUg,uVeqjkxvSbSS2eTU7GtVDg
Onyk5zWtS9inqiH9ERnr5w,LxEUH7H0Rj-qNqHdhPPwVg,saep_acp_load130293@testmail.qalabs.symantec.com,41hxmHxqQpa3FN3mdhrxNg,Cbuig9k2ThuIrv5Y_yj4Fg
XGnh1AH_R_GouF0klWk2wg,3x1bT0qCSc-XivJvl8NeBw,saep_acp_load158752@testmail.qalabs.symantec.com,bFMSkIP_QyWtxswc89UgJA,IB_7QnurQnKA7QflbQWm-A
9xPolTlYQzmMIoDObeTxpA,VktVU88ZT1a_AusVXXK4Qw,saep_acp_load107690@testmail.qalabs.symantec.com,Fx3x-ucvRpiRqcEbdR3jYA,rxociGXqRDG6T1Xfx_iRNg
jDiIFeHdTx2Dlcu2v0fZuA,egCnWCZRSrOw9rWm4HumjA,saep_acp_load117292@testmail.qalabs.symantec.com,gtqPMS_MTCuqJJNMMyJyBQ,vGyR2Yh9QtCvKQggix-WtA
M-t7a878RHSLPAfHk7l-XQ,HKSxYE6xSLW7Ec4i-qtd2w,saep_acp_load196539@testmail.qalabs.symantec.com,iiKpP30xQlmc3KLPFmqHhg,tjDQEXEbTSuf3IoJA0-9xw
KBvvx5PBQLm1LxwfdVa-Ig,25kQiiBETEqzpH_oNq8UXA,saep_acp_load190167@testmail.qalabs.symantec.com,3kQ8XkWzQuqKceqZVS3bCw,i-oQWPQ0T5SdnTdGJRbW6g
UtEUDtNtTLa76pIKNVkE8w,suBYSPMNQBSmo4sK0sMhng,saep_acp_load175804@testmail.qalabs.symantec.com,OkNY_EyqT3qIy2nhgka-xg,hKxc9FetSr-ZEC5L1z_MRA
apDv1PvTQ8afVyvPqBVcBQ,eAJBDweoRWCWfIwdoIZHxg,saep_acp_load110586@testmail.qalabs.symantec.com,me7QpGf1SB2zexDSv1pdfQ,xq0ym-M5QpmsIqXvdbm5Fg
UtEUDtNtTLa76pIKNVkE8w,suBYSPMNQBSmo4sK0sMhng,saep_acp_load175804@testmail.qalabs.symantec.com,OkNY_EyqT3qIy2nhgka-xg,pEmOebIeScuVjmsBBO9aRQ
KBvvx5PBQLm1LxwfdVa-Ig,25kQiiBETEqzpH_oNq8UXA,saep_acp_load190167@testmail.qalabs.symantec.com,3kQ8XkWzQuqKceqZVS3bCw,JCu7t6Q6SJW-gNBm4JFFNg
9xPolTlYQzmMIoDObeTxpA,VktVU88ZT1a_AusVXXK4Qw,saep_acp_load107690@testmail.qalabs.symantec.com,Fx3x-ucvRpiRqcEbdR3jYA,WUsF8mffQxuJ08Ctja5fMA
M-t7a878RHSLPAfHk7l-XQ,HKSxYE6xSLW7Ec4i-qtd2w,saep_acp_load196539@testmail.qalabs.symantec.com,iiKpP30xQlmc3KLPFmqHhg,UUS85DmNSY2lr72d7XA4SQ
apDv1PvTQ8afVyvPqBVcBQ,eAJBDweoRWCWfIwdoIZHxg,saep_acp_load110586@testmail.qalabs.symantec.com,me7QpGf1SB2zexDSv1pdfQ,PSECEG0VSKWAO2ATwVpE5Q
XGnh1AH_R_GouF0klWk2wg,3x1bT0qCSc-XivJvl8NeBw,saep_acp_load158752@testmail.qalabs.symantec.com,bFMSkIP_QyWtxswc89UgJA,DtHMEtsCS3yYy1_T3ZqxLg
jDiIFeHdTx2Dlcu2v0fZuA,egCnWCZRSrOw9rWm4HumjA,saep_acp_load117292@testmail.qalabs.symantec.com,gtqPMS_MTCuqJJNMMyJyBQ,wMgTFNKkS-WaoqopUHWyZw
UtEUDtNtTLa76pIKNVkE8w,suBYSPMNQBSmo4sK0sMhng,saep_acp_load175804@testmail.qalabs.symantec.com,OkNY_EyqT3qIy2nhgka-xg,HMGTkymkQFWK3yKADioKHw
KBvvx5PBQLm1LxwfdVa-Ig,25kQiiBETEqzpH_oNq8UXA,saep_acp_load190167@testmail.qalabs.symantec.com,3kQ8XkWzQuqKceqZVS3bCw,CKkZ0htpQ8SXEHycNU5u2A
M-t7a878RHSLPAfHk7l-XQ,HKSxYE6xSLW7Ec4i-qtd2w,saep_acp_load196539@testmail.qalabs.symantec.com,iiKpP30xQlmc3KLPFmqHhg,aWg6hgIRTV6gszlhzGovGg
9xPolTlYQzmMIoDObeTxpA,VktVU88ZT1a_AusVXXK4Qw,saep_acp_load107690@testmail.qalabs.symantec.com,Fx3x-ucvRpiRqcEbdR3jYA,CtdFCVBwTVyfcmReSJo_Xw
apDv1PvTQ8afVyvPqBVcBQ,eAJBDweoRWCWfIwdoIZHxg,saep_acp_load110586@testmail.qalabs.symantec.com,me7QpGf1SB2zexDSv1pdfQ,ifDZK86mSYmpsJyHRhittA
XGnh1AH_R_GouF0klWk2wg,3x1bT0qCSc-XivJvl8NeBw,saep_acp_load158752@testmail.qalabs.symantec.com,bFMSkIP_QyWtxswc89UgJA,hRNjZJmjROKnK2ds94-AQQ
jDiIFeHdTx2Dlcu2v0fZuA,egCnWCZRSrOw9rWm4HumjA,saep_acp_load117292@testmail.qalabs.symantec.com,gtqPMS_MTCuqJJNMMyJyBQ,tzSoeDnATEaIkvzIJUqqxw
UtEUDtNtTLa76pIKNVkE8w,suBYSPMNQBSmo4sK0sMhng,saep_acp_load175804@testmail.qalabs.symantec.com,OkNY_EyqT3qIy2nhgka-xg,_2wRjZaHQR6ebi5pFkgW_A
KBvvx5PBQLm1LxwfdVa-Ig,25kQiiBETEqzpH_oNq8UXA,saep_acp_load190167@testmail.qalabs.symantec.com,3kQ8XkWzQuqKceqZVS3bCw,--7-QEmJSeOjYClvcyI9vQ
apDv1PvTQ8afVyvPqBVcBQ,eAJBDweoRWCWfIwdoIZHxg,saep_acp_load110586@testmail.qalabs.symantec.com,me7QpGf1SB2zexDSv1pdfQ,8tcH3GzCTQK2UrEIfg-wxg
M-t7a878RHSLPAfHk7l-XQ,HKSxYE6xSLW7Ec4i-qtd2w,saep_acp_load196539@testmail.qalabs.symantec.com,iiKpP30xQlmc3KLPFmqHhg,tdDsAH3PTNa7cobEm46B6w
9xPolTlYQzmMIoDObeTxpA,VktVU88ZT1a_AusVXXK4Qw,saep_acp_load107690@testmail.qalabs.symantec.com,Fx3x-ucvRpiRqcEbdR3jYA,pby8pG6UT9aTSmT8FxoOWA
XGnh1AH_R_GouF0klWk2wg,3x1bT0qCSc-XivJvl8NeBw,saep_acp_load158752@testmail.qalabs.symantec.com,bFMSkIP_QyWtxswc89UgJA,pbKKSGhpRXuQpD99pvkXgw
jDiIFeHdTx2Dlcu2v0fZuA,egCnWCZRSrOw9rWm4HumjA,saep_acp_load117292@testmail.qalabs.symantec.com,gtqPMS_MTCuqJJNMMyJyBQ,q3TJwg3zRyahODuIQKV3bg
UtEUDtNtTLa76pIKNVkE8w,suBYSPMNQBSmo4sK0sMhng,saep_acp_load175804@testmail.qalabs.symantec.com,OkNY_EyqT3qIy2nhgka-xg,UBf9jlZ6RMa_FSzvgDIfqQ
KBvvx5PBQLm1LxwfdVa-Ig,25kQiiBETEqzpH_oNq8UXA,saep_acp_load190167@testmail.qalabs.symantec.com,3kQ8XkWzQuqKceqZVS3bCw,3kMxeeC_RRKfwz2MnDxgKg
apDv1PvTQ8afVyvPqBVcBQ,eAJBDweoRWCWfIwdoIZHxg,saep_acp_load110586@testmail.qalabs.symantec.com,me7QpGf1SB2zexDSv1pdfQ,nO5313q8RXiT5MYU9KkObA
jDiIFeHdTx2Dlcu2v0fZuA,egCnWCZRSrOw9rWm4HumjA,saep_acp_load117292@testmail.qalabs.symantec.com,gtqPMS_MTCuqJJNMMyJyBQ,zzdC86dKRLOakOayykQcWw
1nztX6MOSnq95azdkGzclg,BxpEmh2EQjGExWka-8nRIg,saep_acp_load184073@testmail.qalabs.symantec.com,qKmt9VRrQ0OjP6BWi24SUg,sXEc8UW2S3eLM2mACusyKw
M-t7a878RHSLPAfHk7l-XQ,HKSxYE6xSLW7Ec4i-qtd2w,saep_acp_load196539@testmail.qalabs.symantec.com,iiKpP30xQlmc3KLPFmqHhg,uqtwZbZURPqZuGILLZ3Xeg
9xPolTlYQzmMIoDObeTxpA,VktVU88ZT1a_AusVXXK4Qw,saep_acp_load107690@testmail.qalabs.symantec.com,Fx3x-ucvRpiRqcEbdR3jYA,4eSfwa3oTPCgD7ekNURJCA
KBvvx5PBQLm1LxwfdVa-Ig,25kQiiBETEqzpH_oNq8UXA,saep_acp_load190167@testmail.qalabs.symantec.com,3kQ8XkWzQuqKceqZVS3bCw,YxFi6R33Q768F_-C3oo44g
apDv1PvTQ8afVyvPqBVcBQ,eAJBDweoRWCWfIwdoIZHxg,saep_acp_load110586@testmail.qalabs.symantec.com,me7QpGf1SB2zexDSv1pdfQ,G8X3ERPqTc2GheP0IkKe7w
XGnh1AH_R_GouF0klWk2wg,3x1bT0qCSc-XivJvl8NeBw,saep_acp_load158752@testmail.qalabs.symantec.com,bFMSkIP_QyWtxswc89UgJA,cTuVDbIiSGKjN_-4oUBY-g
UtEUDtNtTLa76pIKNVkE8w,suBYSPMNQBSmo4sK0sMhng,saep_acp_load175804@testmail.qalabs.symantec.com,OkNY_EyqT3qIy2nhgka-xg,PaRK0dTJT5uZfcHmOWNIfQ
jDiIFeHdTx2Dlcu2v0fZuA,egCnWCZRSrOw9rWm4HumjA,saep_acp_load117292@testmail.qalabs.symantec.com,gtqPMS_MTCuqJJNMMyJyBQ,0h7sgKzpQn6N-xVWm3g73w
1nztX6MOSnq95azdkGzclg,BxpEmh2EQjGExWka-8nRIg,saep_acp_load184073@testmail.qalabs.symantec.com,qKmt9VRrQ0OjP6BWi24SUg,VYtl7Yu4RqaqDB5dHLhwZA
M-t7a878RHSLPAfHk7l-XQ,HKSxYE6xSLW7Ec4i-qtd2w,saep_acp_load196539@testmail.qalabs.symantec.com,iiKpP30xQlmc3KLPFmqHhg,ivtfZlOWSZi3EX--vllx4w
KBvvx5PBQLm1LxwfdVa-Ig,25kQiiBETEqzpH_oNq8UXA,saep_acp_load190167@testmail.qalabs.symantec.com,3kQ8XkWzQuqKceqZVS3bCw,Ju2ClvMtRHq6u9mWK3nABg
9xPolTlYQzmMIoDObeTxpA,VktVU88ZT1a_AusVXXK4Qw,saep_acp_load107690@testmail.qalabs.symantec.com,Fx3x-ucvRpiRqcEbdR3jYA,CcvjxToyR9-iA02PzhwIiA
XGnh1AH_R_GouF0klWk2wg,3x1bT0qCSc-XivJvl8NeBw,saep_acp_load158752@testmail.qalabs.symantec.com,bFMSkIP_QyWtxswc89UgJA,Z3n3BbtuSTGn9Vx4z8dWMw
apDv1PvTQ8afVyvPqBVcBQ,eAJBDweoRWCWfIwdoIZHxg,saep_acp_load110586@testmail.qalabs.symantec.com,me7QpGf1SB2zexDSv1pdfQ,ArKLl_kBRfeEw3Oc55OOdQ
UtEUDtNtTLa76pIKNVkE8w,suBYSPMNQBSmo4sK0sMhng,saep_acp_load175804@testmail.qalabs.symantec.com,OkNY_EyqT3qIy2nhgka-xg,HAHNdGLpSXiqkULFK3EGKw
jDiIFeHdTx2Dlcu2v0fZuA,egCnWCZRSrOw9rWm4HumjA,saep_acp_load117292@testmail.qalabs.symantec.com,gtqPMS_MTCuqJJNMMyJyBQ,mVguw3jNSRaSFQqlvbaocg
1nztX6MOSnq95azdkGzclg,BxpEmh2EQjGExWka-8nRIg,saep_acp_load184073@testmail.qalabs.symantec.com,qKmt9VRrQ0OjP6BWi24SUg,uv9OmmTyTbivyDcKhZQOWQ
M-t7a878RHSLPAfHk7l-XQ,HKSxYE6xSLW7Ec4i-qtd2w,saep_acp_load196539@testmail.qalabs.symantec.com,iiKpP30xQlmc3KLPFmqHhg,YrGAXGS5RBKvYCHln_GyJg
KBvvx5PBQLm1LxwfdVa-Ig,25kQiiBETEqzpH_oNq8UXA,saep_acp_load190167@testmail.qalabs.symantec.com,3kQ8XkWzQuqKceqZVS3bCw,qCYTcipWTwqyQeKvJE8ipg
9xPolTlYQzmMIoDObeTxpA,VktVU88ZT1a_AusVXXK4Qw,saep_acp_load107690@testmail.qalabs.symantec.com,Fx3x-ucvRpiRqcEbdR3jYA,6x1XkHwnQU6fyhQSBlQF7w
XGnh1AH_R_GouF0klWk2wg,3x1bT0qCSc-XivJvl8NeBw,saep_acp_load158752@testmail.qalabs.symantec.com,bFMSkIP_QyWtxswc89UgJA,fIwxI_G0SsKSLB2-N6fuzg
apDv1PvTQ8afVyvPqBVcBQ,eAJBDweoRWCWfIwdoIZHxg,saep_acp_load110586@testmail.qalabs.symantec.com,me7QpGf1SB2zexDSv1pdfQ,kDshwcM7RPCI7cB2bTJnnw
UtEUDtNtTLa76pIKNVkE8w,suBYSPMNQBSmo4sK0sMhng,saep_acp_load175804@testmail.qalabs.symantec.com,OkNY_EyqT3qIy2nhgka-xg,4ypaIb2jRj-ouCP70yx9oQ
jDiIFeHdTx2Dlcu2v0fZuA,egCnWCZRSrOw9rWm4HumjA,saep_acp_load117292@testmail.qalabs.symantec.com,gtqPMS_MTCuqJJNMMyJyBQ,0kmBtlF_SEOgGF5yZwApng
1nztX6MOSnq95azdkGzclg,BxpEmh2EQjGExWka-8nRIg,saep_acp_load184073@testmail.qalabs.symantec.com,qKmt9VRrQ0OjP6BWi24SUg,OBgrN8KaSSWYJudcETEmQQ
M-t7a878RHSLPAfHk7l-XQ,HKSxYE6xSLW7Ec4i-qtd2w,saep_acp_load196539@testmail.qalabs.symantec.com,iiKpP30xQlmc3KLPFmqHhg,weHPGrgARYKKjNxeKbGJkA
9xPolTlYQzmMIoDObeTxpA,VktVU88ZT1a_AusVXXK4Qw,saep_acp_load107690@testmail.qalabs.symantec.com,Fx3x-ucvRpiRqcEbdR3jYA,l-O3P3fNRKeBtBAFH8MEvw
KBvvx5PBQLm1LxwfdVa-Ig,25kQiiBETEqzpH_oNq8UXA,saep_acp_load190167@testmail.qalabs.symantec.com,3kQ8XkWzQuqKceqZVS3bCw,ISS0GXGtRkqQ0KXCSBIcFQ
apDv1PvTQ8afVyvPqBVcBQ,eAJBDweoRWCWfIwdoIZHxg,saep_acp_load110586@testmail.qalabs.symantec.com,me7QpGf1SB2zexDSv1pdfQ,LmVd5afPRY27e0eWl0hnTQ
UtEUDtNtTLa76pIKNVkE8w,suBYSPMNQBSmo4sK0sMhng,saep_acp_load175804@testmail.qalabs.symantec.com,OkNY_EyqT3qIy2nhgka-xg,q6sFU9juQOeY1NRohfs2lg
9xPolTlYQzmMIoDObeTxpA,VktVU88ZT1a_AusVXXK4Qw,saep_acp_load107690@testmail.qalabs.symantec.com,Fx3x-ucvRpiRqcEbdR3jYA,6-w4WfXDTU-x4v7Vq_wm2g
KBvvx5PBQLm1LxwfdVa-Ig,25kQiiBETEqzpH_oNq8UXA,saep_acp_load190167@testmail.qalabs.symantec.com,3kQ8XkWzQuqKceqZVS3bCw,G45MsH4gQVu2DxzrBt8eUA
M-t7a878RHSLPAfHk7l-XQ,HKSxYE6xSLW7Ec4i-qtd2w,saep_acp_load196539@testmail.qalabs.symantec.com,iiKpP30xQlmc3KLPFmqHhg,5O_sQi59QCuzXQCR9QBksg
apDv1PvTQ8afVyvPqBVcBQ,eAJBDweoRWCWfIwdoIZHxg,saep_acp_load110586@testmail.qalabs.symantec.com,me7QpGf1SB2zexDSv1pdfQ,dsewTNHXTRSOaPo0XjicUw
UtEUDtNtTLa76pIKNVkE8w,suBYSPMNQBSmo4sK0sMhng,saep_acp_load175804@testmail.qalabs.symantec.com,OkNY_EyqT3qIy2nhgka-xg,7la1Lor9Rs2SndNGAEkXIw
9xPolTlYQzmMIoDObeTxpA,VktVU88ZT1a_AusVXXK4Qw,saep_acp_load107690@testmail.qalabs.symantec.com,Fx3x-ucvRpiRqcEbdR3jYA,y4qrsNZBSH6ZRCQ1HJjSng
KBvvx5PBQLm1LxwfdVa-Ig,25kQiiBETEqzpH_oNq8UXA,saep_acp_load190167@testmail.qalabs.symantec.com,3kQ8XkWzQuqKceqZVS3bCw,QkVY3uHQTgqyKn3Cuh4V_w
apDv1PvTQ8afVyvPqBVcBQ,eAJBDweoRWCWfIwdoIZHxg,saep_acp_load110586@testmail.qalabs.symantec.com,me7QpGf1SB2zexDSv1pdfQ,uqsTPckwTwq31FzrgVnwuA
M-t7a878RHSLPAfHk7l-XQ,HKSxYE6xSLW7Ec4i-qtd2w,saep_acp_load196539@testmail.qalabs.symantec.com,iiKpP30xQlmc3KLPFmqHhg,7uB0lPjETbizTRFhlonCEw
UtEUDtNtTLa76pIKNVkE8w,suBYSPMNQBSmo4sK0sMhng,saep_acp_load175804@testmail.qalabs.symantec.com,OkNY_EyqT3qIy2nhgka-xg,7xXbjuuTT2KZvsJ_Zr3JTg
9xPolTlYQzmMIoDObeTxpA,VktVU88ZT1a_AusVXXK4Qw,saep_acp_load107690@testmail.qalabs.symantec.com,Fx3x-ucvRpiRqcEbdR3jYA,E-szNyffQZq1ihouZK05hg
KBvvx5PBQLm1LxwfdVa-Ig,25kQiiBETEqzpH_oNq8UXA,saep_acp_load190167@testmail.qalabs.symantec.com,3kQ8XkWzQuqKceqZVS3bCw,z1P7RArnTJanX_z0EECZhw
apDv1PvTQ8afVyvPqBVcBQ,eAJBDweoRWCWfIwdoIZHxg,saep_acp_load110586@testmail.qalabs.symantec.com,me7QpGf1SB2zexDSv1pdfQ,RZaDMIZdT7OwahXKDKPc7g
M-t7a878RHSLPAfHk7l-XQ,HKSxYE6xSLW7Ec4i-qtd2w,saep_acp_load196539@testmail.qalabs.symantec.com,iiKpP30xQlmc3KLPFmqHhg,cn9ZxHKLSHGw3eeVec-7Mg
UtEUDtNtTLa76pIKNVkE8w,suBYSPMNQBSmo4sK0sMhng,saep_acp_load175804@testmail.qalabs.symantec.com,OkNY_EyqT3qIy2nhgka-xg,XLF0CZcmQgyPr8nTkuPzpw
9xPolTlYQzmMIoDObeTxpA,VktVU88ZT1a_AusVXXK4Qw,saep_acp_load107690@testmail.qalabs.symantec.com,Fx3x-ucvRpiRqcEbdR3jYA,A2QDEyKtQUqZSezkPk9Cwg
apDv1PvTQ8afVyvPqBVcBQ,eAJBDweoRWCWfIwdoIZHxg,saep_acp_load110586@testmail.qalabs.symantec.com,me7QpGf1SB2zexDSv1pdfQ,jdlwSe8HTvS4miVpz5QBzA
KBvvx5PBQLm1LxwfdVa-Ig,25kQiiBETEqzpH_oNq8UXA,saep_acp_load190167@testmail.qalabs.symantec.com,3kQ8XkWzQuqKceqZVS3bCw,m7VcmG06Q4CGNQhhit3K-Q
M-t7a878RHSLPAfHk7l-XQ,HKSxYE6xSLW7Ec4i-qtd2w,saep_acp_load196539@testmail.qalabs.symantec.com,iiKpP30xQlmc3KLPFmqHhg,u71qY0uJS0Smq1kA05sM2A
UtEUDtNtTLa76pIKNVkE8w,suBYSPMNQBSmo4sK0sMhng,saep_acp_load175804@testmail.qalabs.symantec.com,OkNY_EyqT3qIy2nhgka-xg,p3N324vqSimtbCEq1lehMw
9xPolTlYQzmMIoDObeTxpA,VktVU88ZT1a_AusVXXK4Qw,saep_acp_load107690@testmail.qalabs.symantec.com,Fx3x-ucvRpiRqcEbdR3jYA,B1o5GZ65RkWWHq06X3f2UA
apDv1PvTQ8afVyvPqBVcBQ,eAJBDweoRWCWfIwdoIZHxg,saep_acp_load110586@testmail.qalabs.symantec.com,me7QpGf1SB2zexDSv1pdfQ,nu5IwiYhQYqkObKXqERFnw
KBvvx5PBQLm1LxwfdVa-Ig,25kQiiBETEqzpH_oNq8UXA,saep_acp_load190167@testmail.qalabs.symantec.com,3kQ8XkWzQuqKceqZVS3bCw,PmydPyNLQWW0M9y4QPNLcA
M-t7a878RHSLPAfHk7l-XQ,HKSxYE6xSLW7Ec4i-qtd2w,saep_acp_load196539@testmail.qalabs.symantec.com,iiKpP30xQlmc3KLPFmqHhg,pQzBSWk8TXCFYRxbPHoXMg
9xPolTlYQzmMIoDObeTxpA,VktVU88ZT1a_AusVXXK4Qw,saep_acp_load107690@testmail.qalabs.symantec.com,Fx3x-ucvRpiRqcEbdR3jYA,C4285VkmTSCIditi8E5J7Q
UtEUDtNtTLa76pIKNVkE8w,suBYSPMNQBSmo4sK0sMhng,saep_acp_load175804@testmail.qalabs.symantec.com,OkNY_EyqT3qIy2nhgka-xg,DV45YQv-SgyZQA3KczLadg
apDv1PvTQ8afVyvPqBVcBQ,eAJBDweoRWCWfIwdoIZHxg,saep_acp_load110586@testmail.qalabs.symantec.com,me7QpGf1SB2zexDSv1pdfQ,hczei5osR-inkSBnSuVaWg
M-t7a878RHSLPAfHk7l-XQ,HKSxYE6xSLW7Ec4i-qtd2w,saep_acp_load196539@testmail.qalabs.symantec.com,iiKpP30xQlmc3KLPFmqHhg,FWhwYye5Rv6tMb-VFOpE6A
XGnh1AH_R_GouF0klWk2wg,3x1bT0qCSc-XivJvl8NeBw,saep_acp_load158752@testmail.qalabs.symantec.com,bFMSkIP_QyWtxswc89UgJA,vOlc2wi-SoWHC7mLPMIwjw
jDiIFeHdTx2Dlcu2v0fZuA,egCnWCZRSrOw9rWm4HumjA,saep_acp_load117292@testmail.qalabs.symantec.com,gtqPMS_MTCuqJJNMMyJyBQ,SAc8S0X6T0Gl711XROiXUw
1nztX6MOSnq95azdkGzclg,BxpEmh2EQjGExWka-8nRIg,saep_acp_load184073@testmail.qalabs.symantec.com,qKmt9VRrQ0OjP6BWi24SUg,Z1BWdWPxQgSSm08C22lekA
XGnh1AH_R_GouF0klWk2wg,3x1bT0qCSc-XivJvl8NeBw,saep_acp_load158752@testmail.qalabs.symantec.com,bFMSkIP_QyWtxswc89UgJA,EbB7l4P-S3CtkZeaMyZRDw
M-t7a878RHSLPAfHk7l-XQ,HKSxYE6xSLW7Ec4i-qtd2w,saep_acp_load196539@testmail.qalabs.symantec.com,iiKpP30xQlmc3KLPFmqHhg,fBEiBL1zTHuJnGc5W_ecjA
apDv1PvTQ8afVyvPqBVcBQ,eAJBDweoRWCWfIwdoIZHxg,saep_acp_load110586@testmail.qalabs.symantec.com,me7QpGf1SB2zexDSv1pdfQ,SFuIOCBURlW6nA5_tgCGOg
jDiIFeHdTx2Dlcu2v0fZuA,egCnWCZRSrOw9rWm4HumjA,saep_acp_load117292@testmail.qalabs.symantec.com,gtqPMS_MTCuqJJNMMyJyBQ,YsIszGipQ9-XSvpgyh6QLg
UtEUDtNtTLa76pIKNVkE8w,suBYSPMNQBSmo4sK0sMhng,saep_acp_load175804@testmail.qalabs.symantec.com,OkNY_EyqT3qIy2nhgka-xg,9LviSg-0T3K552paDnpj1g
1nztX6MOSnq95azdkGzclg,BxpEmh2EQjGExWka-8nRIg,saep_acp_load184073@testmail.qalabs.symantec.com,qKmt9VRrQ0OjP6BWi24SUg,ybpbUbt4SBWjRZ_03OA9uA
apDv1PvTQ8afVyvPqBVcBQ,eAJBDweoRWCWfIwdoIZHxg,saep_acp_load110586@testmail.qalabs.symantec.com,me7QpGf1SB2zexDSv1pdfQ,SEqIkw40QWe8nYvU3chgCw
XGnh1AH_R_GouF0klWk2wg,3x1bT0qCSc-XivJvl8NeBw,saep_acp_load158752@testmail.qalabs.symantec.com,bFMSkIP_QyWtxswc89UgJA,L-XoY8fvQsiobxYrDYgKfg
M-t7a878RHSLPAfHk7l-XQ,HKSxYE6xSLW7Ec4i-qtd2w,saep_acp_load196539@testmail.qalabs.symantec.com,iiKpP30xQlmc3KLPFmqHhg,1EweiogjRTGz_aMdOKPcUA
jDiIFeHdTx2Dlcu2v0fZuA,egCnWCZRSrOw9rWm4HumjA,saep_acp_load117292@testmail.qalabs.symantec.com,gtqPMS_MTCuqJJNMMyJyBQ,m7h6dfSJQpOC4oDRysdHzA
UtEUDtNtTLa76pIKNVkE8w,suBYSPMNQBSmo4sK0sMhng,saep_acp_load175804@testmail.qalabs.symantec.com,OkNY_EyqT3qIy2nhgka-xg,KtJH4l5uRbylPulOiYjuww
1nztX6MOSnq95azdkGzclg,BxpEmh2EQjGExWka-8nRIg,saep_acp_load184073@testmail.qalabs.symantec.com,qKmt9VRrQ0OjP6BWi24SUg,pZnMSwrDSSSqcgpe68c9Tg
KBvvx5PBQLm1LxwfdVa-Ig,25kQiiBETEqzpH_oNq8UXA,saep_acp_load190167@testmail.qalabs.symantec.com,3kQ8XkWzQuqKceqZVS3bCw,3K35E94kToGHliUrNgks3Q
UtEUDtNtTLa76pIKNVkE8w,suBYSPMNQBSmo4sK0sMhng,saep_acp_load175804@testmail.qalabs.symantec.com,OkNY_EyqT3qIy2nhgka-xg,aaHQm72JS9OJD18xqCTvmg
XGnh1AH_R_GouF0klWk2wg,3x1bT0qCSc-XivJvl8NeBw,saep_acp_load158752@testmail.qalabs.symantec.com,bFMSkIP_QyWtxswc89UgJA,PNW0bgdTT-eSncVnjNjVWA
jDiIFeHdTx2Dlcu2v0fZuA,egCnWCZRSrOw9rWm4HumjA,saep_acp_load117292@testmail.qalabs.symantec.com,gtqPMS_MTCuqJJNMMyJyBQ,7WGX6sb6TRaz6pxHr-Zt9w
1nztX6MOSnq95azdkGzclg,BxpEmh2EQjGExWka-8nRIg,saep_acp_load184073@testmail.qalabs.symantec.com,qKmt9VRrQ0OjP6BWi24SUg,GXYbg8wzRjO_T3Z1pvFI4g
M-t7a878RHSLPAfHk7l-XQ,HKSxYE6xSLW7Ec4i-qtd2w,saep_acp_load196539@testmail.qalabs.symantec.com,iiKpP30xQlmc3KLPFmqHhg,P2a9F6H4SfG3EAlcvnNv-g
KBvvx5PBQLm1LxwfdVa-Ig,25kQiiBETEqzpH_oNq8UXA,saep_acp_load190167@testmail.qalabs.symantec.com,3kQ8XkWzQuqKceqZVS3bCw,UiASnSVtTs2htyEPknJKgg
1nztX6MOSnq95azdkGzclg,BxpEmh2EQjGExWka-8nRIg,saep_acp_load184073@testmail.qalabs.symantec.com,qKmt9VRrQ0OjP6BWi24SUg,-GzjQLqqSfGJeCkbX8jJfw
M-t7a878RHSLPAfHk7l-XQ,HKSxYE6xSLW7Ec4i-qtd2w,saep_acp_load196539@testmail.qalabs.symantec.com,iiKpP30xQlmc3KLPFmqHhg,ABTdSALnSJ6FfhIgwUSKrw
jDiIFeHdTx2Dlcu2v0fZuA,egCnWCZRSrOw9rWm4HumjA,saep_acp_load117292@testmail.qalabs.symantec.com,gtqPMS_MTCuqJJNMMyJyBQ,SkX2CnLqQtq_B4_mjDHbMQ
KBvvx5PBQLm1LxwfdVa-Ig,25kQiiBETEqzpH_oNq8UXA,saep_acp_load190167@testmail.qalabs.symantec.com,3kQ8XkWzQuqKceqZVS3bCw,kJXKEkMRT7GHRO6pkcSbKw
M-t7a878RHSLPAfHk7l-XQ,HKSxYE6xSLW7Ec4i-qtd2w,saep_acp_load196539@testmail.qalabs.symantec.com,iiKpP30xQlmc3KLPFmqHhg,ZfwLzO0LTbG5S6mmix7TVQ
1nztX6MOSnq95azdkGzclg,BxpEmh2EQjGExWka-8nRIg,saep_acp_load184073@testmail.qalabs.symantec.com,qKmt9VRrQ0OjP6BWi24SUg,OIS_HpkySwWZ5_qVRMu2kQ
KBvvx5PBQLm1LxwfdVa-Ig,25kQiiBETEqzpH_oNq8UXA,saep_acp_load190167@testmail.qalabs.symantec.com,3kQ8XkWzQuqKceqZVS3bCw,9dU6giJoSr-0c6tuJjCtTA
jDiIFeHdTx2Dlcu2v0fZuA,egCnWCZRSrOw9rWm4HumjA,saep_acp_load117292@testmail.qalabs.symantec.com,gtqPMS_MTCuqJJNMMyJyBQ,EMoUHDJtQHK0VCPNasej6w
XGnh1AH_R_GouF0klWk2wg,3x1bT0qCSc-XivJvl8NeBw,saep_acp_load158752@testmail.qalabs.symantec.com,bFMSkIP_QyWtxswc89UgJA,AWuOR8xgQY6uUZEQslfF9A
M-t7a878RHSLPAfHk7l-XQ,HKSxYE6xSLW7Ec4i-qtd2w,saep_acp_load196539@testmail.qalabs.symantec.com,iiKpP30xQlmc3KLPFmqHhg,f2vWiu9cQ6GJ8XYZHV9GVg
KBvvx5PBQLm1LxwfdVa-Ig,25kQiiBETEqzpH_oNq8UXA,saep_acp_load190167@testmail.qalabs.symantec.com,3kQ8XkWzQuqKceqZVS3bCw,LIZPgLM0S3q0BI6hiumwXQ
1nztX6MOSnq95azdkGzclg,BxpEmh2EQjGExWka-8nRIg,saep_acp_load184073@testmail.qalabs.symantec.com,qKmt9VRrQ0OjP6BWi24SUg,5lRSoBVsSnWHwSJWKP1hEw
jDiIFeHdTx2Dlcu2v0fZuA,egCnWCZRSrOw9rWm4HumjA,saep_acp_load117292@testmail.qalabs.symantec.com,gtqPMS_MTCuqJJNMMyJyBQ,4yCaoeN1SxaREncCxbna0w
M-t7a878RHSLPAfHk7l-XQ,HKSxYE6xSLW7Ec4i-qtd2w,saep_acp_load196539@testmail.qalabs.symantec.com,iiKpP30xQlmc3KLPFmqHhg,tnzEzxrMT7SdZ6k2KclipQ
KBvvx5PBQLm1LxwfdVa-Ig,25kQiiBETEqzpH_oNq8UXA,saep_acp_load190167@testmail.qalabs.symantec.com,3kQ8XkWzQuqKceqZVS3bCw,50vDrQe8TiC1WNHffY54wQ
XGnh1AH_R_GouF0klWk2wg,3x1bT0qCSc-XivJvl8NeBw,saep_acp_load158752@testmail.qalabs.symantec.com,bFMSkIP_QyWtxswc89UgJA,LWs5-ZQ-TH24wKuprm4Yhg
1nztX6MOSnq95azdkGzclg,BxpEmh2EQjGExWka-8nRIg,saep_acp_load184073@testmail.qalabs.symantec.com,qKmt9VRrQ0OjP6BWi24SUg,JIEF10jcSa-FGQHAh_sQIA
XGnh1AH_R_GouF0klWk2wg,3x1bT0qCSc-XivJvl8NeBw,saep_acp_load158752@testmail.qalabs.symantec.com,bFMSkIP_QyWtxswc89UgJA,eo9dZBymSGitoEWmWYC_7g
KBvvx5PBQLm1LxwfdVa-Ig,25kQiiBETEqzpH_oNq8UXA,saep_acp_load190167@testmail.qalabs.symantec.com,3kQ8XkWzQuqKceqZVS3bCw,uate8wcvRZiWvU5aukwxnA
1nztX6MOSnq95azdkGzclg,BxpEmh2EQjGExWka-8nRIg,saep_acp_load184073@testmail.qalabs.symantec.com,qKmt9VRrQ0OjP6BWi24SUg,tBgZzutsTxa6BhnOTAFIKQ
XGnh1AH_R_GouF0klWk2wg,3x1bT0qCSc-XivJvl8NeBw,saep_acp_load158752@testmail.qalabs.symantec.com,bFMSkIP_QyWtxswc89UgJA,nocEOrbxQY-Csdiy4N6oYw
KBvvx5PBQLm1LxwfdVa-Ig,25kQiiBETEqzpH_oNq8UXA,saep_acp_load190167@testmail.qalabs.symantec.com,3kQ8XkWzQuqKceqZVS3bCw,neH4j-xcRL-_vWSvK_QJjA
XGnh1AH_R_GouF0klWk2wg,3x1bT0qCSc-XivJvl8NeBw,saep_acp_load158752@testmail.qalabs.symantec.com,bFMSkIP_QyWtxswc89UgJA,Ty6htXkWS1KLPGVgnENubA
1nztX6MOSnq95azdkGzclg,BxpEmh2EQjGExWka-8nRIg,saep_acp_load184073@testmail.qalabs.symantec.com,qKmt9VRrQ0OjP6BWi24SUg,JFcx1OVTSV6cz-dPsqaR9Q
KBvvx5PBQLm1LxwfdVa-Ig,25kQiiBETEqzpH_oNq8UXA,saep_acp_load190167@testmail.qalabs.symantec.com,3kQ8XkWzQuqKceqZVS3bCw,2bLmyUTMRaaOHFfJGBbPDQ
XGnh1AH_R_GouF0klWk2wg,3x1bT0qCSc-XivJvl8NeBw,saep_acp_load158752@testmail.qalabs.symantec.com,bFMSkIP_QyWtxswc89UgJA,MQzT8EfqSXK3UPA0QTd8xg
KBvvx5PBQLm1LxwfdVa-Ig,25kQiiBETEqzpH_oNq8UXA,saep_acp_load190167@testmail.qalabs.symantec.com,3kQ8XkWzQuqKceqZVS3bCw,x8jtjRDpTfScQSFUaiNgVw
1nztX6MOSnq95azdkGzclg,BxpEmh2EQjGExWka-8nRIg,saep_acp_load184073@testmail.qalabs.symantec.com,qKmt9VRrQ0OjP6BWi24SUg,I1Ee3MhWRhWReF3maFBFxw
jDiIFeHdTx2Dlcu2v0fZuA,egCnWCZRSrOw9rWm4HumjA,saep_acp_load117292@testmail.qalabs.symantec.com,gtqPMS_MTCuqJJNMMyJyBQ,3bT2uMVNQvOQtOE6akxvYw
XGnh1AH_R_GouF0klWk2wg,3x1bT0qCSc-XivJvl8NeBw,saep_acp_load158752@testmail.qalabs.symantec.com,bFMSkIP_QyWtxswc89UgJA,fEZUVi_tQ2OJoU4_avpo6A
KBvvx5PBQLm1LxwfdVa-Ig,25kQiiBETEqzpH_oNq8UXA,saep_acp_load190167@testmail.qalabs.symantec.com,3kQ8XkWzQuqKceqZVS3bCw,vHkIjK3RR2umDgxys_RGnw
1nztX6MOSnq95azdkGzclg,BxpEmh2EQjGExWka-8nRIg,saep_acp_load184073@testmail.qalabs.symantec.com,qKmt9VRrQ0OjP6BWi24SUg,8iwagMsXQKW4ihpCKK4Hng
KBvvx5PBQLm1LxwfdVa-Ig,25kQiiBETEqzpH_oNq8UXA,saep_acp_load190167@testmail.qalabs.symantec.com,3kQ8XkWzQuqKceqZVS3bCw,BDiJ-lymQgicwC8hbRV6tQ
XGnh1AH_R_GouF0klWk2wg,3x1bT0qCSc-XivJvl8NeBw,saep_acp_load158752@testmail.qalabs.symantec.com,bFMSkIP_QyWtxswc89UgJA,uJ24d5xxT3yx2mUJt7hV8Q
jDiIFeHdTx2Dlcu2v0fZuA,egCnWCZRSrOw9rWm4HumjA,saep_acp_load117292@testmail.qalabs.symantec.com,gtqPMS_MTCuqJJNMMyJyBQ,wPlRtQZuRI2wVvp3BElBtg
KBvvx5PBQLm1LxwfdVa-Ig,25kQiiBETEqzpH_oNq8UXA,saep_acp_load190167@testmail.qalabs.symantec.com,3kQ8XkWzQuqKceqZVS3bCw,ITR1QYI6TCa9QGV5guqG4g
1nztX6MOSnq95azdkGzclg,BxpEmh2EQjGExWka-8nRIg,saep_acp_load184073@testmail.qalabs.symantec.com,qKmt9VRrQ0OjP6BWi24SUg,9TjI6Y7qQ-mPf8vo5yvnSg
XGnh1AH_R_GouF0klWk2wg,3x1bT0qCSc-XivJvl8NeBw,saep_acp_load158752@testmail.qalabs.symantec.com,bFMSkIP_QyWtxswc89UgJA,j7VVI1lhTs-ry-Tb_-ltRA
jDiIFeHdTx2Dlcu2v0fZuA,egCnWCZRSrOw9rWm4HumjA,saep_acp_load117292@testmail.qalabs.symantec.com,gtqPMS_MTCuqJJNMMyJyBQ,5xA_92tcRM25t3h2YR52gg
KBvvx5PBQLm1LxwfdVa-Ig,25kQiiBETEqzpH_oNq8UXA,saep_acp_load190167@testmail.qalabs.symantec.com,3kQ8XkWzQuqKceqZVS3bCw,6ILbivL2Qk6Ec_tMYLHEag
XGnh1AH_R_GouF0klWk2wg,3x1bT0qCSc-XivJvl8NeBw,saep_acp_load158752@testmail.qalabs.symantec.com,bFMSkIP_QyWtxswc89UgJA,iNe2KJlNSVWi_DNrBD_ZyA
KBvvx5PBQLm1LxwfdVa-Ig,25kQiiBETEqzpH_oNq8UXA,saep_acp_load190167@testmail.qalabs.symantec.com,3kQ8XkWzQuqKceqZVS3bCw,frvT15DSSqOh4ZgtzdHr4Q
1nztX6MOSnq95azdkGzclg,BxpEmh2EQjGExWka-8nRIg,saep_acp_load184073@testmail.qalabs.symantec.com,qKmt9VRrQ0OjP6BWi24SUg,UiBVLenGTWmhkEsMBsfGCA
jDiIFeHdTx2Dlcu2v0fZuA,egCnWCZRSrOw9rWm4HumjA,saep_acp_load117292@testmail.qalabs.symantec.com,gtqPMS_MTCuqJJNMMyJyBQ,QLbc1Gj7QI2DosJn4XsgWQ
XGnh1AH_R_GouF0klWk2wg,3x1bT0qCSc-XivJvl8NeBw,saep_acp_load158752@testmail.qalabs.symantec.com,bFMSkIP_QyWtxswc89UgJA,xDhZMVe_SWqef3E59U6l4A
KBvvx5PBQLm1LxwfdVa-Ig,25kQiiBETEqzpH_oNq8UXA,saep_acp_load190167@testmail.qalabs.symantec.com,3kQ8XkWzQuqKceqZVS3bCw,1d_EiuMDSeeM680bemLDuQ
1nztX6MOSnq95azdkGzclg,BxpEmh2EQjGExWka-8nRIg,saep_acp_load184073@testmail.qalabs.symantec.com,qKmt9VRrQ0OjP6BWi24SUg,97rjyr9hQKaqux87vzYUYQ
jDiIFeHdTx2Dlcu2v0fZuA,egCnWCZRSrOw9rWm4HumjA,saep_acp_load117292@testmail.qalabs.symantec.com,gtqPMS_MTCuqJJNMMyJyBQ,-4QfIZx_RZS5_kwWU1CTxw
XGnh1AH_R_GouF0klWk2wg,3x1bT0qCSc-XivJvl8NeBw,saep_acp_load158752@testmail.qalabs.symantec.com,bFMSkIP_QyWtxswc89UgJA,FXBRgYiMTJCHbaWLDip2qw
KBvvx5PBQLm1LxwfdVa-Ig,25kQiiBETEqzpH_oNq8UXA,saep_acp_load190167@testmail.qalabs.symantec.com,3kQ8XkWzQuqKceqZVS3bCw,k-YtJQzHQgaf0JXWIjSUPw
1nztX6MOSnq95azdkGzclg,BxpEmh2EQjGExWka-8nRIg,saep_acp_load184073@testmail.qalabs.symantec.com,qKmt9VRrQ0OjP6BWi24SUg,6d_GdUf-TQqQ6Gau448E6g
jDiIFeHdTx2Dlcu2v0fZuA,egCnWCZRSrOw9rWm4HumjA,saep_acp_load117292@testmail.qalabs.symantec.com,gtqPMS_MTCuqJJNMMyJyBQ,2XX004TySwiA7V6VmdJ0KA
XGnh1AH_R_GouF0klWk2wg,3x1bT0qCSc-XivJvl8NeBw,saep_acp_load158752@testmail.qalabs.symantec.com,bFMSkIP_QyWtxswc89UgJA,wd93hlFOS1ur0ZLv-Drmig
KBvvx5PBQLm1LxwfdVa-Ig,25kQiiBETEqzpH_oNq8UXA,saep_acp_load190167@testmail.qalabs.symantec.com,3kQ8XkWzQuqKceqZVS3bCw,wWxdtp9lQ9mD5hq-CfLMKg
jDiIFeHdTx2Dlcu2v0fZuA,egCnWCZRSrOw9rWm4HumjA,saep_acp_load117292@testmail.qalabs.symantec.com,gtqPMS_MTCuqJJNMMyJyBQ,_uFc_YuTTcGf5Wc2dNiI5w
XGnh1AH_R_GouF0klWk2wg,3x1bT0qCSc-XivJvl8NeBw,saep_acp_load158752@testmail.qalabs.symantec.com,bFMSkIP_QyWtxswc89UgJA,SEITIMEKQsetlCFXfDG-Pg
jDiIFeHdTx2Dlcu2v0fZuA,egCnWCZRSrOw9rWm4HumjA,saep_acp_load117292@testmail.qalabs.symantec.com,gtqPMS_MTCuqJJNMMyJyBQ,rhbQTNUzTh-bFXhQjC15EA
KBvvx5PBQLm1LxwfdVa-Ig,25kQiiBETEqzpH_oNq8UXA,saep_acp_load190167@testmail.qalabs.symantec.com,3kQ8XkWzQuqKceqZVS3bCw,MSXBCtU9TEaEWk7M35EY5w
XGnh1AH_R_GouF0klWk2wg,3x1bT0qCSc-XivJvl8NeBw,saep_acp_load158752@testmail.qalabs.symantec.com,bFMSkIP_QyWtxswc89UgJA,LoRQnLJlQBefOEjtoY_Q_A
jDiIFeHdTx2Dlcu2v0fZuA,egCnWCZRSrOw9rWm4HumjA,saep_acp_load117292@testmail.qalabs.symantec.com,gtqPMS_MTCuqJJNMMyJyBQ,RnejpnNpSIONp0TMSsKiWg
XGnh1AH_R_GouF0klWk2wg,3x1bT0qCSc-XivJvl8NeBw,saep_acp_load158752@testmail.qalabs.symantec.com,bFMSkIP_QyWtxswc89UgJA,Ge_dB6upRrCxik5y8cJIrw
KBvvx5PBQLm1LxwfdVa-Ig,25kQiiBETEqzpH_oNq8UXA,saep_acp_load190167@testmail.qalabs.symantec.com,3kQ8XkWzQuqKceqZVS3bCw,4_CmTcwvQAyzaI57fnWOJg
jDiIFeHdTx2Dlcu2v0fZuA,egCnWCZRSrOw9rWm4HumjA,saep_acp_load117292@testmail.qalabs.symantec.com,gtqPMS_MTCuqJJNMMyJyBQ,8rSjWGMfQvGE-eeeEohzQw
XGnh1AH_R_GouF0klWk2wg,3x1bT0qCSc-XivJvl8NeBw,saep_acp_load158752@testmail.qalabs.symantec.com,bFMSkIP_QyWtxswc89UgJA,e7tgp9n2QrCn4DT64ZPp-g
KBvvx5PBQLm1LxwfdVa-Ig,25kQiiBETEqzpH_oNq8UXA,saep_acp_load190167@testmail.qalabs.symantec.com,3kQ8XkWzQuqKceqZVS3bCw,Ns7xSTkFRmaT8U2tP2owSg
jDiIFeHdTx2Dlcu2v0fZuA,egCnWCZRSrOw9rWm4HumjA,saep_acp_load117292@testmail.qalabs.symantec.com,gtqPMS_MTCuqJJNMMyJyBQ,6-5TZrXCS82Q3hqOSx1PAA
XGnh1AH_R_GouF0klWk2wg,3x1bT0qCSc-XivJvl8NeBw,saep_acp_load158752@testmail.qalabs.symantec.com,bFMSkIP_QyWtxswc89UgJA,dkUr1_0TTeaRYlEfWEFxGg
KBvvx5PBQLm1LxwfdVa-Ig,25kQiiBETEqzpH_oNq8UXA,saep_acp_load190167@testmail.qalabs.symantec.com,3kQ8XkWzQuqKceqZVS3bCw,4Angf0rGSZyf_xnFsJU1Vg
jDiIFeHdTx2Dlcu2v0fZuA,egCnWCZRSrOw9rWm4HumjA,saep_acp_load117292@testmail.qalabs.symantec.com,gtqPMS_MTCuqJJNMMyJyBQ,nj7eazfoS0GJ3FoHxpuvqg
XGnh1AH_R_GouF0klWk2wg,3x1bT0qCSc-XivJvl8NeBw,saep_acp_load158752@testmail.qalabs.symantec.com,bFMSkIP_QyWtxswc89UgJA,FO_4UACySheDCucaRx85bA
KBvvx5PBQLm1LxwfdVa-Ig,25kQiiBETEqzpH_oNq8UXA,saep_acp_load190167@testmail.qalabs.symantec.com,3kQ8XkWzQuqKceqZVS3bCw,D7KxuWdZQm2FLWQdjJqOng
jDiIFeHdTx2Dlcu2v0fZuA,egCnWCZRSrOw9rWm4HumjA,saep_acp_load117292@testmail.qalabs.symantec.com,gtqPMS_MTCuqJJNMMyJyBQ,TJEJejQUS9qYDala83WWDg
XGnh1AH_R_GouF0klWk2wg,3x1bT0qCSc-XivJvl8NeBw,saep_acp_load158752@testmail.qalabs.symantec.com,bFMSkIP_QyWtxswc89UgJA,npQN9kxERRuBrXV3r3O4yQ
KBvvx5PBQLm1LxwfdVa-Ig,25kQiiBETEqzpH_oNq8UXA,saep_acp_load190167@testmail.qalabs.symantec.com,3kQ8XkWzQuqKceqZVS3bCw,dsRUBt_gSDadgIth3Tym6g
jDiIFeHdTx2Dlcu2v0fZuA,egCnWCZRSrOw9rWm4HumjA,saep_acp_load117292@testmail.qalabs.symantec.com,gtqPMS_MTCuqJJNMMyJyBQ,Vz8IzGFuS3271ReeBvtBhw
XGnh1AH_R_GouF0klWk2wg,3x1bT0qCSc-XivJvl8NeBw,saep_acp_load158752@testmail.qalabs.symantec.com,bFMSkIP_QyWtxswc89UgJA,RH9iG7QXQ1-5A9kt3DSzhw
KBvvx5PBQLm1LxwfdVa-Ig,25kQiiBETEqzpH_oNq8UXA,saep_acp_load190167@testmail.qalabs.symantec.com,3kQ8XkWzQuqKceqZVS3bCw,ib5m9vDzRCmCXL-F1ncZ2Q
jDiIFeHdTx2Dlcu2v0fZuA,egCnWCZRSrOw9rWm4HumjA,saep_acp_load117292@testmail.qalabs.symantec.com,gtqPMS_MTCuqJJNMMyJyBQ,TRFKsBI3QReZlMhtHA_waw
XGnh1AH_R_GouF0klWk2wg,3x1bT0qCSc-XivJvl8NeBw,saep_acp_load158752@testmail.qalabs.symantec.com,bFMSkIP_QyWtxswc89UgJA,qaIjy3Y4Tny6nOHTLIInYg
KBvvx5PBQLm1LxwfdVa-Ig,25kQiiBETEqzpH_oNq8UXA,saep_acp_load190167@testmail.qalabs.symantec.com,3kQ8XkWzQuqKceqZVS3bCw,oFq0IURCRamAe6GKfSfN3w
jDiIFeHdTx2Dlcu2v0fZuA,egCnWCZRSrOw9rWm4HumjA,saep_acp_load117292@testmail.qalabs.symantec.com,gtqPMS_MTCuqJJNMMyJyBQ,-jhB2EIiQ2-g7njPiMBu1w
XGnh1AH_R_GouF0klWk2wg,3x1bT0qCSc-XivJvl8NeBw,saep_acp_load158752@testmail.qalabs.symantec.com,bFMSkIP_QyWtxswc89UgJA,fByNfGvVSdG1aYCyKOF8qA
KBvvx5PBQLm1LxwfdVa-Ig,25kQiiBETEqzpH_oNq8UXA,saep_acp_load190167@testmail.qalabs.symantec.com,3kQ8XkWzQuqKceqZVS3bCw,pQXrBNvbRICXRBVudYqQqQ
jDiIFeHdTx2Dlcu2v0fZuA,egCnWCZRSrOw9rWm4HumjA,saep_acp_load117292@testmail.qalabs.symantec.com,gtqPMS_MTCuqJJNMMyJyBQ,_5J0X86FQRm9AxekkZedBQ
XGnh1AH_R_GouF0klWk2wg,3x1bT0qCSc-XivJvl8NeBw,saep_acp_load158752@testmail.qalabs.symantec.com,bFMSkIP_QyWtxswc89UgJA,P36fe6OST16ufY_KlTMH8w
KBvvx5PBQLm1LxwfdVa-Ig,25kQiiBETEqzpH_oNq8UXA,saep_acp_load190167@testmail.qalabs.symantec.com,3kQ8XkWzQuqKceqZVS3bCw,fGAbk0B5QyGk7S-N2QEsJg
jDiIFeHdTx2Dlcu2v0fZuA,egCnWCZRSrOw9rWm4HumjA,saep_acp_load117292@testmail.qalabs.symantec.com,gtqPMS_MTCuqJJNMMyJyBQ,BlNPOlc2Rt-DyudOVaT5ig
jDiIFeHdTx2Dlcu2v0fZuA,egCnWCZRSrOw9rWm4HumjA,saep_acp_load117292@testmail.qalabs.symantec.com,gtqPMS_MTCuqJJNMMyJyBQ,F25XKET0Q1eqRWhUJ-7AJA
KBvvx5PBQLm1LxwfdVa-Ig,25kQiiBETEqzpH_oNq8UXA,saep_acp_load190167@testmail.qalabs.symantec.com,3kQ8XkWzQuqKceqZVS3bCw,OXT5V0Q7QCybY0SccPm_4g
KBvvx5PBQLm1LxwfdVa-Ig,25kQiiBETEqzpH_oNq8UXA,saep_acp_load190167@testmail.qalabs.symantec.com,3kQ8XkWzQuqKceqZVS3bCw,JtopP1i5SF6yMAhpzTLuPg
KBvvx5PBQLm1LxwfdVa-Ig,25kQiiBETEqzpH_oNq8UXA,saep_acp_load190167@testmail.qalabs.symantec.com,3kQ8XkWzQuqKceqZVS3bCw,S7OXdhZgTsqTRcSlUl4Vtw
KBvvx5PBQLm1LxwfdVa-Ig,25kQiiBETEqzpH_oNq8UXA,saep_acp_load190167@testmail.qalabs.symantec.com,3kQ8XkWzQuqKceqZVS3bCw,4gNENAnHT9OgpUChD7J93g
igpuI6OdQnaLAKzVkO3aRg,7MiKoJ-fTseCgILfacIjFg,saep_acp_load186507@testmail.qalabs.symantec.com,VFjrRwbBR3OJiI9oQqWtFQ,zk_QV69fRnaetnZG580xnA
igpuI6OdQnaLAKzVkO3aRg,7MiKoJ-fTseCgILfacIjFg,saep_acp_load186507@testmail.qalabs.symantec.com,VFjrRwbBR3OJiI9oQqWtFQ,1eRfhYvISfOM0CHtzQ30pw
igpuI6OdQnaLAKzVkO3aRg,7MiKoJ-fTseCgILfacIjFg,saep_acp_load186507@testmail.qalabs.symantec.com,VFjrRwbBR3OJiI9oQqWtFQ,gKcU-u6XRwiUaSrER_1NXw
igpuI6OdQnaLAKzVkO3aRg,7MiKoJ-fTseCgILfacIjFg,saep_acp_load186507@testmail.qalabs.symantec.com,VFjrRwbBR3OJiI9oQqWtFQ,FIye95EbSVyHuTcnQBegYQ
igpuI6OdQnaLAKzVkO3aRg,7MiKoJ-fTseCgILfacIjFg,saep_acp_load186507@testmail.qalabs.symantec.com,VFjrRwbBR3OJiI9oQqWtFQ,nuwvcio6QceAdGbvRZsnpQ
igpuI6OdQnaLAKzVkO3aRg,7MiKoJ-fTseCgILfacIjFg,saep_acp_load186507@testmail.qalabs.symantec.com,VFjrRwbBR3OJiI9oQqWtFQ,tOpEnHUTRgqvPoeL3akSig
igpuI6OdQnaLAKzVkO3aRg,7MiKoJ-fTseCgILfacIjFg,saep_acp_load186507@testmail.qalabs.symantec.com,VFjrRwbBR3OJiI9oQqWtFQ,6qL-A1dTSJ-K2MAFTTO5SQ
igpuI6OdQnaLAKzVkO3aRg,7MiKoJ-fTseCgILfacIjFg,saep_acp_load186507@testmail.qalabs.symantec.com,VFjrRwbBR3OJiI9oQqWtFQ,NzCAKndPSoaoPc-RUArI7A
igpuI6OdQnaLAKzVkO3aRg,7MiKoJ-fTseCgILfacIjFg,saep_acp_load186507@testmail.qalabs.symantec.com,VFjrRwbBR3OJiI9oQqWtFQ,ptgI6IC1RRaJDhyOAgxMvA
igpuI6OdQnaLAKzVkO3aRg,7MiKoJ-fTseCgILfacIjFg,saep_acp_load186507@testmail.qalabs.symantec.com,VFjrRwbBR3OJiI9oQqWtFQ,c67-ejKCSKaLbntGkIkTUw
igpuI6OdQnaLAKzVkO3aRg,7MiKoJ-fTseCgILfacIjFg,saep_acp_load186507@testmail.qalabs.symantec.com,VFjrRwbBR3OJiI9oQqWtFQ,mn5o_aWGTKiQdfCwCoRbNQ
igpuI6OdQnaLAKzVkO3aRg,7MiKoJ-fTseCgILfacIjFg,saep_acp_load186507@testmail.qalabs.symantec.com,VFjrRwbBR3OJiI9oQqWtFQ,Y9JUM7puSYqTWVNNl0XtLg
igpuI6OdQnaLAKzVkO3aRg,7MiKoJ-fTseCgILfacIjFg,saep_acp_load186507@testmail.qalabs.symantec.com,VFjrRwbBR3OJiI9oQqWtFQ,E6UeyVJrSZWRz8Xm4sopoQ
igpuI6OdQnaLAKzVkO3aRg,7MiKoJ-fTseCgILfacIjFg,saep_acp_load186507@testmail.qalabs.symantec.com,VFjrRwbBR3OJiI9oQqWtFQ,tT4TijhAT-i-KkoLHQMEew
igpuI6OdQnaLAKzVkO3aRg,7MiKoJ-fTseCgILfacIjFg,saep_acp_load186507@testmail.qalabs.symantec.com,VFjrRwbBR3OJiI9oQqWtFQ,0EmXUVzMSuqcMp_NL3HZGQ
igpuI6OdQnaLAKzVkO3aRg,7MiKoJ-fTseCgILfacIjFg,saep_acp_load186507@testmail.qalabs.symantec.com,VFjrRwbBR3OJiI9oQqWtFQ,4YhvrRJ8RXarO2U9Y7SP1Q
igpuI6OdQnaLAKzVkO3aRg,7MiKoJ-fTseCgILfacIjFg,saep_acp_load186507@testmail.qalabs.symantec.com,VFjrRwbBR3OJiI9oQqWtFQ,awRRJpSfTjC0Lci2PU9w9Q
igpuI6OdQnaLAKzVkO3aRg,7MiKoJ-fTseCgILfacIjFg,saep_acp_load186507@testmail.qalabs.symantec.com,VFjrRwbBR3OJiI9oQqWtFQ,brtyexz4Tx2ad0Y8Om1AKw
igpuI6OdQnaLAKzVkO3aRg,7MiKoJ-fTseCgILfacIjFg,saep_acp_load186507@testmail.qalabs.symantec.com,VFjrRwbBR3OJiI9oQqWtFQ,-3m413NwS6O200lDDR7TaQ
igpuI6OdQnaLAKzVkO3aRg,7MiKoJ-fTseCgILfacIjFg,saep_acp_load186507@testmail.qalabs.symantec.com,VFjrRwbBR3OJiI9oQqWtFQ,5Ur1lJZhS0ylUblO8liB-A
igpuI6OdQnaLAKzVkO3aRg,7MiKoJ-fTseCgILfacIjFg,saep_acp_load186507@testmail.qalabs.symantec.com,VFjrRwbBR3OJiI9oQqWtFQ,NztfFHdERQiResv8SiXpfw
igpuI6OdQnaLAKzVkO3aRg,7MiKoJ-fTseCgILfacIjFg,saep_acp_load186507@testmail.qalabs.symantec.com,VFjrRwbBR3OJiI9oQqWtFQ,XmtexH0lTNGo7ffEDlVvtg
igpuI6OdQnaLAKzVkO3aRg,7MiKoJ-fTseCgILfacIjFg,saep_acp_load186507@testmail.qalabs.symantec.com,VFjrRwbBR3OJiI9oQqWtFQ,2FAoEP4dS_Wyly-OrZU8Cg
igpuI6OdQnaLAKzVkO3aRg,7MiKoJ-fTseCgILfacIjFg,saep_acp_load186507@testmail.qalabs.symantec.com,VFjrRwbBR3OJiI9oQqWtFQ,rA1OKpPJSZ-ZhTdjUiABMQ
igpuI6OdQnaLAKzVkO3aRg,7MiKoJ-fTseCgILfacIjFg,saep_acp_load186507@testmail.qalabs.symantec.com,VFjrRwbBR3OJiI9oQqWtFQ,13542U2uQweO09H6qGLgkw
igpuI6OdQnaLAKzVkO3aRg,7MiKoJ-fTseCgILfacIjFg,saep_acp_load186507@testmail.qalabs.symantec.com,VFjrRwbBR3OJiI9oQqWtFQ,edtxJjmNRKqu4KAkX5C9Sw
igpuI6OdQnaLAKzVkO3aRg,7MiKoJ-fTseCgILfacIjFg,saep_acp_load186507@testmail.qalabs.symantec.com,VFjrRwbBR3OJiI9oQqWtFQ,IpH7IkwmQGiGNDUNythV8w
igpuI6OdQnaLAKzVkO3aRg,7MiKoJ-fTseCgILfacIjFg,saep_acp_load186507@testmail.qalabs.symantec.com,VFjrRwbBR3OJiI9oQqWtFQ,sihyZ3dcQJ2wheVCvWJZ0Q
igpuI6OdQnaLAKzVkO3aRg,7MiKoJ-fTseCgILfacIjFg,saep_acp_load186507@testmail.qalabs.symantec.com,VFjrRwbBR3OJiI9oQqWtFQ,mg3bs3gsT3GSeIEibrUgCQ
igpuI6OdQnaLAKzVkO3aRg,7MiKoJ-fTseCgILfacIjFg,saep_acp_load186507@testmail.qalabs.symantec.com,VFjrRwbBR3OJiI9oQqWtFQ,EVu5Z6QXR-6eNRNLBKZ5-A
igpuI6OdQnaLAKzVkO3aRg,7MiKoJ-fTseCgILfacIjFg,saep_acp_load186507@testmail.qalabs.symantec.com,VFjrRwbBR3OJiI9oQqWtFQ,UzvPFixmRWCLUrUoychdcg
igpuI6OdQnaLAKzVkO3aRg,7MiKoJ-fTseCgILfacIjFg,saep_acp_load186507@testmail.qalabs.symantec.com,VFjrRwbBR3OJiI9oQqWtFQ,VD0MvnZ7Qba3R4lbvCov6A
igpuI6OdQnaLAKzVkO3aRg,7MiKoJ-fTseCgILfacIjFg,saep_acp_load186507@testmail.qalabs.symantec.com,VFjrRwbBR3OJiI9oQqWtFQ,-0q8TqRsSmmK2ToUWqa8uw
igpuI6OdQnaLAKzVkO3aRg,7MiKoJ-fTseCgILfacIjFg,saep_acp_load186507@testmail.qalabs.symantec.com,VFjrRwbBR3OJiI9oQqWtFQ,mbAcEZABR_O2tQEhd3sg0A
igpuI6OdQnaLAKzVkO3aRg,7MiKoJ-fTseCgILfacIjFg,saep_acp_load186507@testmail.qalabs.symantec.com,VFjrRwbBR3OJiI9oQqWtFQ,LRXERfKdRYm4Nmoq8IaRmA
igpuI6OdQnaLAKzVkO3aRg,7MiKoJ-fTseCgILfacIjFg,saep_acp_load186507@testmail.qalabs.symantec.com,VFjrRwbBR3OJiI9oQqWtFQ,iz2P0xn6SHmcK5UYReGOhA
igpuI6OdQnaLAKzVkO3aRg,7MiKoJ-fTseCgILfacIjFg,saep_acp_load186507@testmail.qalabs.symantec.com,VFjrRwbBR3OJiI9oQqWtFQ,wh1TkeI5T9GMdBhvCCwk2w
igpuI6OdQnaLAKzVkO3aRg,7MiKoJ-fTseCgILfacIjFg,saep_acp_load186507@testmail.qalabs.symantec.com,VFjrRwbBR3OJiI9oQqWtFQ,w0L687qQToWOXaEDDqrArA
igpuI6OdQnaLAKzVkO3aRg,7MiKoJ-fTseCgILfacIjFg,saep_acp_load186507@testmail.qalabs.symantec.com,VFjrRwbBR3OJiI9oQqWtFQ,Wjz-af4RR0eCYknQ56paWA
igpuI6OdQnaLAKzVkO3aRg,7MiKoJ-fTseCgILfacIjFg,saep_acp_load186507@testmail.qalabs.symantec.com,VFjrRwbBR3OJiI9oQqWtFQ,ZNwORuCSRayRSliyNCSmcA
igpuI6OdQnaLAKzVkO3aRg,7MiKoJ-fTseCgILfacIjFg,saep_acp_load186507@testmail.qalabs.symantec.com,VFjrRwbBR3OJiI9oQqWtFQ,89zfOXa_QnqXjDy1M21xmA
igpuI6OdQnaLAKzVkO3aRg,7MiKoJ-fTseCgILfacIjFg,saep_acp_load186507@testmail.qalabs.symantec.com,VFjrRwbBR3OJiI9oQqWtFQ,5cOC0_QxQHOgFACW5yf3ig
igpuI6OdQnaLAKzVkO3aRg,7MiKoJ-fTseCgILfacIjFg,saep_acp_load186507@testmail.qalabs.symantec.com,VFjrRwbBR3OJiI9oQqWtFQ,2nonmZU3ThKTwEuZGATicw
igpuI6OdQnaLAKzVkO3aRg,7MiKoJ-fTseCgILfacIjFg,saep_acp_load186507@testmail.qalabs.symantec.com,VFjrRwbBR3OJiI9oQqWtFQ,ZUfv30twShSfs9qBgpuzXA
igpuI6OdQnaLAKzVkO3aRg,7MiKoJ-fTseCgILfacIjFg,saep_acp_load186507@testmail.qalabs.symantec.com,VFjrRwbBR3OJiI9oQqWtFQ,7O90KGCMS_-LUcz4YJT-Ug
igpuI6OdQnaLAKzVkO3aRg,7MiKoJ-fTseCgILfacIjFg,saep_acp_load186507@testmail.qalabs.symantec.com,VFjrRwbBR3OJiI9oQqWtFQ,bjPLH3g4QvibwArA9DVddA
igpuI6OdQnaLAKzVkO3aRg,7MiKoJ-fTseCgILfacIjFg,saep_acp_load186507@testmail.qalabs.symantec.com,VFjrRwbBR3OJiI9oQqWtFQ,LJNrs4nuS0mA-YXZBVuLyg
igpuI6OdQnaLAKzVkO3aRg,7MiKoJ-fTseCgILfacIjFg,saep_acp_load186507@testmail.qalabs.symantec.com,VFjrRwbBR3OJiI9oQqWtFQ,UoHipRX4Te-Ed4kh0cWhBg
igpuI6OdQnaLAKzVkO3aRg,7MiKoJ-fTseCgILfacIjFg,saep_acp_load186507@testmail.qalabs.symantec.com,VFjrRwbBR3OJiI9oQqWtFQ,vyu1FOjuTJeXKzghLs8kyw
igpuI6OdQnaLAKzVkO3aRg,7MiKoJ-fTseCgILfacIjFg,saep_acp_load186507@testmail.qalabs.symantec.com,VFjrRwbBR3OJiI9oQqWtFQ,ueif4VYzTBS8BTwQue8Oxw
