DuHZ3Iv6RiuQR2oe1A3V1w,-IbULumSRvyomGH2u_8DLg,saep_acp_load143076@testmail.qalabs.symantec.com,SEuMGi19TM6_fwoZp988Tw,SW1qXd9wS3SFz_HWzs5jTQ
DuHZ3Iv6RiuQR2oe1A3V1w,-IbULumSRvyomGH2u_8DLg,saep_acp_load143076@testmail.qalabs.symantec.com,SEuMGi19TM6_fwoZp988Tw,2D5kay2NQhOXKhSIFiPFyA
DuHZ3Iv6RiuQR2oe1A3V1w,-IbULumSRvyomGH2u_8DLg,saep_acp_load143076@testmail.qalabs.symantec.com,SEuMGi19TM6_fwoZp988Tw,-elKzpsaRBSF8LyxO00CcQ
DuHZ3Iv6RiuQR2oe1A3V1w,-IbULumSRvyomGH2u_8DLg,saep_acp_load143076@testmail.qalabs.symantec.com,SEuMGi19TM6_fwoZp988Tw,ZnAif3oETtGBo7RqTVchzg
DuHZ3Iv6RiuQR2oe1A3V1w,-IbULumSRvyomGH2u_8DLg,saep_acp_load143076@testmail.qalabs.symantec.com,SEuMGi19TM6_fwoZp988Tw,0c9ttRa3T728KXGaKZsPEA
DuHZ3Iv6RiuQR2oe1A3V1w,-IbULumSRvyomGH2u_8DLg,saep_acp_load143076@testmail.qalabs.symantec.com,SEuMGi19TM6_fwoZp988Tw,2HNKBkulTfWG3XAY9XYfzQ
DuHZ3Iv6RiuQR2oe1A3V1w,-IbULumSRvyomGH2u_8DLg,saep_acp_load143076@testmail.qalabs.symantec.com,SEuMGi19TM6_fwoZp988Tw,ipsnEHQPT-WvmK1vBT237w
DuHZ3Iv6RiuQR2oe1A3V1w,-IbULumSRvyomGH2u_8DLg,saep_acp_load143076@testmail.qalabs.symantec.com,SEuMGi19TM6_fwoZp988Tw,4llzT-8AR7aDMXmGEJImCg
DuHZ3Iv6RiuQR2oe1A3V1w,-IbULumSRvyomGH2u_8DLg,saep_acp_load143076@testmail.qalabs.symantec.com,SEuMGi19TM6_fwoZp988Tw,3zJ0VtrtSMqlr1NgLTAm1A
DuHZ3Iv6RiuQR2oe1A3V1w,-IbULumSRvyomGH2u_8DLg,saep_acp_load143076@testmail.qalabs.symantec.com,SEuMGi19TM6_fwoZp988Tw,ZVpIJBJuQfCS8uE2zlOO1g
DuHZ3Iv6RiuQR2oe1A3V1w,-IbULumSRvyomGH2u_8DLg,saep_acp_load143076@testmail.qalabs.symantec.com,SEuMGi19TM6_fwoZp988Tw,WiWShRMeQga6FE5Gg7qM_g
DuHZ3Iv6RiuQR2oe1A3V1w,-IbULumSRvyomGH2u_8DLg,saep_acp_load143076@testmail.qalabs.symantec.com,SEuMGi19TM6_fwoZp988Tw,gXtdqesBR_eAlmFYmVXW0Q
DuHZ3Iv6RiuQR2oe1A3V1w,-IbULumSRvyomGH2u_8DLg,saep_acp_load143076@testmail.qalabs.symantec.com,SEuMGi19TM6_fwoZp988Tw,6cnwKkVyQDunisavW_iyzg
DuHZ3Iv6RiuQR2oe1A3V1w,-IbULumSRvyomGH2u_8DLg,saep_acp_load143076@testmail.qalabs.symantec.com,SEuMGi19TM6_fwoZp988Tw,3Fx_lMkiQO6cKP98DMDk4g
DuHZ3Iv6RiuQR2oe1A3V1w,-IbULumSRvyomGH2u_8DLg,saep_acp_load143076@testmail.qalabs.symantec.com,SEuMGi19TM6_fwoZp988Tw,niytF307RUeZmJ6t6l6wUw
DuHZ3Iv6RiuQR2oe1A3V1w,-IbULumSRvyomGH2u_8DLg,saep_acp_load143076@testmail.qalabs.symantec.com,SEuMGi19TM6_fwoZp988Tw,dC9m_CX7SOW6yweC3QrA-Q
DuHZ3Iv6RiuQR2oe1A3V1w,-IbULumSRvyomGH2u_8DLg,saep_acp_load143076@testmail.qalabs.symantec.com,SEuMGi19TM6_fwoZp988Tw,iIqUIACES-O2wQst7Yv5uQ
DuHZ3Iv6RiuQR2oe1A3V1w,-IbULumSRvyomGH2u_8DLg,saep_acp_load143076@testmail.qalabs.symantec.com,SEuMGi19TM6_fwoZp988Tw,ghWRc4qJRdyMq9Wk-ohTNA
DuHZ3Iv6RiuQR2oe1A3V1w,-IbULumSRvyomGH2u_8DLg,saep_acp_load143076@testmail.qalabs.symantec.com,SEuMGi19TM6_fwoZp988Tw,tzQoZdJsRImXeqIloK_e8A
DuHZ3Iv6RiuQR2oe1A3V1w,-IbULumSRvyomGH2u_8DLg,saep_acp_load143076@testmail.qalabs.symantec.com,SEuMGi19TM6_fwoZp988Tw,8fYSov-DR1-ghh3H1MgXhg
DuHZ3Iv6RiuQR2oe1A3V1w,-IbULumSRvyomGH2u_8DLg,saep_acp_load143076@testmail.qalabs.symantec.com,SEuMGi19TM6_fwoZp988Tw,eD_jFYu0T1KWwsy2J0pReQ
DuHZ3Iv6RiuQR2oe1A3V1w,-IbULumSRvyomGH2u_8DLg,saep_acp_load143076@testmail.qalabs.symantec.com,SEuMGi19TM6_fwoZp988Tw,yfY3piiASK2DqAL3tlQ-1w
DuHZ3Iv6RiuQR2oe1A3V1w,-IbULumSRvyomGH2u_8DLg,saep_acp_load143076@testmail.qalabs.symantec.com,SEuMGi19TM6_fwoZp988Tw,borwdtNxSKy3mv7d0mW-ng
DuHZ3Iv6RiuQR2oe1A3V1w,-IbULumSRvyomGH2u_8DLg,saep_acp_load143076@testmail.qalabs.symantec.com,SEuMGi19TM6_fwoZp988Tw,vYC-r6WjQ1i65yPPvD0ZLA
DuHZ3Iv6RiuQR2oe1A3V1w,-IbULumSRvyomGH2u_8DLg,saep_acp_load143076@testmail.qalabs.symantec.com,SEuMGi19TM6_fwoZp988Tw,_iSBIe9zS2CBG5Fdu3meGQ
DuHZ3Iv6RiuQR2oe1A3V1w,-IbULumSRvyomGH2u_8DLg,saep_acp_load143076@testmail.qalabs.symantec.com,SEuMGi19TM6_fwoZp988Tw,LyIchWolRQ6ky8n9jHmupw
DuHZ3Iv6RiuQR2oe1A3V1w,-IbULumSRvyomGH2u_8DLg,saep_acp_load143076@testmail.qalabs.symantec.com,SEuMGi19TM6_fwoZp988Tw,D3c1hdZuQKaCgpzEu8aIvw
DuHZ3Iv6RiuQR2oe1A3V1w,-IbULumSRvyomGH2u_8DLg,saep_acp_load143076@testmail.qalabs.symantec.com,SEuMGi19TM6_fwoZp988Tw,NM_-OxqUR2-XtMzL5oQA1w
DuHZ3Iv6RiuQR2oe1A3V1w,-IbULumSRvyomGH2u_8DLg,saep_acp_load143076@testmail.qalabs.symantec.com,SEuMGi19TM6_fwoZp988Tw,kzKqqv0iSdOvovcqUF9GMA
DuHZ3Iv6RiuQR2oe1A3V1w,-IbULumSRvyomGH2u_8DLg,saep_acp_load143076@testmail.qalabs.symantec.com,SEuMGi19TM6_fwoZp988Tw,K1BpqhkiRoeGcck0IwUdVg
DuHZ3Iv6RiuQR2oe1A3V1w,-IbULumSRvyomGH2u_8DLg,saep_acp_load143076@testmail.qalabs.symantec.com,SEuMGi19TM6_fwoZp988Tw,5-j4p-KrQBikcvYvBtumhg
DuHZ3Iv6RiuQR2oe1A3V1w,-IbULumSRvyomGH2u_8DLg,saep_acp_load143076@testmail.qalabs.symantec.com,SEuMGi19TM6_fwoZp988Tw,7wG6Buz6TXu0w5sqmLB5bQ
DuHZ3Iv6RiuQR2oe1A3V1w,-IbULumSRvyomGH2u_8DLg,saep_acp_load143076@testmail.qalabs.symantec.com,SEuMGi19TM6_fwoZp988Tw,YWULEaHwQQCUvPukCZchiA
DuHZ3Iv6RiuQR2oe1A3V1w,-IbULumSRvyomGH2u_8DLg,saep_acp_load143076@testmail.qalabs.symantec.com,SEuMGi19TM6_fwoZp988Tw,bCWySxStT2uefLukV3c7MQ
DuHZ3Iv6RiuQR2oe1A3V1w,-IbULumSRvyomGH2u_8DLg,saep_acp_load143076@testmail.qalabs.symantec.com,SEuMGi19TM6_fwoZp988Tw,Gt6YXGadT4iw7M2iqvV5Jg
DuHZ3Iv6RiuQR2oe1A3V1w,-IbULumSRvyomGH2u_8DLg,saep_acp_load143076@testmail.qalabs.symantec.com,SEuMGi19TM6_fwoZp988Tw,yqduVG-mT5azRvBVE4Vh1A
DuHZ3Iv6RiuQR2oe1A3V1w,-IbULumSRvyomGH2u_8DLg,saep_acp_load143076@testmail.qalabs.symantec.com,SEuMGi19TM6_fwoZp988Tw,Yh30s7VXTQqNNID3lYC18w
DuHZ3Iv6RiuQR2oe1A3V1w,-IbULumSRvyomGH2u_8DLg,saep_acp_load143076@testmail.qalabs.symantec.com,SEuMGi19TM6_fwoZp988Tw,VFQ62UwdRiijRWbboWQkDw
DuHZ3Iv6RiuQR2oe1A3V1w,-IbULumSRvyomGH2u_8DLg,saep_acp_load143076@testmail.qalabs.symantec.com,SEuMGi19TM6_fwoZp988Tw,zr0V8_WIScmX9XGOOoVgMA
DuHZ3Iv6RiuQR2oe1A3V1w,-IbULumSRvyomGH2u_8DLg,saep_acp_load143076@testmail.qalabs.symantec.com,SEuMGi19TM6_fwoZp988Tw,vvW9jM5jRLyaEvZzhXlLgQ
DuHZ3Iv6RiuQR2oe1A3V1w,-IbULumSRvyomGH2u_8DLg,saep_acp_load143076@testmail.qalabs.symantec.com,SEuMGi19TM6_fwoZp988Tw,cPXs4XMmRWyiiJ6OGoiuxw
DuHZ3Iv6RiuQR2oe1A3V1w,-IbULumSRvyomGH2u_8DLg,saep_acp_load143076@testmail.qalabs.symantec.com,SEuMGi19TM6_fwoZp988Tw,l9US6ctLQrav4C5KNtryCA
DuHZ3Iv6RiuQR2oe1A3V1w,-IbULumSRvyomGH2u_8DLg,saep_acp_load143076@testmail.qalabs.symantec.com,SEuMGi19TM6_fwoZp988Tw,Vp6a45SpQnimKVLgCj7DOQ
DuHZ3Iv6RiuQR2oe1A3V1w,-IbULumSRvyomGH2u_8DLg,saep_acp_load143076@testmail.qalabs.symantec.com,SEuMGi19TM6_fwoZp988Tw,m-vP74Y1SlKhzbmZLdubEQ
DuHZ3Iv6RiuQR2oe1A3V1w,-IbULumSRvyomGH2u_8DLg,saep_acp_load143076@testmail.qalabs.symantec.com,SEuMGi19TM6_fwoZp988Tw,mLolQALmSzal5BAClPsn-g
DuHZ3Iv6RiuQR2oe1A3V1w,-IbULumSRvyomGH2u_8DLg,saep_acp_load143076@testmail.qalabs.symantec.com,SEuMGi19TM6_fwoZp988Tw,D38Lun5VTWa2UeQ0tfzPjQ
DuHZ3Iv6RiuQR2oe1A3V1w,-IbULumSRvyomGH2u_8DLg,saep_acp_load143076@testmail.qalabs.symantec.com,SEuMGi19TM6_fwoZp988Tw,GsWm_Fd5RSq-OZj95kHztg
DuHZ3Iv6RiuQR2oe1A3V1w,-IbULumSRvyomGH2u_8DLg,saep_acp_load143076@testmail.qalabs.symantec.com,SEuMGi19TM6_fwoZp988Tw,8No_3O3dTv2BFLm-VWDiQw
DuHZ3Iv6RiuQR2oe1A3V1w,-IbULumSRvyomGH2u_8DLg,saep_acp_load143076@testmail.qalabs.symantec.com,SEuMGi19TM6_fwoZp988Tw,6_C6c51bQK61MnOaf4bPMg
DuHZ3Iv6RiuQR2oe1A3V1w,-IbULumSRvyomGH2u_8DLg,saep_acp_load143076@testmail.qalabs.symantec.com,SEuMGi19TM6_fwoZp988Tw,oCeZdJA1T1q5EaG-ugcsew
OxBqWCB5SeWgZFY4bAJ0DA,7Xu0dIn4Qj-c3HYwM4Ng4g,saep_acp_load124790@testmail.qalabs.symantec.com,s5hKDtyYTL6m5JJYC0X8ug,cFf32x6qRFakn4DZNMIrYQ
OxBqWCB5SeWgZFY4bAJ0DA,7Xu0dIn4Qj-c3HYwM4Ng4g,saep_acp_load124790@testmail.qalabs.symantec.com,s5hKDtyYTL6m5JJYC0X8ug,CGIXAbwwTS6VHAaOioze-Q
OxBqWCB5SeWgZFY4bAJ0DA,7Xu0dIn4Qj-c3HYwM4Ng4g,saep_acp_load124790@testmail.qalabs.symantec.com,s5hKDtyYTL6m5JJYC0X8ug,uNZkzWCOSRGveaMMdrVruw
OxBqWCB5SeWgZFY4bAJ0DA,7Xu0dIn4Qj-c3HYwM4Ng4g,saep_acp_load124790@testmail.qalabs.symantec.com,s5hKDtyYTL6m5JJYC0X8ug,jBWLmv3ZTE2u2W0ghaZOOw
OxBqWCB5SeWgZFY4bAJ0DA,7Xu0dIn4Qj-c3HYwM4Ng4g,saep_acp_load124790@testmail.qalabs.symantec.com,s5hKDtyYTL6m5JJYC0X8ug,T3VvAhjmSHCHQVLH2OdTSQ
OxBqWCB5SeWgZFY4bAJ0DA,7Xu0dIn4Qj-c3HYwM4Ng4g,saep_acp_load124790@testmail.qalabs.symantec.com,s5hKDtyYTL6m5JJYC0X8ug,BgIG-dAgRTa6cglnKzD9gw
OxBqWCB5SeWgZFY4bAJ0DA,7Xu0dIn4Qj-c3HYwM4Ng4g,saep_acp_load124790@testmail.qalabs.symantec.com,s5hKDtyYTL6m5JJYC0X8ug,twlbsl0PQTWMZ0ChzfwHEA
OxBqWCB5SeWgZFY4bAJ0DA,7Xu0dIn4Qj-c3HYwM4Ng4g,saep_acp_load124790@testmail.qalabs.symantec.com,s5hKDtyYTL6m5JJYC0X8ug,65RMOHuZSdCNFYrYhArrgw
OxBqWCB5SeWgZFY4bAJ0DA,7Xu0dIn4Qj-c3HYwM4Ng4g,saep_acp_load124790@testmail.qalabs.symantec.com,s5hKDtyYTL6m5JJYC0X8ug,fwNIUK85QeqjESWmRh9LmA
OxBqWCB5SeWgZFY4bAJ0DA,7Xu0dIn4Qj-c3HYwM4Ng4g,saep_acp_load124790@testmail.qalabs.symantec.com,s5hKDtyYTL6m5JJYC0X8ug,I57tpBh6R--yh8r2yBgByg
OxBqWCB5SeWgZFY4bAJ0DA,7Xu0dIn4Qj-c3HYwM4Ng4g,saep_acp_load124790@testmail.qalabs.symantec.com,s5hKDtyYTL6m5JJYC0X8ug,DPsxdHsITKKsZJYhbPPJeA
OxBqWCB5SeWgZFY4bAJ0DA,7Xu0dIn4Qj-c3HYwM4Ng4g,saep_acp_load124790@testmail.qalabs.symantec.com,s5hKDtyYTL6m5JJYC0X8ug,BtSMbtR1RieEk15-NSclJg
OxBqWCB5SeWgZFY4bAJ0DA,7Xu0dIn4Qj-c3HYwM4Ng4g,saep_acp_load124790@testmail.qalabs.symantec.com,s5hKDtyYTL6m5JJYC0X8ug,5Xfd77aNQuOt5DTU32_gyA
OxBqWCB5SeWgZFY4bAJ0DA,7Xu0dIn4Qj-c3HYwM4Ng4g,saep_acp_load124790@testmail.qalabs.symantec.com,s5hKDtyYTL6m5JJYC0X8ug,93OdcJqERVeckLk6R5Mgeg
OxBqWCB5SeWgZFY4bAJ0DA,7Xu0dIn4Qj-c3HYwM4Ng4g,saep_acp_load124790@testmail.qalabs.symantec.com,s5hKDtyYTL6m5JJYC0X8ug,KNEaomjTRwiw3bI9SAaFjA
OxBqWCB5SeWgZFY4bAJ0DA,7Xu0dIn4Qj-c3HYwM4Ng4g,saep_acp_load124790@testmail.qalabs.symantec.com,s5hKDtyYTL6m5JJYC0X8ug,Ok3q72pnSwCjLz-Mri1mrg
OxBqWCB5SeWgZFY4bAJ0DA,7Xu0dIn4Qj-c3HYwM4Ng4g,saep_acp_load124790@testmail.qalabs.symantec.com,s5hKDtyYTL6m5JJYC0X8ug,Ox77ltyaSUW2NHesj7KwPQ
OxBqWCB5SeWgZFY4bAJ0DA,7Xu0dIn4Qj-c3HYwM4Ng4g,saep_acp_load124790@testmail.qalabs.symantec.com,s5hKDtyYTL6m5JJYC0X8ug,76UMRTtYRHO8CaasXuvAAQ
OxBqWCB5SeWgZFY4bAJ0DA,7Xu0dIn4Qj-c3HYwM4Ng4g,saep_acp_load124790@testmail.qalabs.symantec.com,s5hKDtyYTL6m5JJYC0X8ug,fSYpnIKFS1aWOBh-s-NRrg
OxBqWCB5SeWgZFY4bAJ0DA,7Xu0dIn4Qj-c3HYwM4Ng4g,saep_acp_load124790@testmail.qalabs.symantec.com,s5hKDtyYTL6m5JJYC0X8ug,sc_Jof6hRRajjV6jLETlCw
OxBqWCB5SeWgZFY4bAJ0DA,7Xu0dIn4Qj-c3HYwM4Ng4g,saep_acp_load124790@testmail.qalabs.symantec.com,s5hKDtyYTL6m5JJYC0X8ug,nziLWKtXQDSPxIx3mlsL3g
OxBqWCB5SeWgZFY4bAJ0DA,7Xu0dIn4Qj-c3HYwM4Ng4g,saep_acp_load124790@testmail.qalabs.symantec.com,s5hKDtyYTL6m5JJYC0X8ug,Id4iF56JR1yxHG57mfIpAQ
OxBqWCB5SeWgZFY4bAJ0DA,7Xu0dIn4Qj-c3HYwM4Ng4g,saep_acp_load124790@testmail.qalabs.symantec.com,s5hKDtyYTL6m5JJYC0X8ug,1ldswK3cRZSTUu_5hrRmog
OxBqWCB5SeWgZFY4bAJ0DA,7Xu0dIn4Qj-c3HYwM4Ng4g,saep_acp_load124790@testmail.qalabs.symantec.com,s5hKDtyYTL6m5JJYC0X8ug,0frSnQJrSm2plVs9xHnueQ
OxBqWCB5SeWgZFY4bAJ0DA,7Xu0dIn4Qj-c3HYwM4Ng4g,saep_acp_load124790@testmail.qalabs.symantec.com,s5hKDtyYTL6m5JJYC0X8ug,P3OtFgYLQDG5dgcsGyY-kQ
OxBqWCB5SeWgZFY4bAJ0DA,7Xu0dIn4Qj-c3HYwM4Ng4g,saep_acp_load124790@testmail.qalabs.symantec.com,s5hKDtyYTL6m5JJYC0X8ug,zr0iXzH7QFu01w5LtGLT5A
OxBqWCB5SeWgZFY4bAJ0DA,7Xu0dIn4Qj-c3HYwM4Ng4g,saep_acp_load124790@testmail.qalabs.symantec.com,s5hKDtyYTL6m5JJYC0X8ug,qLK_mIFpTZmzNmDBzHh2nQ
OxBqWCB5SeWgZFY4bAJ0DA,7Xu0dIn4Qj-c3HYwM4Ng4g,saep_acp_load124790@testmail.qalabs.symantec.com,s5hKDtyYTL6m5JJYC0X8ug,CIwbDJJzRoe_dcpA3YOnFg
OxBqWCB5SeWgZFY4bAJ0DA,7Xu0dIn4Qj-c3HYwM4Ng4g,saep_acp_load124790@testmail.qalabs.symantec.com,s5hKDtyYTL6m5JJYC0X8ug,oTyEb_KdTuut5a1j0NufmQ
OxBqWCB5SeWgZFY4bAJ0DA,7Xu0dIn4Qj-c3HYwM4Ng4g,saep_acp_load124790@testmail.qalabs.symantec.com,s5hKDtyYTL6m5JJYC0X8ug,BdH5lr91TCmf8N46MxC3BQ
OxBqWCB5SeWgZFY4bAJ0DA,7Xu0dIn4Qj-c3HYwM4Ng4g,saep_acp_load124790@testmail.qalabs.symantec.com,s5hKDtyYTL6m5JJYC0X8ug,3Rc0eRccSPqYHJ89HwfFeA
OxBqWCB5SeWgZFY4bAJ0DA,7Xu0dIn4Qj-c3HYwM4Ng4g,saep_acp_load124790@testmail.qalabs.symantec.com,s5hKDtyYTL6m5JJYC0X8ug,6aXRIh0eTdSXs98DhH6M1w
OxBqWCB5SeWgZFY4bAJ0DA,7Xu0dIn4Qj-c3HYwM4Ng4g,saep_acp_load124790@testmail.qalabs.symantec.com,s5hKDtyYTL6m5JJYC0X8ug,Wlw_qCm0R3mcZioCv3AyEA
OxBqWCB5SeWgZFY4bAJ0DA,7Xu0dIn4Qj-c3HYwM4Ng4g,saep_acp_load124790@testmail.qalabs.symantec.com,s5hKDtyYTL6m5JJYC0X8ug,avvJlB8nQNuSmC-K9hatdw
OxBqWCB5SeWgZFY4bAJ0DA,7Xu0dIn4Qj-c3HYwM4Ng4g,saep_acp_load124790@testmail.qalabs.symantec.com,s5hKDtyYTL6m5JJYC0X8ug,WeslGJ7YSt66-xQPANl4wg
OxBqWCB5SeWgZFY4bAJ0DA,7Xu0dIn4Qj-c3HYwM4Ng4g,saep_acp_load124790@testmail.qalabs.symantec.com,s5hKDtyYTL6m5JJYC0X8ug,ISIg2wKBRaC4HdloCU5TVw
OxBqWCB5SeWgZFY4bAJ0DA,7Xu0dIn4Qj-c3HYwM4Ng4g,saep_acp_load124790@testmail.qalabs.symantec.com,s5hKDtyYTL6m5JJYC0X8ug,3E7E2uL_SR--ziDrzVOMDg
OxBqWCB5SeWgZFY4bAJ0DA,7Xu0dIn4Qj-c3HYwM4Ng4g,saep_acp_load124790@testmail.qalabs.symantec.com,s5hKDtyYTL6m5JJYC0X8ug,WurqhZfMS7KAb0yY8_dbkw
OxBqWCB5SeWgZFY4bAJ0DA,7Xu0dIn4Qj-c3HYwM4Ng4g,saep_acp_load124790@testmail.qalabs.symantec.com,s5hKDtyYTL6m5JJYC0X8ug,EBV741YiSIWHp2Lty5avKQ
OxBqWCB5SeWgZFY4bAJ0DA,7Xu0dIn4Qj-c3HYwM4Ng4g,saep_acp_load124790@testmail.qalabs.symantec.com,s5hKDtyYTL6m5JJYC0X8ug,adsWttD-SYan3euTaLAnjQ
OxBqWCB5SeWgZFY4bAJ0DA,7Xu0dIn4Qj-c3HYwM4Ng4g,saep_acp_load124790@testmail.qalabs.symantec.com,s5hKDtyYTL6m5JJYC0X8ug,rKWDSQluT7-IeIHbx1TJ0g
OxBqWCB5SeWgZFY4bAJ0DA,7Xu0dIn4Qj-c3HYwM4Ng4g,saep_acp_load124790@testmail.qalabs.symantec.com,s5hKDtyYTL6m5JJYC0X8ug,Bz2ssTopSFOOYQt5PeNPLA
OxBqWCB5SeWgZFY4bAJ0DA,7Xu0dIn4Qj-c3HYwM4Ng4g,saep_acp_load124790@testmail.qalabs.symantec.com,s5hKDtyYTL6m5JJYC0X8ug,mSXo-b7mQ1G7xG3cCoQwGg
OxBqWCB5SeWgZFY4bAJ0DA,7Xu0dIn4Qj-c3HYwM4Ng4g,saep_acp_load124790@testmail.qalabs.symantec.com,s5hKDtyYTL6m5JJYC0X8ug,hlHgUS_jSTS9-SvY6_P-LQ
OxBqWCB5SeWgZFY4bAJ0DA,7Xu0dIn4Qj-c3HYwM4Ng4g,saep_acp_load124790@testmail.qalabs.symantec.com,s5hKDtyYTL6m5JJYC0X8ug,733ZYimHQG-muHk11C7q0g
OxBqWCB5SeWgZFY4bAJ0DA,7Xu0dIn4Qj-c3HYwM4Ng4g,saep_acp_load124790@testmail.qalabs.symantec.com,s5hKDtyYTL6m5JJYC0X8ug,NpL8chyOTgmV5MxG1VKwbA
OxBqWCB5SeWgZFY4bAJ0DA,7Xu0dIn4Qj-c3HYwM4Ng4g,saep_acp_load124790@testmail.qalabs.symantec.com,s5hKDtyYTL6m5JJYC0X8ug,K_c-1uuBSdyQpCIxhWsBVA
OxBqWCB5SeWgZFY4bAJ0DA,7Xu0dIn4Qj-c3HYwM4Ng4g,saep_acp_load124790@testmail.qalabs.symantec.com,s5hKDtyYTL6m5JJYC0X8ug,xP4zhTfpRECFHCSn2nekqw
OxBqWCB5SeWgZFY4bAJ0DA,7Xu0dIn4Qj-c3HYwM4Ng4g,saep_acp_load124790@testmail.qalabs.symantec.com,s5hKDtyYTL6m5JJYC0X8ug,hdJrtTp3QS-APHe41cljdw
OxBqWCB5SeWgZFY4bAJ0DA,7Xu0dIn4Qj-c3HYwM4Ng4g,saep_acp_load124790@testmail.qalabs.symantec.com,s5hKDtyYTL6m5JJYC0X8ug,H8LoMxlLTQCNv38Rfb0fUQ
nNeqjK1oTdG6NkWcMSwLHw,7epDiIGyQpiSfGhnuBKx6A,saep_acp_load159530@testmail.qalabs.symantec.com,30UxJ5g_RbGy5sK0h7wVQg,nR6dsaheSJC-faZu5WeEcg
nNeqjK1oTdG6NkWcMSwLHw,7epDiIGyQpiSfGhnuBKx6A,saep_acp_load159530@testmail.qalabs.symantec.com,30UxJ5g_RbGy5sK0h7wVQg,-sDu6AkPSOyS4HY-ePNuuA
nNeqjK1oTdG6NkWcMSwLHw,7epDiIGyQpiSfGhnuBKx6A,saep_acp_load159530@testmail.qalabs.symantec.com,30UxJ5g_RbGy5sK0h7wVQg,XlbRY_5ESku4u8crokXfEQ
nNeqjK1oTdG6NkWcMSwLHw,7epDiIGyQpiSfGhnuBKx6A,saep_acp_load159530@testmail.qalabs.symantec.com,30UxJ5g_RbGy5sK0h7wVQg,vPxmRsLETJiuYlyJQ_qdqg
nNeqjK1oTdG6NkWcMSwLHw,7epDiIGyQpiSfGhnuBKx6A,saep_acp_load159530@testmail.qalabs.symantec.com,30UxJ5g_RbGy5sK0h7wVQg,YtjLvGPwRbGjkoYOS7vguA
nNeqjK1oTdG6NkWcMSwLHw,7epDiIGyQpiSfGhnuBKx6A,saep_acp_load159530@testmail.qalabs.symantec.com,30UxJ5g_RbGy5sK0h7wVQg,gmoNlKQfQrSssCYMNLPmJA
nNeqjK1oTdG6NkWcMSwLHw,7epDiIGyQpiSfGhnuBKx6A,saep_acp_load159530@testmail.qalabs.symantec.com,30UxJ5g_RbGy5sK0h7wVQg,oeeI4XP8QR2t8vu_gROMEA
nNeqjK1oTdG6NkWcMSwLHw,7epDiIGyQpiSfGhnuBKx6A,saep_acp_load159530@testmail.qalabs.symantec.com,30UxJ5g_RbGy5sK0h7wVQg,T7lXviDBRI2nKc7U1oP4Ww
nNeqjK1oTdG6NkWcMSwLHw,7epDiIGyQpiSfGhnuBKx6A,saep_acp_load159530@testmail.qalabs.symantec.com,30UxJ5g_RbGy5sK0h7wVQg,YG2Dz7LRQCWKiHGHkjcL-Q
nNeqjK1oTdG6NkWcMSwLHw,7epDiIGyQpiSfGhnuBKx6A,saep_acp_load159530@testmail.qalabs.symantec.com,30UxJ5g_RbGy5sK0h7wVQg,uFi-LnuYQLSwyC2l8kkcYA
nNeqjK1oTdG6NkWcMSwLHw,7epDiIGyQpiSfGhnuBKx6A,saep_acp_load159530@testmail.qalabs.symantec.com,30UxJ5g_RbGy5sK0h7wVQg,LgKLlgU5RCSxE20ZV7_jxw
nNeqjK1oTdG6NkWcMSwLHw,7epDiIGyQpiSfGhnuBKx6A,saep_acp_load159530@testmail.qalabs.symantec.com,30UxJ5g_RbGy5sK0h7wVQg,CNLoSUk9QMqbd9E304wdiw
nNeqjK1oTdG6NkWcMSwLHw,7epDiIGyQpiSfGhnuBKx6A,saep_acp_load159530@testmail.qalabs.symantec.com,30UxJ5g_RbGy5sK0h7wVQg,I6mghBOORaSuVVyiG_fqaw
nNeqjK1oTdG6NkWcMSwLHw,7epDiIGyQpiSfGhnuBKx6A,saep_acp_load159530@testmail.qalabs.symantec.com,30UxJ5g_RbGy5sK0h7wVQg,YN5Mpsu0SiSWoCJBwKO4UQ
nNeqjK1oTdG6NkWcMSwLHw,7epDiIGyQpiSfGhnuBKx6A,saep_acp_load159530@testmail.qalabs.symantec.com,30UxJ5g_RbGy5sK0h7wVQg,_Ax3q5AaRJqnOLBIot3kyQ
nNeqjK1oTdG6NkWcMSwLHw,7epDiIGyQpiSfGhnuBKx6A,saep_acp_load159530@testmail.qalabs.symantec.com,30UxJ5g_RbGy5sK0h7wVQg,gvC8ggzvS8emajaIhgrZXQ
nNeqjK1oTdG6NkWcMSwLHw,7epDiIGyQpiSfGhnuBKx6A,saep_acp_load159530@testmail.qalabs.symantec.com,30UxJ5g_RbGy5sK0h7wVQg,w1IqpbY8SwSm5U422FHWdw
nNeqjK1oTdG6NkWcMSwLHw,7epDiIGyQpiSfGhnuBKx6A,saep_acp_load159530@testmail.qalabs.symantec.com,30UxJ5g_RbGy5sK0h7wVQg,TpUpm5DxSB-MklN1odaHmg
nNeqjK1oTdG6NkWcMSwLHw,7epDiIGyQpiSfGhnuBKx6A,saep_acp_load159530@testmail.qalabs.symantec.com,30UxJ5g_RbGy5sK0h7wVQg,TgZv_ePuQa6U8i88MTqdyg
nNeqjK1oTdG6NkWcMSwLHw,7epDiIGyQpiSfGhnuBKx6A,saep_acp_load159530@testmail.qalabs.symantec.com,30UxJ5g_RbGy5sK0h7wVQg,ZLKBLT5jRpuq8fZ5fRmkmA
nNeqjK1oTdG6NkWcMSwLHw,7epDiIGyQpiSfGhnuBKx6A,saep_acp_load159530@testmail.qalabs.symantec.com,30UxJ5g_RbGy5sK0h7wVQg,MhJNxJmnSS24qVoa7Ly5jA
nNeqjK1oTdG6NkWcMSwLHw,7epDiIGyQpiSfGhnuBKx6A,saep_acp_load159530@testmail.qalabs.symantec.com,30UxJ5g_RbGy5sK0h7wVQg,HA9mvXBZR5qfMDJ0IuwZ0w
nNeqjK1oTdG6NkWcMSwLHw,7epDiIGyQpiSfGhnuBKx6A,saep_acp_load159530@testmail.qalabs.symantec.com,30UxJ5g_RbGy5sK0h7wVQg,0tIyqmoqSvGYWNeLfPhcfg
nNeqjK1oTdG6NkWcMSwLHw,7epDiIGyQpiSfGhnuBKx6A,saep_acp_load159530@testmail.qalabs.symantec.com,30UxJ5g_RbGy5sK0h7wVQg,akKww1zaRw-9MUh5qeq0FA
nNeqjK1oTdG6NkWcMSwLHw,7epDiIGyQpiSfGhnuBKx6A,saep_acp_load159530@testmail.qalabs.symantec.com,30UxJ5g_RbGy5sK0h7wVQg,ShCucehnSnKG91L3XseDOg
nNeqjK1oTdG6NkWcMSwLHw,7epDiIGyQpiSfGhnuBKx6A,saep_acp_load159530@testmail.qalabs.symantec.com,30UxJ5g_RbGy5sK0h7wVQg,0jakzXb9TiGXRgIFaWJYsw
nNeqjK1oTdG6NkWcMSwLHw,7epDiIGyQpiSfGhnuBKx6A,saep_acp_load159530@testmail.qalabs.symantec.com,30UxJ5g_RbGy5sK0h7wVQg,PQgkgHFuTvO4pNFkt9nNXg
nNeqjK1oTdG6NkWcMSwLHw,7epDiIGyQpiSfGhnuBKx6A,saep_acp_load159530@testmail.qalabs.symantec.com,30UxJ5g_RbGy5sK0h7wVQg,lllbeLFoQNKy-ZmyaA1jtg
nNeqjK1oTdG6NkWcMSwLHw,7epDiIGyQpiSfGhnuBKx6A,saep_acp_load159530@testmail.qalabs.symantec.com,30UxJ5g_RbGy5sK0h7wVQg,KwV40WE5Rt-ui0RyHZUZ6A
nNeqjK1oTdG6NkWcMSwLHw,7epDiIGyQpiSfGhnuBKx6A,saep_acp_load159530@testmail.qalabs.symantec.com,30UxJ5g_RbGy5sK0h7wVQg,nRWz1ylvRA-93MtAzbcUbQ
nNeqjK1oTdG6NkWcMSwLHw,7epDiIGyQpiSfGhnuBKx6A,saep_acp_load159530@testmail.qalabs.symantec.com,30UxJ5g_RbGy5sK0h7wVQg,pUyk5MfxQXqie7J2nDItTQ
nNeqjK1oTdG6NkWcMSwLHw,7epDiIGyQpiSfGhnuBKx6A,saep_acp_load159530@testmail.qalabs.symantec.com,30UxJ5g_RbGy5sK0h7wVQg,vyIz4ypFS4S2U7CrK9MI8g
nNeqjK1oTdG6NkWcMSwLHw,7epDiIGyQpiSfGhnuBKx6A,saep_acp_load159530@testmail.qalabs.symantec.com,30UxJ5g_RbGy5sK0h7wVQg,-yoJPXNeREuLaaD39cGAzQ
nNeqjK1oTdG6NkWcMSwLHw,7epDiIGyQpiSfGhnuBKx6A,saep_acp_load159530@testmail.qalabs.symantec.com,30UxJ5g_RbGy5sK0h7wVQg,Zh7eIi19SE28LF855SzYrQ
nNeqjK1oTdG6NkWcMSwLHw,7epDiIGyQpiSfGhnuBKx6A,saep_acp_load159530@testmail.qalabs.symantec.com,30UxJ5g_RbGy5sK0h7wVQg,dbxnRUUrSoueBRVMMO-a5Q
nNeqjK1oTdG6NkWcMSwLHw,7epDiIGyQpiSfGhnuBKx6A,saep_acp_load159530@testmail.qalabs.symantec.com,30UxJ5g_RbGy5sK0h7wVQg,3OD1rnTNTuiSw8jP4T4kpw
nNeqjK1oTdG6NkWcMSwLHw,7epDiIGyQpiSfGhnuBKx6A,saep_acp_load159530@testmail.qalabs.symantec.com,30UxJ5g_RbGy5sK0h7wVQg,LfEOWi-cTOyTtuLNPMuINQ
nNeqjK1oTdG6NkWcMSwLHw,7epDiIGyQpiSfGhnuBKx6A,saep_acp_load159530@testmail.qalabs.symantec.com,30UxJ5g_RbGy5sK0h7wVQg,Hy-FG8EnQgiX_zw_taRakg
nNeqjK1oTdG6NkWcMSwLHw,7epDiIGyQpiSfGhnuBKx6A,saep_acp_load159530@testmail.qalabs.symantec.com,30UxJ5g_RbGy5sK0h7wVQg,qIKH1NObSi6vi5iUOBGj0w
nNeqjK1oTdG6NkWcMSwLHw,7epDiIGyQpiSfGhnuBKx6A,saep_acp_load159530@testmail.qalabs.symantec.com,30UxJ5g_RbGy5sK0h7wVQg,ECzjcOiUStKZIdKnNALZTg
nNeqjK1oTdG6NkWcMSwLHw,7epDiIGyQpiSfGhnuBKx6A,saep_acp_load159530@testmail.qalabs.symantec.com,30UxJ5g_RbGy5sK0h7wVQg,8IJW-zIwSKyPDeX4QHbhew
nNeqjK1oTdG6NkWcMSwLHw,7epDiIGyQpiSfGhnuBKx6A,saep_acp_load159530@testmail.qalabs.symantec.com,30UxJ5g_RbGy5sK0h7wVQg,ohTku3KfSGe7APFdEzqSoA
nNeqjK1oTdG6NkWcMSwLHw,7epDiIGyQpiSfGhnuBKx6A,saep_acp_load159530@testmail.qalabs.symantec.com,30UxJ5g_RbGy5sK0h7wVQg,QK4lAtkyQK6JTwNBVkIsqQ
nNeqjK1oTdG6NkWcMSwLHw,7epDiIGyQpiSfGhnuBKx6A,saep_acp_load159530@testmail.qalabs.symantec.com,30UxJ5g_RbGy5sK0h7wVQg,Q04WODYcR_uy1bS4AucLiw
nNeqjK1oTdG6NkWcMSwLHw,7epDiIGyQpiSfGhnuBKx6A,saep_acp_load159530@testmail.qalabs.symantec.com,30UxJ5g_RbGy5sK0h7wVQg,HC18PRvSS22Y-bAh0oe4Jw
nNeqjK1oTdG6NkWcMSwLHw,7epDiIGyQpiSfGhnuBKx6A,saep_acp_load159530@testmail.qalabs.symantec.com,30UxJ5g_RbGy5sK0h7wVQg,G6lgNW1lSZORXMUBgIT14g
nNeqjK1oTdG6NkWcMSwLHw,7epDiIGyQpiSfGhnuBKx6A,saep_acp_load159530@testmail.qalabs.symantec.com,30UxJ5g_RbGy5sK0h7wVQg,HlzSX7GJQWiJwPuV4pkrfg
nNeqjK1oTdG6NkWcMSwLHw,7epDiIGyQpiSfGhnuBKx6A,saep_acp_load159530@testmail.qalabs.symantec.com,30UxJ5g_RbGy5sK0h7wVQg,6GMFUaLiQeyh0ceUewe9_g
nNeqjK1oTdG6NkWcMSwLHw,7epDiIGyQpiSfGhnuBKx6A,saep_acp_load159530@testmail.qalabs.symantec.com,30UxJ5g_RbGy5sK0h7wVQg,5HgsMJ4VRTOvqy6oiJEh4Q
nNeqjK1oTdG6NkWcMSwLHw,7epDiIGyQpiSfGhnuBKx6A,saep_acp_load159530@testmail.qalabs.symantec.com,30UxJ5g_RbGy5sK0h7wVQg,TP82RkU_TIi1H181c3Aktw
5XUK4iALSJKUAu-2QNPEVA,LftEqTilS0CbdyHDrq9Eow,saep_acp_load162234@testmail.qalabs.symantec.com,kTO77lviTUu5xkyrEF_FIw,JMRjxALMSXyDH6LcrzI4NA
5XUK4iALSJKUAu-2QNPEVA,LftEqTilS0CbdyHDrq9Eow,saep_acp_load162234@testmail.qalabs.symantec.com,kTO77lviTUu5xkyrEF_FIw,wxKcMDpPSZqhmlbUrPO0xw
5XUK4iALSJKUAu-2QNPEVA,LftEqTilS0CbdyHDrq9Eow,saep_acp_load162234@testmail.qalabs.symantec.com,kTO77lviTUu5xkyrEF_FIw,24WBEBM_TU-m22cL4BIK4w
5XUK4iALSJKUAu-2QNPEVA,LftEqTilS0CbdyHDrq9Eow,saep_acp_load162234@testmail.qalabs.symantec.com,kTO77lviTUu5xkyrEF_FIw,0sAuohsBSWiul3Nv3VAFtQ
5XUK4iALSJKUAu-2QNPEVA,LftEqTilS0CbdyHDrq9Eow,saep_acp_load162234@testmail.qalabs.symantec.com,kTO77lviTUu5xkyrEF_FIw,k9bz-HTMTTSbKgEOY1jT5g
5XUK4iALSJKUAu-2QNPEVA,LftEqTilS0CbdyHDrq9Eow,saep_acp_load162234@testmail.qalabs.symantec.com,kTO77lviTUu5xkyrEF_FIw,MEFuuiPnRJeeBDTLHH_Ntw
5XUK4iALSJKUAu-2QNPEVA,LftEqTilS0CbdyHDrq9Eow,saep_acp_load162234@testmail.qalabs.symantec.com,kTO77lviTUu5xkyrEF_FIw,C-hRrZhARMKfXhDqMg46Lw
5XUK4iALSJKUAu-2QNPEVA,LftEqTilS0CbdyHDrq9Eow,saep_acp_load162234@testmail.qalabs.symantec.com,kTO77lviTUu5xkyrEF_FIw,94Z2OOZUSt-Koj0hNvWfxg
5XUK4iALSJKUAu-2QNPEVA,LftEqTilS0CbdyHDrq9Eow,saep_acp_load162234@testmail.qalabs.symantec.com,kTO77lviTUu5xkyrEF_FIw,Y77peFs9RKSA8qlS7ncN_A
5XUK4iALSJKUAu-2QNPEVA,LftEqTilS0CbdyHDrq9Eow,saep_acp_load162234@testmail.qalabs.symantec.com,kTO77lviTUu5xkyrEF_FIw,Rohv-_7-Q4SfqpQo25dn6A
5XUK4iALSJKUAu-2QNPEVA,LftEqTilS0CbdyHDrq9Eow,saep_acp_load162234@testmail.qalabs.symantec.com,kTO77lviTUu5xkyrEF_FIw,_CPTVYopRTSsBsfKJdhc_w
5XUK4iALSJKUAu-2QNPEVA,LftEqTilS0CbdyHDrq9Eow,saep_acp_load162234@testmail.qalabs.symantec.com,kTO77lviTUu5xkyrEF_FIw,yPgB1XHEQpCgHsOQdx9jyQ
5XUK4iALSJKUAu-2QNPEVA,LftEqTilS0CbdyHDrq9Eow,saep_acp_load162234@testmail.qalabs.symantec.com,kTO77lviTUu5xkyrEF_FIw,6BpA7gt4RaSBZBmys_UTuA
5XUK4iALSJKUAu-2QNPEVA,LftEqTilS0CbdyHDrq9Eow,saep_acp_load162234@testmail.qalabs.symantec.com,kTO77lviTUu5xkyrEF_FIw,1xF1E4WQSRC5HWTelY6syA
5XUK4iALSJKUAu-2QNPEVA,LftEqTilS0CbdyHDrq9Eow,saep_acp_load162234@testmail.qalabs.symantec.com,kTO77lviTUu5xkyrEF_FIw,Wu2HBMlORuC6AbOQcCZX6A
5XUK4iALSJKUAu-2QNPEVA,LftEqTilS0CbdyHDrq9Eow,saep_acp_load162234@testmail.qalabs.symantec.com,kTO77lviTUu5xkyrEF_FIw,RRuPIYcWTDaR-5VPmY4qww
5XUK4iALSJKUAu-2QNPEVA,LftEqTilS0CbdyHDrq9Eow,saep_acp_load162234@testmail.qalabs.symantec.com,kTO77lviTUu5xkyrEF_FIw,lauApKF1TViWBIrpPjEKpA
5XUK4iALSJKUAu-2QNPEVA,LftEqTilS0CbdyHDrq9Eow,saep_acp_load162234@testmail.qalabs.symantec.com,kTO77lviTUu5xkyrEF_FIw,SIiwgrOOQwSk7bweXEBuEg
5XUK4iALSJKUAu-2QNPEVA,LftEqTilS0CbdyHDrq9Eow,saep_acp_load162234@testmail.qalabs.symantec.com,kTO77lviTUu5xkyrEF_FIw,xwrb5ko4RRWmZhxgsOzuKQ
5XUK4iALSJKUAu-2QNPEVA,LftEqTilS0CbdyHDrq9Eow,saep_acp_load162234@testmail.qalabs.symantec.com,kTO77lviTUu5xkyrEF_FIw,jJYABr7dTbOF8rmqjs8h0A
5XUK4iALSJKUAu-2QNPEVA,LftEqTilS0CbdyHDrq9Eow,saep_acp_load162234@testmail.qalabs.symantec.com,kTO77lviTUu5xkyrEF_FIw,Kpjn1YeeT6GoJPkrbdAQTA
5XUK4iALSJKUAu-2QNPEVA,LftEqTilS0CbdyHDrq9Eow,saep_acp_load162234@testmail.qalabs.symantec.com,kTO77lviTUu5xkyrEF_FIw,_3u-v8DHT9KSyAvjMvIeiQ
5XUK4iALSJKUAu-2QNPEVA,LftEqTilS0CbdyHDrq9Eow,saep_acp_load162234@testmail.qalabs.symantec.com,kTO77lviTUu5xkyrEF_FIw,hZj6elaER5iY0RkUkTyyiQ
5XUK4iALSJKUAu-2QNPEVA,LftEqTilS0CbdyHDrq9Eow,saep_acp_load162234@testmail.qalabs.symantec.com,kTO77lviTUu5xkyrEF_FIw,Qh6yGLn0Qvmi4pudrBqHSw
5XUK4iALSJKUAu-2QNPEVA,LftEqTilS0CbdyHDrq9Eow,saep_acp_load162234@testmail.qalabs.symantec.com,kTO77lviTUu5xkyrEF_FIw,UNjqCdXhR4i80VQQvEeLyQ
5XUK4iALSJKUAu-2QNPEVA,LftEqTilS0CbdyHDrq9Eow,saep_acp_load162234@testmail.qalabs.symantec.com,kTO77lviTUu5xkyrEF_FIw,d5IYXJGbQbyRrp-51YV0UA
5XUK4iALSJKUAu-2QNPEVA,LftEqTilS0CbdyHDrq9Eow,saep_acp_load162234@testmail.qalabs.symantec.com,kTO77lviTUu5xkyrEF_FIw,cYPQRZSfSv2dnzrsK5tcJg
5XUK4iALSJKUAu-2QNPEVA,LftEqTilS0CbdyHDrq9Eow,saep_acp_load162234@testmail.qalabs.symantec.com,kTO77lviTUu5xkyrEF_FIw,Dlilz6iJR4SDJySot-NOLg
5XUK4iALSJKUAu-2QNPEVA,LftEqTilS0CbdyHDrq9Eow,saep_acp_load162234@testmail.qalabs.symantec.com,kTO77lviTUu5xkyrEF_FIw,cvlDB1XySS26BxdY5VoJYg
5XUK4iALSJKUAu-2QNPEVA,LftEqTilS0CbdyHDrq9Eow,saep_acp_load162234@testmail.qalabs.symantec.com,kTO77lviTUu5xkyrEF_FIw,8hQ-6rMGQAmLyMWPB163HA
5XUK4iALSJKUAu-2QNPEVA,LftEqTilS0CbdyHDrq9Eow,saep_acp_load162234@testmail.qalabs.symantec.com,kTO77lviTUu5xkyrEF_FIw,V86y6s_eTlma2nMyqC3C2Q
5XUK4iALSJKUAu-2QNPEVA,LftEqTilS0CbdyHDrq9Eow,saep_acp_load162234@testmail.qalabs.symantec.com,kTO77lviTUu5xkyrEF_FIw,hf60xXvPRLSHDw7ESt0l5A
5XUK4iALSJKUAu-2QNPEVA,LftEqTilS0CbdyHDrq9Eow,saep_acp_load162234@testmail.qalabs.symantec.com,kTO77lviTUu5xkyrEF_FIw,cZcmYbF9T5mzWcHW3AFr3w
5XUK4iALSJKUAu-2QNPEVA,LftEqTilS0CbdyHDrq9Eow,saep_acp_load162234@testmail.qalabs.symantec.com,kTO77lviTUu5xkyrEF_FIw,Q-9MdPLRS9WhJXbm3RZqGw
5XUK4iALSJKUAu-2QNPEVA,LftEqTilS0CbdyHDrq9Eow,saep_acp_load162234@testmail.qalabs.symantec.com,kTO77lviTUu5xkyrEF_FIw,KHzOoATxTV6vUbjjz2yoNQ
5XUK4iALSJKUAu-2QNPEVA,LftEqTilS0CbdyHDrq9Eow,saep_acp_load162234@testmail.qalabs.symantec.com,kTO77lviTUu5xkyrEF_FIw,iHzCUsFNTjWE5lzQP-DF4Q
5XUK4iALSJKUAu-2QNPEVA,LftEqTilS0CbdyHDrq9Eow,saep_acp_load162234@testmail.qalabs.symantec.com,kTO77lviTUu5xkyrEF_FIw,CzRGovYhRTqqgu5iZs-WIA
5XUK4iALSJKUAu-2QNPEVA,LftEqTilS0CbdyHDrq9Eow,saep_acp_load162234@testmail.qalabs.symantec.com,kTO77lviTUu5xkyrEF_FIw,p7PD3jDCSxuDo71tF8Gzdg
5XUK4iALSJKUAu-2QNPEVA,LftEqTilS0CbdyHDrq9Eow,saep_acp_load162234@testmail.qalabs.symantec.com,kTO77lviTUu5xkyrEF_FIw,uRgk6pO2TW6QKQG9DeBUBw
5XUK4iALSJKUAu-2QNPEVA,LftEqTilS0CbdyHDrq9Eow,saep_acp_load162234@testmail.qalabs.symantec.com,kTO77lviTUu5xkyrEF_FIw,g_BW-tJWRDyHuSG_B4D2_w
5XUK4iALSJKUAu-2QNPEVA,LftEqTilS0CbdyHDrq9Eow,saep_acp_load162234@testmail.qalabs.symantec.com,kTO77lviTUu5xkyrEF_FIw,BvHltIn1R3eJtLL8CXAcfg
5XUK4iALSJKUAu-2QNPEVA,LftEqTilS0CbdyHDrq9Eow,saep_acp_load162234@testmail.qalabs.symantec.com,kTO77lviTUu5xkyrEF_FIw,wdQ0o_CmR1iMaNkx6znuSg
5XUK4iALSJKUAu-2QNPEVA,LftEqTilS0CbdyHDrq9Eow,saep_acp_load162234@testmail.qalabs.symantec.com,kTO77lviTUu5xkyrEF_FIw,zhJLgvsqTCeQSPFudEnsXA
5XUK4iALSJKUAu-2QNPEVA,LftEqTilS0CbdyHDrq9Eow,saep_acp_load162234@testmail.qalabs.symantec.com,kTO77lviTUu5xkyrEF_FIw,l6Jn2HbuRRWsq8RzgObadA
5XUK4iALSJKUAu-2QNPEVA,LftEqTilS0CbdyHDrq9Eow,saep_acp_load162234@testmail.qalabs.symantec.com,kTO77lviTUu5xkyrEF_FIw,5YRV06qdStC87cHpEE46zw
5XUK4iALSJKUAu-2QNPEVA,LftEqTilS0CbdyHDrq9Eow,saep_acp_load162234@testmail.qalabs.symantec.com,kTO77lviTUu5xkyrEF_FIw,c9456g7-TW6PnlBYbZZA8A
5XUK4iALSJKUAu-2QNPEVA,LftEqTilS0CbdyHDrq9Eow,saep_acp_load162234@testmail.qalabs.symantec.com,kTO77lviTUu5xkyrEF_FIw,bqi4qdzgQHSm-vjCADMF2Q
5XUK4iALSJKUAu-2QNPEVA,LftEqTilS0CbdyHDrq9Eow,saep_acp_load162234@testmail.qalabs.symantec.com,kTO77lviTUu5xkyrEF_FIw,xTUi7CzFQIqMB0g7qOL-Pg
5XUK4iALSJKUAu-2QNPEVA,LftEqTilS0CbdyHDrq9Eow,saep_acp_load162234@testmail.qalabs.symantec.com,kTO77lviTUu5xkyrEF_FIw,3fXc0cbVQIaEwyR3xnRpeg
5XUK4iALSJKUAu-2QNPEVA,LftEqTilS0CbdyHDrq9Eow,saep_acp_load162234@testmail.qalabs.symantec.com,kTO77lviTUu5xkyrEF_FIw,su9ubrulTi-au-plg3-MHg
TOhqa37CQe2SS64bBLJKvA,sJYhirWWQzCMUg8QSYQqBw,saep_acp_load152916@testmail.qalabs.symantec.com,ihNmn901SBu0szjSglIixg,vKdlIa3gQb6vW4eTGnrQRw
TOhqa37CQe2SS64bBLJKvA,sJYhirWWQzCMUg8QSYQqBw,saep_acp_load152916@testmail.qalabs.symantec.com,ihNmn901SBu0szjSglIixg,A473kEBURsGRTo4nM3w4wA
TOhqa37CQe2SS64bBLJKvA,sJYhirWWQzCMUg8QSYQqBw,saep_acp_load152916@testmail.qalabs.symantec.com,ihNmn901SBu0szjSglIixg,K1ngGW6qSh-F9qiGCCc_wA
TOhqa37CQe2SS64bBLJKvA,sJYhirWWQzCMUg8QSYQqBw,saep_acp_load152916@testmail.qalabs.symantec.com,ihNmn901SBu0szjSglIixg,q-SqEvA0Q36towwIYfsM5Q
TOhqa37CQe2SS64bBLJKvA,sJYhirWWQzCMUg8QSYQqBw,saep_acp_load152916@testmail.qalabs.symantec.com,ihNmn901SBu0szjSglIixg,VZxfDT4PQPWNOmmByRKfYw
TOhqa37CQe2SS64bBLJKvA,sJYhirWWQzCMUg8QSYQqBw,saep_acp_load152916@testmail.qalabs.symantec.com,ihNmn901SBu0szjSglIixg,RDtLiW8OQjKil5jlqe4QFA
TOhqa37CQe2SS64bBLJKvA,sJYhirWWQzCMUg8QSYQqBw,saep_acp_load152916@testmail.qalabs.symantec.com,ihNmn901SBu0szjSglIixg,5DqQ1e9JRK64WwM2U8wP2Q
TOhqa37CQe2SS64bBLJKvA,sJYhirWWQzCMUg8QSYQqBw,saep_acp_load152916@testmail.qalabs.symantec.com,ihNmn901SBu0szjSglIixg,BOrgqXTtSYal5SWmpBXviw
TOhqa37CQe2SS64bBLJKvA,sJYhirWWQzCMUg8QSYQqBw,saep_acp_load152916@testmail.qalabs.symantec.com,ihNmn901SBu0szjSglIixg,ZJ5c55QqTnS1E0aHZ0HuJg
TOhqa37CQe2SS64bBLJKvA,sJYhirWWQzCMUg8QSYQqBw,saep_acp_load152916@testmail.qalabs.symantec.com,ihNmn901SBu0szjSglIixg,uoa4ZXIATka8D-_rZwvUNQ
TOhqa37CQe2SS64bBLJKvA,sJYhirWWQzCMUg8QSYQqBw,saep_acp_load152916@testmail.qalabs.symantec.com,ihNmn901SBu0szjSglIixg,AgVxSGeJQ1uSdbEzcfJmhw
TOhqa37CQe2SS64bBLJKvA,sJYhirWWQzCMUg8QSYQqBw,saep_acp_load152916@testmail.qalabs.symantec.com,ihNmn901SBu0szjSglIixg,49MFbiybRiSuv59xqOoBMQ
TOhqa37CQe2SS64bBLJKvA,sJYhirWWQzCMUg8QSYQqBw,saep_acp_load152916@testmail.qalabs.symantec.com,ihNmn901SBu0szjSglIixg,kIVuxEN5QiSRSIHPIpMahw
TOhqa37CQe2SS64bBLJKvA,sJYhirWWQzCMUg8QSYQqBw,saep_acp_load152916@testmail.qalabs.symantec.com,ihNmn901SBu0szjSglIixg,FdKQxFJzSEKbOrpGXNvEmQ
TOhqa37CQe2SS64bBLJKvA,sJYhirWWQzCMUg8QSYQqBw,saep_acp_load152916@testmail.qalabs.symantec.com,ihNmn901SBu0szjSglIixg,7yqq5jzTTkCB3RQsBt0aaw
TOhqa37CQe2SS64bBLJKvA,sJYhirWWQzCMUg8QSYQqBw,saep_acp_load152916@testmail.qalabs.symantec.com,ihNmn901SBu0szjSglIixg,vWPa9VsHQOyAd4cdf8sTng
TOhqa37CQe2SS64bBLJKvA,sJYhirWWQzCMUg8QSYQqBw,saep_acp_load152916@testmail.qalabs.symantec.com,ihNmn901SBu0szjSglIixg,1TOu8hbxTN6VBgnXseqpWw
TOhqa37CQe2SS64bBLJKvA,sJYhirWWQzCMUg8QSYQqBw,saep_acp_load152916@testmail.qalabs.symantec.com,ihNmn901SBu0szjSglIixg,_AHA4d-jRY6jkr1oGmclig
TOhqa37CQe2SS64bBLJKvA,sJYhirWWQzCMUg8QSYQqBw,saep_acp_load152916@testmail.qalabs.symantec.com,ihNmn901SBu0szjSglIixg,Kd5mY0gtTFKZKa69lnvPBw
TOhqa37CQe2SS64bBLJKvA,sJYhirWWQzCMUg8QSYQqBw,saep_acp_load152916@testmail.qalabs.symantec.com,ihNmn901SBu0szjSglIixg,tOJnuKKYRBqF8vN0f0DWCg
TOhqa37CQe2SS64bBLJKvA,sJYhirWWQzCMUg8QSYQqBw,saep_acp_load152916@testmail.qalabs.symantec.com,ihNmn901SBu0szjSglIixg,eJUrSdA4SceptSQhxN1wNg
TOhqa37CQe2SS64bBLJKvA,sJYhirWWQzCMUg8QSYQqBw,saep_acp_load152916@testmail.qalabs.symantec.com,ihNmn901SBu0szjSglIixg,01iXynBeQ_mbhTgeB1fJaA
TOhqa37CQe2SS64bBLJKvA,sJYhirWWQzCMUg8QSYQqBw,saep_acp_load152916@testmail.qalabs.symantec.com,ihNmn901SBu0szjSglIixg,Uf7V33RGQ8ynUggx2ChuLg
TOhqa37CQe2SS64bBLJKvA,sJYhirWWQzCMUg8QSYQqBw,saep_acp_load152916@testmail.qalabs.symantec.com,ihNmn901SBu0szjSglIixg,KedNMdP-Qsm2vEzayOk31g
TOhqa37CQe2SS64bBLJKvA,sJYhirWWQzCMUg8QSYQqBw,saep_acp_load152916@testmail.qalabs.symantec.com,ihNmn901SBu0szjSglIixg,d58eB_YDTwK0bq1etUkP6w
TOhqa37CQe2SS64bBLJKvA,sJYhirWWQzCMUg8QSYQqBw,saep_acp_load152916@testmail.qalabs.symantec.com,ihNmn901SBu0szjSglIixg,lC8bnQDfQOK98hnQd9vSXQ
TOhqa37CQe2SS64bBLJKvA,sJYhirWWQzCMUg8QSYQqBw,saep_acp_load152916@testmail.qalabs.symantec.com,ihNmn901SBu0szjSglIixg,Xslw44JTSV6QItMC-NI6SQ
TOhqa37CQe2SS64bBLJKvA,sJYhirWWQzCMUg8QSYQqBw,saep_acp_load152916@testmail.qalabs.symantec.com,ihNmn901SBu0szjSglIixg,gtYSTIvaTpS8CVHKppBgkA
TOhqa37CQe2SS64bBLJKvA,sJYhirWWQzCMUg8QSYQqBw,saep_acp_load152916@testmail.qalabs.symantec.com,ihNmn901SBu0szjSglIixg,v5c7S3F4TAOm6r-TbnsIxg
TOhqa37CQe2SS64bBLJKvA,sJYhirWWQzCMUg8QSYQqBw,saep_acp_load152916@testmail.qalabs.symantec.com,ihNmn901SBu0szjSglIixg,RQY2UTb7QcuAy70FfGNwlQ
TOhqa37CQe2SS64bBLJKvA,sJYhirWWQzCMUg8QSYQqBw,saep_acp_load152916@testmail.qalabs.symantec.com,ihNmn901SBu0szjSglIixg,TzHG-HOnRLqMYC3DRfxWyA
TOhqa37CQe2SS64bBLJKvA,sJYhirWWQzCMUg8QSYQqBw,saep_acp_load152916@testmail.qalabs.symantec.com,ihNmn901SBu0szjSglIixg,esXHQgrlQhmUVvkxhhJGgQ
TOhqa37CQe2SS64bBLJKvA,sJYhirWWQzCMUg8QSYQqBw,saep_acp_load152916@testmail.qalabs.symantec.com,ihNmn901SBu0szjSglIixg,ozokLnDHQ1WzBFGtbS-jGA
TOhqa37CQe2SS64bBLJKvA,sJYhirWWQzCMUg8QSYQqBw,saep_acp_load152916@testmail.qalabs.symantec.com,ihNmn901SBu0szjSglIixg,SI9-jGBkSu-Hv-Y_134iMA
TOhqa37CQe2SS64bBLJKvA,sJYhirWWQzCMUg8QSYQqBw,saep_acp_load152916@testmail.qalabs.symantec.com,ihNmn901SBu0szjSglIixg,TEZuXwqqRBK3qxk_t9BNeQ
TOhqa37CQe2SS64bBLJKvA,sJYhirWWQzCMUg8QSYQqBw,saep_acp_load152916@testmail.qalabs.symantec.com,ihNmn901SBu0szjSglIixg,ItOPydWnR62-WyLnzr8vOg
TOhqa37CQe2SS64bBLJKvA,sJYhirWWQzCMUg8QSYQqBw,saep_acp_load152916@testmail.qalabs.symantec.com,ihNmn901SBu0szjSglIixg,PubQFOOoRf2SHmSTECnyVA
TOhqa37CQe2SS64bBLJKvA,sJYhirWWQzCMUg8QSYQqBw,saep_acp_load152916@testmail.qalabs.symantec.com,ihNmn901SBu0szjSglIixg,Uu0WNny8Qh6WEjT_AfZz5w
TOhqa37CQe2SS64bBLJKvA,sJYhirWWQzCMUg8QSYQqBw,saep_acp_load152916@testmail.qalabs.symantec.com,ihNmn901SBu0szjSglIixg,-ma0Adz-QjirMMzfHKwKEw
TOhqa37CQe2SS64bBLJKvA,sJYhirWWQzCMUg8QSYQqBw,saep_acp_load152916@testmail.qalabs.symantec.com,ihNmn901SBu0szjSglIixg,-to9u4z9S8ekdYASaP7f8w
TOhqa37CQe2SS64bBLJKvA,sJYhirWWQzCMUg8QSYQqBw,saep_acp_load152916@testmail.qalabs.symantec.com,ihNmn901SBu0szjSglIixg,Iz2xfPKESoyrx8A0N--tDg
TOhqa37CQe2SS64bBLJKvA,sJYhirWWQzCMUg8QSYQqBw,saep_acp_load152916@testmail.qalabs.symantec.com,ihNmn901SBu0szjSglIixg,zwPg3RphSeSqmmhPIPQQJQ
TOhqa37CQe2SS64bBLJKvA,sJYhirWWQzCMUg8QSYQqBw,saep_acp_load152916@testmail.qalabs.symantec.com,ihNmn901SBu0szjSglIixg,md23w8BEQr2cn3pk3aZ6ZQ
TOhqa37CQe2SS64bBLJKvA,sJYhirWWQzCMUg8QSYQqBw,saep_acp_load152916@testmail.qalabs.symantec.com,ihNmn901SBu0szjSglIixg,NMbtXTOoQQmWyjry3ogwog
TOhqa37CQe2SS64bBLJKvA,sJYhirWWQzCMUg8QSYQqBw,saep_acp_load152916@testmail.qalabs.symantec.com,ihNmn901SBu0szjSglIixg,v5SDjYmTQdesxhlznd_qhQ
TOhqa37CQe2SS64bBLJKvA,sJYhirWWQzCMUg8QSYQqBw,saep_acp_load152916@testmail.qalabs.symantec.com,ihNmn901SBu0szjSglIixg,00AF-nHKSQuEguLEwagiGA
TOhqa37CQe2SS64bBLJKvA,sJYhirWWQzCMUg8QSYQqBw,saep_acp_load152916@testmail.qalabs.symantec.com,ihNmn901SBu0szjSglIixg,jjE6c80aTbCznTMen4pMig
TOhqa37CQe2SS64bBLJKvA,sJYhirWWQzCMUg8QSYQqBw,saep_acp_load152916@testmail.qalabs.symantec.com,ihNmn901SBu0szjSglIixg,mUFIHLLYR4CXJeNFn4jkBg
TOhqa37CQe2SS64bBLJKvA,sJYhirWWQzCMUg8QSYQqBw,saep_acp_load152916@testmail.qalabs.symantec.com,ihNmn901SBu0szjSglIixg,pSuvt3LZTYmkn8R8B4m5xw
TOhqa37CQe2SS64bBLJKvA,sJYhirWWQzCMUg8QSYQqBw,saep_acp_load152916@testmail.qalabs.symantec.com,ihNmn901SBu0szjSglIixg,q8qVOk5hTkObMxPHgjhk1A
YKwfkkCuQQO6zYF2bxDVig,hXgGukipQjSti4C8gj3rGg,saep_acp_load190149@testmail.qalabs.symantec.com,tt6a_sI8RCSPUr_4Nv0XKA,RSLP3DaYTQy_IwE8HczYEQ
YKwfkkCuQQO6zYF2bxDVig,hXgGukipQjSti4C8gj3rGg,saep_acp_load190149@testmail.qalabs.symantec.com,tt6a_sI8RCSPUr_4Nv0XKA,bdoeSBQQSBeCC0ajcySu8Q
YKwfkkCuQQO6zYF2bxDVig,hXgGukipQjSti4C8gj3rGg,saep_acp_load190149@testmail.qalabs.symantec.com,tt6a_sI8RCSPUr_4Nv0XKA,3EtfbybJSdaCaQ2ukZj0dw
YKwfkkCuQQO6zYF2bxDVig,hXgGukipQjSti4C8gj3rGg,saep_acp_load190149@testmail.qalabs.symantec.com,tt6a_sI8RCSPUr_4Nv0XKA,9gVds4nYR6WQbpkMC9Jphw
YKwfkkCuQQO6zYF2bxDVig,hXgGukipQjSti4C8gj3rGg,saep_acp_load190149@testmail.qalabs.symantec.com,tt6a_sI8RCSPUr_4Nv0XKA,rZHxeMkGTGq0CDVksaSyEQ
YKwfkkCuQQO6zYF2bxDVig,hXgGukipQjSti4C8gj3rGg,saep_acp_load190149@testmail.qalabs.symantec.com,tt6a_sI8RCSPUr_4Nv0XKA,EOxxwlz6TkeqGzKHdR7Bow
YKwfkkCuQQO6zYF2bxDVig,hXgGukipQjSti4C8gj3rGg,saep_acp_load190149@testmail.qalabs.symantec.com,tt6a_sI8RCSPUr_4Nv0XKA,nYVjA8CkRwmnFQ0vFdbPXw
YKwfkkCuQQO6zYF2bxDVig,hXgGukipQjSti4C8gj3rGg,saep_acp_load190149@testmail.qalabs.symantec.com,tt6a_sI8RCSPUr_4Nv0XKA,DiLc_F7hTSiOD0UGRAIjeQ
YKwfkkCuQQO6zYF2bxDVig,hXgGukipQjSti4C8gj3rGg,saep_acp_load190149@testmail.qalabs.symantec.com,tt6a_sI8RCSPUr_4Nv0XKA,QxjkeBktTS-S7vyCDBKz1Q
YKwfkkCuQQO6zYF2bxDVig,hXgGukipQjSti4C8gj3rGg,saep_acp_load190149@testmail.qalabs.symantec.com,tt6a_sI8RCSPUr_4Nv0XKA,0QOC-Yw7RDa94mnrwALrjA
YKwfkkCuQQO6zYF2bxDVig,hXgGukipQjSti4C8gj3rGg,saep_acp_load190149@testmail.qalabs.symantec.com,tt6a_sI8RCSPUr_4Nv0XKA,_7nt67PNT0KRaWj5Qu1zmw
YKwfkkCuQQO6zYF2bxDVig,hXgGukipQjSti4C8gj3rGg,saep_acp_load190149@testmail.qalabs.symantec.com,tt6a_sI8RCSPUr_4Nv0XKA,MZ2FkjdnTVisOClyKdDr9Q
YKwfkkCuQQO6zYF2bxDVig,hXgGukipQjSti4C8gj3rGg,saep_acp_load190149@testmail.qalabs.symantec.com,tt6a_sI8RCSPUr_4Nv0XKA,gF5j18BsSweKc33I-Hbw6w
YKwfkkCuQQO6zYF2bxDVig,hXgGukipQjSti4C8gj3rGg,saep_acp_load190149@testmail.qalabs.symantec.com,tt6a_sI8RCSPUr_4Nv0XKA,DG4bOssFTKa-Rf9RDd9Q6Q
YKwfkkCuQQO6zYF2bxDVig,hXgGukipQjSti4C8gj3rGg,saep_acp_load190149@testmail.qalabs.symantec.com,tt6a_sI8RCSPUr_4Nv0XKA,uQNjncgoQGCp1-1uZF_DTw
YKwfkkCuQQO6zYF2bxDVig,hXgGukipQjSti4C8gj3rGg,saep_acp_load190149@testmail.qalabs.symantec.com,tt6a_sI8RCSPUr_4Nv0XKA,5raNEuchRAKtu4zheLv6eA
YKwfkkCuQQO6zYF2bxDVig,hXgGukipQjSti4C8gj3rGg,saep_acp_load190149@testmail.qalabs.symantec.com,tt6a_sI8RCSPUr_4Nv0XKA,Nm4j5NxLSh66zdLqEaycaQ
YKwfkkCuQQO6zYF2bxDVig,hXgGukipQjSti4C8gj3rGg,saep_acp_load190149@testmail.qalabs.symantec.com,tt6a_sI8RCSPUr_4Nv0XKA,xscxLIIHTvOPIxj8KGNLOA
YKwfkkCuQQO6zYF2bxDVig,hXgGukipQjSti4C8gj3rGg,saep_acp_load190149@testmail.qalabs.symantec.com,tt6a_sI8RCSPUr_4Nv0XKA,YuyJg6ZORMC4S6qyoQlJ2A
YKwfkkCuQQO6zYF2bxDVig,hXgGukipQjSti4C8gj3rGg,saep_acp_load190149@testmail.qalabs.symantec.com,tt6a_sI8RCSPUr_4Nv0XKA,qtzsZ3tkTDmkCKyfznlLtg
YKwfkkCuQQO6zYF2bxDVig,hXgGukipQjSti4C8gj3rGg,saep_acp_load190149@testmail.qalabs.symantec.com,tt6a_sI8RCSPUr_4Nv0XKA,zhXGsS85Q_OAK4i65zwv9Q
YKwfkkCuQQO6zYF2bxDVig,hXgGukipQjSti4C8gj3rGg,saep_acp_load190149@testmail.qalabs.symantec.com,tt6a_sI8RCSPUr_4Nv0XKA,XrsXEstqRkiiaNyVe7dzKQ
YKwfkkCuQQO6zYF2bxDVig,hXgGukipQjSti4C8gj3rGg,saep_acp_load190149@testmail.qalabs.symantec.com,tt6a_sI8RCSPUr_4Nv0XKA,5wc1k5eERdyUo3NyGAi2Qg
YKwfkkCuQQO6zYF2bxDVig,hXgGukipQjSti4C8gj3rGg,saep_acp_load190149@testmail.qalabs.symantec.com,tt6a_sI8RCSPUr_4Nv0XKA,pafDponMRpqS_zoOsEqJtw
YKwfkkCuQQO6zYF2bxDVig,hXgGukipQjSti4C8gj3rGg,saep_acp_load190149@testmail.qalabs.symantec.com,tt6a_sI8RCSPUr_4Nv0XKA,D2DsvyrdQGeq5NReDsHb8g
YKwfkkCuQQO6zYF2bxDVig,hXgGukipQjSti4C8gj3rGg,saep_acp_load190149@testmail.qalabs.symantec.com,tt6a_sI8RCSPUr_4Nv0XKA,CqC2A_HvSWiCf6bArBFVOw
YKwfkkCuQQO6zYF2bxDVig,hXgGukipQjSti4C8gj3rGg,saep_acp_load190149@testmail.qalabs.symantec.com,tt6a_sI8RCSPUr_4Nv0XKA,6CFGLkKFQA2L2Jp9ICywtg
YKwfkkCuQQO6zYF2bxDVig,hXgGukipQjSti4C8gj3rGg,saep_acp_load190149@testmail.qalabs.symantec.com,tt6a_sI8RCSPUr_4Nv0XKA,JiHNKfDRSNerXzSZqo-HOQ
YKwfkkCuQQO6zYF2bxDVig,hXgGukipQjSti4C8gj3rGg,saep_acp_load190149@testmail.qalabs.symantec.com,tt6a_sI8RCSPUr_4Nv0XKA,rnEkRc57RsSdG7Xrq9XTeA
YKwfkkCuQQO6zYF2bxDVig,hXgGukipQjSti4C8gj3rGg,saep_acp_load190149@testmail.qalabs.symantec.com,tt6a_sI8RCSPUr_4Nv0XKA,Ey5duOl0TRCCdKCknHxIcQ
YKwfkkCuQQO6zYF2bxDVig,hXgGukipQjSti4C8gj3rGg,saep_acp_load190149@testmail.qalabs.symantec.com,tt6a_sI8RCSPUr_4Nv0XKA,Xzp3zC5uTHGa4fLOtQB70w
YKwfkkCuQQO6zYF2bxDVig,hXgGukipQjSti4C8gj3rGg,saep_acp_load190149@testmail.qalabs.symantec.com,tt6a_sI8RCSPUr_4Nv0XKA,bKZ15hoKQvaWhw2eRCvw7w
YKwfkkCuQQO6zYF2bxDVig,hXgGukipQjSti4C8gj3rGg,saep_acp_load190149@testmail.qalabs.symantec.com,tt6a_sI8RCSPUr_4Nv0XKA,zxoFSSQZS1Oe02eKbcv7ww
YKwfkkCuQQO6zYF2bxDVig,hXgGukipQjSti4C8gj3rGg,saep_acp_load190149@testmail.qalabs.symantec.com,tt6a_sI8RCSPUr_4Nv0XKA,1GnM7mJDTIa8uxE802XhTw
YKwfkkCuQQO6zYF2bxDVig,hXgGukipQjSti4C8gj3rGg,saep_acp_load190149@testmail.qalabs.symantec.com,tt6a_sI8RCSPUr_4Nv0XKA,LjEVlCzzSKSTKW2J3LPsGA
YKwfkkCuQQO6zYF2bxDVig,hXgGukipQjSti4C8gj3rGg,saep_acp_load190149@testmail.qalabs.symantec.com,tt6a_sI8RCSPUr_4Nv0XKA,iJPrNPfXTQmsbvU7lQ6ryg
YKwfkkCuQQO6zYF2bxDVig,hXgGukipQjSti4C8gj3rGg,saep_acp_load190149@testmail.qalabs.symantec.com,tt6a_sI8RCSPUr_4Nv0XKA,Phf28vPFRlecnwlvTlMiaQ
YKwfkkCuQQO6zYF2bxDVig,hXgGukipQjSti4C8gj3rGg,saep_acp_load190149@testmail.qalabs.symantec.com,tt6a_sI8RCSPUr_4Nv0XKA,b9K864lpTYSj9A5QHP5ekQ
YKwfkkCuQQO6zYF2bxDVig,hXgGukipQjSti4C8gj3rGg,saep_acp_load190149@testmail.qalabs.symantec.com,tt6a_sI8RCSPUr_4Nv0XKA,Kf5oPwPgQ8mqkJn9XB3B6w
YKwfkkCuQQO6zYF2bxDVig,hXgGukipQjSti4C8gj3rGg,saep_acp_load190149@testmail.qalabs.symantec.com,tt6a_sI8RCSPUr_4Nv0XKA,dtZD399cQ3yrZCPrnJ4mIA
YKwfkkCuQQO6zYF2bxDVig,hXgGukipQjSti4C8gj3rGg,saep_acp_load190149@testmail.qalabs.symantec.com,tt6a_sI8RCSPUr_4Nv0XKA,ZvjfxJUvS3axcVkCzuY24w
YKwfkkCuQQO6zYF2bxDVig,hXgGukipQjSti4C8gj3rGg,saep_acp_load190149@testmail.qalabs.symantec.com,tt6a_sI8RCSPUr_4Nv0XKA,5PmIlS4mR_qHIQqUAGOpVw
YKwfkkCuQQO6zYF2bxDVig,hXgGukipQjSti4C8gj3rGg,saep_acp_load190149@testmail.qalabs.symantec.com,tt6a_sI8RCSPUr_4Nv0XKA,QFmQkVfqQYm4q2FJ8r9h5w
YKwfkkCuQQO6zYF2bxDVig,hXgGukipQjSti4C8gj3rGg,saep_acp_load190149@testmail.qalabs.symantec.com,tt6a_sI8RCSPUr_4Nv0XKA,5Rjl57xdTUOAZbTAyyrlOQ
YKwfkkCuQQO6zYF2bxDVig,hXgGukipQjSti4C8gj3rGg,saep_acp_load190149@testmail.qalabs.symantec.com,tt6a_sI8RCSPUr_4Nv0XKA,MjitaBmLSL6jyNo9E7n95w
YKwfkkCuQQO6zYF2bxDVig,hXgGukipQjSti4C8gj3rGg,saep_acp_load190149@testmail.qalabs.symantec.com,tt6a_sI8RCSPUr_4Nv0XKA,iQpO9hEzQR-sU3G5DDlGmA
YKwfkkCuQQO6zYF2bxDVig,hXgGukipQjSti4C8gj3rGg,saep_acp_load190149@testmail.qalabs.symantec.com,tt6a_sI8RCSPUr_4Nv0XKA,rriwYgsbRaSTEjlJa-73pA
YKwfkkCuQQO6zYF2bxDVig,hXgGukipQjSti4C8gj3rGg,saep_acp_load190149@testmail.qalabs.symantec.com,tt6a_sI8RCSPUr_4Nv0XKA,v__X6jZRR4an53Qa_RHoyw
YKwfkkCuQQO6zYF2bxDVig,hXgGukipQjSti4C8gj3rGg,saep_acp_load190149@testmail.qalabs.symantec.com,tt6a_sI8RCSPUr_4Nv0XKA,y1fjMusKReWe3ibKKbx3wQ
YKwfkkCuQQO6zYF2bxDVig,hXgGukipQjSti4C8gj3rGg,saep_acp_load190149@testmail.qalabs.symantec.com,tt6a_sI8RCSPUr_4Nv0XKA,0bQdvyERRa-2XyjnPCrN8A
8ayHw3vuT3uiO1Bz7wleGA,tTl3kj6dQ5qhYt4QoyGwxg,saep_acp_load172164@testmail.qalabs.symantec.com,jdCH-oIKSL60XGaCfKbBdg,RVqJQemyTfmG4RQ3WK1zug
8ayHw3vuT3uiO1Bz7wleGA,tTl3kj6dQ5qhYt4QoyGwxg,saep_acp_load172164@testmail.qalabs.symantec.com,jdCH-oIKSL60XGaCfKbBdg,Tl6FxSuXTPSbNILWJra6nA
8ayHw3vuT3uiO1Bz7wleGA,tTl3kj6dQ5qhYt4QoyGwxg,saep_acp_load172164@testmail.qalabs.symantec.com,jdCH-oIKSL60XGaCfKbBdg,2hSea4zpS7SaQjk-SH7tmg
8ayHw3vuT3uiO1Bz7wleGA,tTl3kj6dQ5qhYt4QoyGwxg,saep_acp_load172164@testmail.qalabs.symantec.com,jdCH-oIKSL60XGaCfKbBdg,hLKnDwvET9GdZW9qtAiXaA
8ayHw3vuT3uiO1Bz7wleGA,tTl3kj6dQ5qhYt4QoyGwxg,saep_acp_load172164@testmail.qalabs.symantec.com,jdCH-oIKSL60XGaCfKbBdg,HlrDavkjTu6OeHc8CN-pJA
8ayHw3vuT3uiO1Bz7wleGA,tTl3kj6dQ5qhYt4QoyGwxg,saep_acp_load172164@testmail.qalabs.symantec.com,jdCH-oIKSL60XGaCfKbBdg,fIqqw-gHRHyYAvBX-1z43g
8ayHw3vuT3uiO1Bz7wleGA,tTl3kj6dQ5qhYt4QoyGwxg,saep_acp_load172164@testmail.qalabs.symantec.com,jdCH-oIKSL60XGaCfKbBdg,sdhERZLgRIS2lla3vatxsQ
8ayHw3vuT3uiO1Bz7wleGA,tTl3kj6dQ5qhYt4QoyGwxg,saep_acp_load172164@testmail.qalabs.symantec.com,jdCH-oIKSL60XGaCfKbBdg,b4nlsH3jSka-VSMmr_wEyw
8ayHw3vuT3uiO1Bz7wleGA,tTl3kj6dQ5qhYt4QoyGwxg,saep_acp_load172164@testmail.qalabs.symantec.com,jdCH-oIKSL60XGaCfKbBdg,PC8lkJB1TV6XC58_EKQKBQ
8ayHw3vuT3uiO1Bz7wleGA,tTl3kj6dQ5qhYt4QoyGwxg,saep_acp_load172164@testmail.qalabs.symantec.com,jdCH-oIKSL60XGaCfKbBdg,ohGVLCV7TjSJQtLNflWLUw
8ayHw3vuT3uiO1Bz7wleGA,tTl3kj6dQ5qhYt4QoyGwxg,saep_acp_load172164@testmail.qalabs.symantec.com,jdCH-oIKSL60XGaCfKbBdg,bcSbvv7RTDeCouXeI5XU2Q
8ayHw3vuT3uiO1Bz7wleGA,tTl3kj6dQ5qhYt4QoyGwxg,saep_acp_load172164@testmail.qalabs.symantec.com,jdCH-oIKSL60XGaCfKbBdg,Fm7uoXCbTVGaEh_8VpZlHA
8ayHw3vuT3uiO1Bz7wleGA,tTl3kj6dQ5qhYt4QoyGwxg,saep_acp_load172164@testmail.qalabs.symantec.com,jdCH-oIKSL60XGaCfKbBdg,Dogli_E2Q8-Gv2wrIQ36_A
8ayHw3vuT3uiO1Bz7wleGA,tTl3kj6dQ5qhYt4QoyGwxg,saep_acp_load172164@testmail.qalabs.symantec.com,jdCH-oIKSL60XGaCfKbBdg,Cmj80JunRHCMiW55X-RRRw
8ayHw3vuT3uiO1Bz7wleGA,tTl3kj6dQ5qhYt4QoyGwxg,saep_acp_load172164@testmail.qalabs.symantec.com,jdCH-oIKSL60XGaCfKbBdg,a9lAt4MIRUSDwY4ByTfI2w
8ayHw3vuT3uiO1Bz7wleGA,tTl3kj6dQ5qhYt4QoyGwxg,saep_acp_load172164@testmail.qalabs.symantec.com,jdCH-oIKSL60XGaCfKbBdg,s0_FJJ7jToaPT2_-kQNWqw
8ayHw3vuT3uiO1Bz7wleGA,tTl3kj6dQ5qhYt4QoyGwxg,saep_acp_load172164@testmail.qalabs.symantec.com,jdCH-oIKSL60XGaCfKbBdg,qrZSqsjNTcC3DDfu6F-dsw
8ayHw3vuT3uiO1Bz7wleGA,tTl3kj6dQ5qhYt4QoyGwxg,saep_acp_load172164@testmail.qalabs.symantec.com,jdCH-oIKSL60XGaCfKbBdg,t6_SAY7STM-tgxMklLgdmg
8ayHw3vuT3uiO1Bz7wleGA,tTl3kj6dQ5qhYt4QoyGwxg,saep_acp_load172164@testmail.qalabs.symantec.com,jdCH-oIKSL60XGaCfKbBdg,0KPnVEkFTdyxgq6ijtBgCw
8ayHw3vuT3uiO1Bz7wleGA,tTl3kj6dQ5qhYt4QoyGwxg,saep_acp_load172164@testmail.qalabs.symantec.com,jdCH-oIKSL60XGaCfKbBdg,1dpOA-m2SvWFRnv8J48iXg
8ayHw3vuT3uiO1Bz7wleGA,tTl3kj6dQ5qhYt4QoyGwxg,saep_acp_load172164@testmail.qalabs.symantec.com,jdCH-oIKSL60XGaCfKbBdg,1ul8Owl3Q0-CF8HPENbvKg
8ayHw3vuT3uiO1Bz7wleGA,tTl3kj6dQ5qhYt4QoyGwxg,saep_acp_load172164@testmail.qalabs.symantec.com,jdCH-oIKSL60XGaCfKbBdg,T9hwVaw4Sd66PMZ88-1_Fw
8ayHw3vuT3uiO1Bz7wleGA,tTl3kj6dQ5qhYt4QoyGwxg,saep_acp_load172164@testmail.qalabs.symantec.com,jdCH-oIKSL60XGaCfKbBdg,yPiASLGDSFy2PQLv9NCc3g
8ayHw3vuT3uiO1Bz7wleGA,tTl3kj6dQ5qhYt4QoyGwxg,saep_acp_load172164@testmail.qalabs.symantec.com,jdCH-oIKSL60XGaCfKbBdg,pMN2g5gmSgyUSYFMcAsKPQ
8ayHw3vuT3uiO1Bz7wleGA,tTl3kj6dQ5qhYt4QoyGwxg,saep_acp_load172164@testmail.qalabs.symantec.com,jdCH-oIKSL60XGaCfKbBdg,qVn1D5ceRP2Kvb5rSlnKQg
8ayHw3vuT3uiO1Bz7wleGA,tTl3kj6dQ5qhYt4QoyGwxg,saep_acp_load172164@testmail.qalabs.symantec.com,jdCH-oIKSL60XGaCfKbBdg,LYcjwAB4Qs-B5DsmhwCHhg
8ayHw3vuT3uiO1Bz7wleGA,tTl3kj6dQ5qhYt4QoyGwxg,saep_acp_load172164@testmail.qalabs.symantec.com,jdCH-oIKSL60XGaCfKbBdg,i2C6cERjTv6C_o_-QLo-Aw
8ayHw3vuT3uiO1Bz7wleGA,tTl3kj6dQ5qhYt4QoyGwxg,saep_acp_load172164@testmail.qalabs.symantec.com,jdCH-oIKSL60XGaCfKbBdg,G9AwrTaAQwShhUUbeCM7Ow
8ayHw3vuT3uiO1Bz7wleGA,tTl3kj6dQ5qhYt4QoyGwxg,saep_acp_load172164@testmail.qalabs.symantec.com,jdCH-oIKSL60XGaCfKbBdg,mG_k-jjaR9eEpVkrThyxzQ
8ayHw3vuT3uiO1Bz7wleGA,tTl3kj6dQ5qhYt4QoyGwxg,saep_acp_load172164@testmail.qalabs.symantec.com,jdCH-oIKSL60XGaCfKbBdg,6RcsJJd_SUeVBQrgJ8hgSw
8ayHw3vuT3uiO1Bz7wleGA,tTl3kj6dQ5qhYt4QoyGwxg,saep_acp_load172164@testmail.qalabs.symantec.com,jdCH-oIKSL60XGaCfKbBdg,HZlvs_qFQT2naADTfkrn1g
8ayHw3vuT3uiO1Bz7wleGA,tTl3kj6dQ5qhYt4QoyGwxg,saep_acp_load172164@testmail.qalabs.symantec.com,jdCH-oIKSL60XGaCfKbBdg,J4WW_BDIRx6t_z8N44rYmA
8ayHw3vuT3uiO1Bz7wleGA,tTl3kj6dQ5qhYt4QoyGwxg,saep_acp_load172164@testmail.qalabs.symantec.com,jdCH-oIKSL60XGaCfKbBdg,hOJnWO8RSSS6jORdHjeo0Q
8ayHw3vuT3uiO1Bz7wleGA,tTl3kj6dQ5qhYt4QoyGwxg,saep_acp_load172164@testmail.qalabs.symantec.com,jdCH-oIKSL60XGaCfKbBdg,XYb32UkFR8-wrZPD54Yzjw
8ayHw3vuT3uiO1Bz7wleGA,tTl3kj6dQ5qhYt4QoyGwxg,saep_acp_load172164@testmail.qalabs.symantec.com,jdCH-oIKSL60XGaCfKbBdg,7mc0aC0pSQmxDVg3ANhRIA
8ayHw3vuT3uiO1Bz7wleGA,tTl3kj6dQ5qhYt4QoyGwxg,saep_acp_load172164@testmail.qalabs.symantec.com,jdCH-oIKSL60XGaCfKbBdg,e3ghI1scQ96lw8bTR3Xw5w
8ayHw3vuT3uiO1Bz7wleGA,tTl3kj6dQ5qhYt4QoyGwxg,saep_acp_load172164@testmail.qalabs.symantec.com,jdCH-oIKSL60XGaCfKbBdg,O06wvGm_T6-JAZakFrb5SQ
8ayHw3vuT3uiO1Bz7wleGA,tTl3kj6dQ5qhYt4QoyGwxg,saep_acp_load172164@testmail.qalabs.symantec.com,jdCH-oIKSL60XGaCfKbBdg,lRF2f-8DRlGPLdHLQ992nA
8ayHw3vuT3uiO1Bz7wleGA,tTl3kj6dQ5qhYt4QoyGwxg,saep_acp_load172164@testmail.qalabs.symantec.com,jdCH-oIKSL60XGaCfKbBdg,KwIO7YrbTLy85FBwDkQmKw
8ayHw3vuT3uiO1Bz7wleGA,tTl3kj6dQ5qhYt4QoyGwxg,saep_acp_load172164@testmail.qalabs.symantec.com,jdCH-oIKSL60XGaCfKbBdg,lVp6IBThTO-90V5kjy8qqA
8ayHw3vuT3uiO1Bz7wleGA,tTl3kj6dQ5qhYt4QoyGwxg,saep_acp_load172164@testmail.qalabs.symantec.com,jdCH-oIKSL60XGaCfKbBdg,DMLrtEm4RVe_DVdGJ9Oing
8ayHw3vuT3uiO1Bz7wleGA,tTl3kj6dQ5qhYt4QoyGwxg,saep_acp_load172164@testmail.qalabs.symantec.com,jdCH-oIKSL60XGaCfKbBdg,BDAda8hCRvmQssvSEajn1w
8ayHw3vuT3uiO1Bz7wleGA,tTl3kj6dQ5qhYt4QoyGwxg,saep_acp_load172164@testmail.qalabs.symantec.com,jdCH-oIKSL60XGaCfKbBdg,IzCzMhHMSEaK4MFzOQT2Fw
8ayHw3vuT3uiO1Bz7wleGA,tTl3kj6dQ5qhYt4QoyGwxg,saep_acp_load172164@testmail.qalabs.symantec.com,jdCH-oIKSL60XGaCfKbBdg,SeWtrS68QEyiAUs3QBB-fA
8ayHw3vuT3uiO1Bz7wleGA,tTl3kj6dQ5qhYt4QoyGwxg,saep_acp_load172164@testmail.qalabs.symantec.com,jdCH-oIKSL60XGaCfKbBdg,lsDChU0UTyu-d76OOsm7sA
8ayHw3vuT3uiO1Bz7wleGA,tTl3kj6dQ5qhYt4QoyGwxg,saep_acp_load172164@testmail.qalabs.symantec.com,jdCH-oIKSL60XGaCfKbBdg,mKYHYEujT_-8SPc6od3bmg
8ayHw3vuT3uiO1Bz7wleGA,tTl3kj6dQ5qhYt4QoyGwxg,saep_acp_load172164@testmail.qalabs.symantec.com,jdCH-oIKSL60XGaCfKbBdg,O3uzGK0qRgmgwE0QRODeuA
8ayHw3vuT3uiO1Bz7wleGA,tTl3kj6dQ5qhYt4QoyGwxg,saep_acp_load172164@testmail.qalabs.symantec.com,jdCH-oIKSL60XGaCfKbBdg,AQBmQuBCRqqf2i0pq0q5sg
8ayHw3vuT3uiO1Bz7wleGA,tTl3kj6dQ5qhYt4QoyGwxg,saep_acp_load172164@testmail.qalabs.symantec.com,jdCH-oIKSL60XGaCfKbBdg,5pbilai1S02YcqGuWZJcCQ
8ayHw3vuT3uiO1Bz7wleGA,tTl3kj6dQ5qhYt4QoyGwxg,saep_acp_load172164@testmail.qalabs.symantec.com,jdCH-oIKSL60XGaCfKbBdg,xZiSX49SQFKAkf1i7xQ4bg
V5HAkf8lSM2zY7HW2a-p2Q,Z32ubQWyTcqYnzVpgdg5LQ,saep_acp_load139627@testmail.qalabs.symantec.com,F0xfD6Y_TLidYbSyOHc3fw,KKkY_9X3SfSchM6TxN4mRA
DtoR54h5Qoq-FzvOJUAOag,-8esi_MeR5mDYfh3qSQZaA,saep_acp_load185568@testmail.qalabs.symantec.com,ZWbYGAk9TQGko39WeBxWlQ,oWUS9mDfSgmXXhu5pf7-yg
V5HAkf8lSM2zY7HW2a-p2Q,Z32ubQWyTcqYnzVpgdg5LQ,saep_acp_load139627@testmail.qalabs.symantec.com,F0xfD6Y_TLidYbSyOHc3fw,qQN2ngyeTt2O5IBAuQi9hw
DtoR54h5Qoq-FzvOJUAOag,-8esi_MeR5mDYfh3qSQZaA,saep_acp_load185568@testmail.qalabs.symantec.com,ZWbYGAk9TQGko39WeBxWlQ,-BasAiMIR8mJH0F6mPF1Qg
V5HAkf8lSM2zY7HW2a-p2Q,Z32ubQWyTcqYnzVpgdg5LQ,saep_acp_load139627@testmail.qalabs.symantec.com,F0xfD6Y_TLidYbSyOHc3fw,Nn0lx4mXQ5K65j2kDYSflQ
DtoR54h5Qoq-FzvOJUAOag,-8esi_MeR5mDYfh3qSQZaA,saep_acp_load185568@testmail.qalabs.symantec.com,ZWbYGAk9TQGko39WeBxWlQ,ePRZ-phiTg6WRkA9gkU6dw
DtoR54h5Qoq-FzvOJUAOag,-8esi_MeR5mDYfh3qSQZaA,saep_acp_load185568@testmail.qalabs.symantec.com,ZWbYGAk9TQGko39WeBxWlQ,2li-CzV9Qo-mdyULj4B47Q
V5HAkf8lSM2zY7HW2a-p2Q,Z32ubQWyTcqYnzVpgdg5LQ,saep_acp_load139627@testmail.qalabs.symantec.com,F0xfD6Y_TLidYbSyOHc3fw,-ONu1o2aQ_q2iB20a6Yuhw
DtoR54h5Qoq-FzvOJUAOag,-8esi_MeR5mDYfh3qSQZaA,saep_acp_load185568@testmail.qalabs.symantec.com,ZWbYGAk9TQGko39WeBxWlQ,pcy5aKSLQnubbzIBDyFKyA
V5HAkf8lSM2zY7HW2a-p2Q,Z32ubQWyTcqYnzVpgdg5LQ,saep_acp_load139627@testmail.qalabs.symantec.com,F0xfD6Y_TLidYbSyOHc3fw,faRsPo2WSSmvAc1g0dR8pw
DtoR54h5Qoq-FzvOJUAOag,-8esi_MeR5mDYfh3qSQZaA,saep_acp_load185568@testmail.qalabs.symantec.com,ZWbYGAk9TQGko39WeBxWlQ,dEJwUGPvRYCBo1fixNDY8g
V5HAkf8lSM2zY7HW2a-p2Q,Z32ubQWyTcqYnzVpgdg5LQ,saep_acp_load139627@testmail.qalabs.symantec.com,F0xfD6Y_TLidYbSyOHc3fw,dZVHL8QESAaCDMa3p_Hgxw
DtoR54h5Qoq-FzvOJUAOag,-8esi_MeR5mDYfh3qSQZaA,saep_acp_load185568@testmail.qalabs.symantec.com,ZWbYGAk9TQGko39WeBxWlQ,NnErdIdWTlWIsdNewCY2DQ
V5HAkf8lSM2zY7HW2a-p2Q,Z32ubQWyTcqYnzVpgdg5LQ,saep_acp_load139627@testmail.qalabs.symantec.com,F0xfD6Y_TLidYbSyOHc3fw,RUzRfyWYR3uXir2iLpRyKQ
DtoR54h5Qoq-FzvOJUAOag,-8esi_MeR5mDYfh3qSQZaA,saep_acp_load185568@testmail.qalabs.symantec.com,ZWbYGAk9TQGko39WeBxWlQ,SrYS3IF2TLWASqAjLwzJWw
V5HAkf8lSM2zY7HW2a-p2Q,Z32ubQWyTcqYnzVpgdg5LQ,saep_acp_load139627@testmail.qalabs.symantec.com,F0xfD6Y_TLidYbSyOHc3fw,E66XH2dZSymeXhYccMrlGQ
DtoR54h5Qoq-FzvOJUAOag,-8esi_MeR5mDYfh3qSQZaA,saep_acp_load185568@testmail.qalabs.symantec.com,ZWbYGAk9TQGko39WeBxWlQ,1nBa6jQvQ2iHpU4ESYN2Uw
V5HAkf8lSM2zY7HW2a-p2Q,Z32ubQWyTcqYnzVpgdg5LQ,saep_acp_load139627@testmail.qalabs.symantec.com,F0xfD6Y_TLidYbSyOHc3fw,3xG2LqBzQKeFi_RWgcyZ6g
DtoR54h5Qoq-FzvOJUAOag,-8esi_MeR5mDYfh3qSQZaA,saep_acp_load185568@testmail.qalabs.symantec.com,ZWbYGAk9TQGko39WeBxWlQ,ulmzEKOISRug8_OFoB3vng
DtoR54h5Qoq-FzvOJUAOag,-8esi_MeR5mDYfh3qSQZaA,saep_acp_load185568@testmail.qalabs.symantec.com,ZWbYGAk9TQGko39WeBxWlQ,nS2Qf13KROa9XWkJEexR3A
V5HAkf8lSM2zY7HW2a-p2Q,Z32ubQWyTcqYnzVpgdg5LQ,saep_acp_load139627@testmail.qalabs.symantec.com,F0xfD6Y_TLidYbSyOHc3fw,KsLEmtM5SxKvLobjnbt9lA
DtoR54h5Qoq-FzvOJUAOag,-8esi_MeR5mDYfh3qSQZaA,saep_acp_load185568@testmail.qalabs.symantec.com,ZWbYGAk9TQGko39WeBxWlQ,XcFe54JPQoedpXhcTurgsQ
V5HAkf8lSM2zY7HW2a-p2Q,Z32ubQWyTcqYnzVpgdg5LQ,saep_acp_load139627@testmail.qalabs.symantec.com,F0xfD6Y_TLidYbSyOHc3fw,-5J-En-lTWKAlX65wP0Hgw
DtoR54h5Qoq-FzvOJUAOag,-8esi_MeR5mDYfh3qSQZaA,saep_acp_load185568@testmail.qalabs.symantec.com,ZWbYGAk9TQGko39WeBxWlQ,fmF9p79HRMCcOHdvvJuEsg
V5HAkf8lSM2zY7HW2a-p2Q,Z32ubQWyTcqYnzVpgdg5LQ,saep_acp_load139627@testmail.qalabs.symantec.com,F0xfD6Y_TLidYbSyOHc3fw,RGbV7WemS5-NKX7UHSjRVw
DtoR54h5Qoq-FzvOJUAOag,-8esi_MeR5mDYfh3qSQZaA,saep_acp_load185568@testmail.qalabs.symantec.com,ZWbYGAk9TQGko39WeBxWlQ,KhpwI9NaSOOx5cJUrBgVyA
V5HAkf8lSM2zY7HW2a-p2Q,Z32ubQWyTcqYnzVpgdg5LQ,saep_acp_load139627@testmail.qalabs.symantec.com,F0xfD6Y_TLidYbSyOHc3fw,4uAc9HocQz6dVBW0RYXFfQ
DtoR54h5Qoq-FzvOJUAOag,-8esi_MeR5mDYfh3qSQZaA,saep_acp_load185568@testmail.qalabs.symantec.com,ZWbYGAk9TQGko39WeBxWlQ,8jUGvH4sQjG0xE6ltlDNrw
V5HAkf8lSM2zY7HW2a-p2Q,Z32ubQWyTcqYnzVpgdg5LQ,saep_acp_load139627@testmail.qalabs.symantec.com,F0xfD6Y_TLidYbSyOHc3fw,yHQkRVf8SbCa58SBECdl8w
DtoR54h5Qoq-FzvOJUAOag,-8esi_MeR5mDYfh3qSQZaA,saep_acp_load185568@testmail.qalabs.symantec.com,ZWbYGAk9TQGko39WeBxWlQ,UAU326wdTeGanZKOWbBYQQ
V5HAkf8lSM2zY7HW2a-p2Q,Z32ubQWyTcqYnzVpgdg5LQ,saep_acp_load139627@testmail.qalabs.symantec.com,F0xfD6Y_TLidYbSyOHc3fw,okuHPgNmSfS4ZQYBxMNglA
DtoR54h5Qoq-FzvOJUAOag,-8esi_MeR5mDYfh3qSQZaA,saep_acp_load185568@testmail.qalabs.symantec.com,ZWbYGAk9TQGko39WeBxWlQ,tvNlQ9UZTPSHe8qn20U1WA
DtoR54h5Qoq-FzvOJUAOag,-8esi_MeR5mDYfh3qSQZaA,saep_acp_load185568@testmail.qalabs.symantec.com,ZWbYGAk9TQGko39WeBxWlQ,LOTiRyVQTYK_5YAnH2OR4w
V5HAkf8lSM2zY7HW2a-p2Q,Z32ubQWyTcqYnzVpgdg5LQ,saep_acp_load139627@testmail.qalabs.symantec.com,F0xfD6Y_TLidYbSyOHc3fw,d_KJq_1xRymTnHwIiG1-AQ
DtoR54h5Qoq-FzvOJUAOag,-8esi_MeR5mDYfh3qSQZaA,saep_acp_load185568@testmail.qalabs.symantec.com,ZWbYGAk9TQGko39WeBxWlQ,rEbq1QeuTAma3q_4MaXLVQ
V5HAkf8lSM2zY7HW2a-p2Q,Z32ubQWyTcqYnzVpgdg5LQ,saep_acp_load139627@testmail.qalabs.symantec.com,F0xfD6Y_TLidYbSyOHc3fw,MbeItUx0RsC7s4omYgPrLg
DtoR54h5Qoq-FzvOJUAOag,-8esi_MeR5mDYfh3qSQZaA,saep_acp_load185568@testmail.qalabs.symantec.com,ZWbYGAk9TQGko39WeBxWlQ,1-1NQ9VcSfqsjKFWT95Y-g
V5HAkf8lSM2zY7HW2a-p2Q,Z32ubQWyTcqYnzVpgdg5LQ,saep_acp_load139627@testmail.qalabs.symantec.com,F0xfD6Y_TLidYbSyOHc3fw,eEhpsMRlRlyIBTZqwzQoeg
DtoR54h5Qoq-FzvOJUAOag,-8esi_MeR5mDYfh3qSQZaA,saep_acp_load185568@testmail.qalabs.symantec.com,ZWbYGAk9TQGko39WeBxWlQ,SwFivJ-oRBSS-gp1sN7aeA
V5HAkf8lSM2zY7HW2a-p2Q,Z32ubQWyTcqYnzVpgdg5LQ,saep_acp_load139627@testmail.qalabs.symantec.com,F0xfD6Y_TLidYbSyOHc3fw,5O8oIzY_RyuLT7G9fIpdYw
DtoR54h5Qoq-FzvOJUAOag,-8esi_MeR5mDYfh3qSQZaA,saep_acp_load185568@testmail.qalabs.symantec.com,ZWbYGAk9TQGko39WeBxWlQ,ZXlgBjN1RLGZKpKlLv8JSw
V5HAkf8lSM2zY7HW2a-p2Q,Z32ubQWyTcqYnzVpgdg5LQ,saep_acp_load139627@testmail.qalabs.symantec.com,F0xfD6Y_TLidYbSyOHc3fw,1Fy1LzmOTWOhFUTTwua-yA
DtoR54h5Qoq-FzvOJUAOag,-8esi_MeR5mDYfh3qSQZaA,saep_acp_load185568@testmail.qalabs.symantec.com,ZWbYGAk9TQGko39WeBxWlQ,ED6pVgpnTYmnpF4AG6Il6A
V5HAkf8lSM2zY7HW2a-p2Q,Z32ubQWyTcqYnzVpgdg5LQ,saep_acp_load139627@testmail.qalabs.symantec.com,F0xfD6Y_TLidYbSyOHc3fw,f8m1XYAGR6-4rPss_RtVpw
DtoR54h5Qoq-FzvOJUAOag,-8esi_MeR5mDYfh3qSQZaA,saep_acp_load185568@testmail.qalabs.symantec.com,ZWbYGAk9TQGko39WeBxWlQ,0GfjgzPdR1mUb3Vlbea7kg
V5HAkf8lSM2zY7HW2a-p2Q,Z32ubQWyTcqYnzVpgdg5LQ,saep_acp_load139627@testmail.qalabs.symantec.com,F0xfD6Y_TLidYbSyOHc3fw,Lj4PlkpwTMik46Cb7TEDHg
DtoR54h5Qoq-FzvOJUAOag,-8esi_MeR5mDYfh3qSQZaA,saep_acp_load185568@testmail.qalabs.symantec.com,ZWbYGAk9TQGko39WeBxWlQ,8hmXJWquQTObNmouKG-u7A
V5HAkf8lSM2zY7HW2a-p2Q,Z32ubQWyTcqYnzVpgdg5LQ,saep_acp_load139627@testmail.qalabs.symantec.com,F0xfD6Y_TLidYbSyOHc3fw,DhaX8fViQx6wIuya19PxFg
DtoR54h5Qoq-FzvOJUAOag,-8esi_MeR5mDYfh3qSQZaA,saep_acp_load185568@testmail.qalabs.symantec.com,ZWbYGAk9TQGko39WeBxWlQ,jP40jv1zR_-ifCIOpSRB0g
V5HAkf8lSM2zY7HW2a-p2Q,Z32ubQWyTcqYnzVpgdg5LQ,saep_acp_load139627@testmail.qalabs.symantec.com,F0xfD6Y_TLidYbSyOHc3fw,jcRAmaHPQoiJJe6hE_u_Eg
DtoR54h5Qoq-FzvOJUAOag,-8esi_MeR5mDYfh3qSQZaA,saep_acp_load185568@testmail.qalabs.symantec.com,ZWbYGAk9TQGko39WeBxWlQ,8WmWijhcTUiK7dtRd4sFsw
V5HAkf8lSM2zY7HW2a-p2Q,Z32ubQWyTcqYnzVpgdg5LQ,saep_acp_load139627@testmail.qalabs.symantec.com,F0xfD6Y_TLidYbSyOHc3fw,iPCkAzEIRN-B4Wq_fVZ1Dg
DtoR54h5Qoq-FzvOJUAOag,-8esi_MeR5mDYfh3qSQZaA,saep_acp_load185568@testmail.qalabs.symantec.com,ZWbYGAk9TQGko39WeBxWlQ,N50SaAN3QcysaTR-T9q0qQ
DtoR54h5Qoq-FzvOJUAOag,-8esi_MeR5mDYfh3qSQZaA,saep_acp_load185568@testmail.qalabs.symantec.com,ZWbYGAk9TQGko39WeBxWlQ,v55cMNmQSzSacsZmTjAp3Q
V5HAkf8lSM2zY7HW2a-p2Q,Z32ubQWyTcqYnzVpgdg5LQ,saep_acp_load139627@testmail.qalabs.symantec.com,F0xfD6Y_TLidYbSyOHc3fw,Ao8qre_HSYWOHXVBRimFZw
DtoR54h5Qoq-FzvOJUAOag,-8esi_MeR5mDYfh3qSQZaA,saep_acp_load185568@testmail.qalabs.symantec.com,ZWbYGAk9TQGko39WeBxWlQ,Zwcvk9GMR5q_43EuI7fiww
V5HAkf8lSM2zY7HW2a-p2Q,Z32ubQWyTcqYnzVpgdg5LQ,saep_acp_load139627@testmail.qalabs.symantec.com,F0xfD6Y_TLidYbSyOHc3fw,4PAS2Dx0TY60A6C0H34ZJQ
DtoR54h5Qoq-FzvOJUAOag,-8esi_MeR5mDYfh3qSQZaA,saep_acp_load185568@testmail.qalabs.symantec.com,ZWbYGAk9TQGko39WeBxWlQ,92Iv9CIlQVCp69XEEJ6pUA
V5HAkf8lSM2zY7HW2a-p2Q,Z32ubQWyTcqYnzVpgdg5LQ,saep_acp_load139627@testmail.qalabs.symantec.com,F0xfD6Y_TLidYbSyOHc3fw,BOzYRKxzQrOgjw1heGPHpg
DtoR54h5Qoq-FzvOJUAOag,-8esi_MeR5mDYfh3qSQZaA,saep_acp_load185568@testmail.qalabs.symantec.com,ZWbYGAk9TQGko39WeBxWlQ,2epvwM8gQUO0itFzGXMLWQ
V5HAkf8lSM2zY7HW2a-p2Q,Z32ubQWyTcqYnzVpgdg5LQ,saep_acp_load139627@testmail.qalabs.symantec.com,F0xfD6Y_TLidYbSyOHc3fw,PZkf39CfQOeZzMNdZ2xpHA
DtoR54h5Qoq-FzvOJUAOag,-8esi_MeR5mDYfh3qSQZaA,saep_acp_load185568@testmail.qalabs.symantec.com,ZWbYGAk9TQGko39WeBxWlQ,xoW6iLliTYSMN_PmV7GXPA
DtoR54h5Qoq-FzvOJUAOag,-8esi_MeR5mDYfh3qSQZaA,saep_acp_load185568@testmail.qalabs.symantec.com,ZWbYGAk9TQGko39WeBxWlQ,PTrqLPI7T06ErLSSQ6VGwQ
V5HAkf8lSM2zY7HW2a-p2Q,Z32ubQWyTcqYnzVpgdg5LQ,saep_acp_load139627@testmail.qalabs.symantec.com,F0xfD6Y_TLidYbSyOHc3fw,vSb1wRK2Q0eJz4KqoM79Ew
V5HAkf8lSM2zY7HW2a-p2Q,Z32ubQWyTcqYnzVpgdg5LQ,saep_acp_load139627@testmail.qalabs.symantec.com,F0xfD6Y_TLidYbSyOHc3fw,I8t0TC2vTrqNRXKO1KEpDw
DtoR54h5Qoq-FzvOJUAOag,-8esi_MeR5mDYfh3qSQZaA,saep_acp_load185568@testmail.qalabs.symantec.com,ZWbYGAk9TQGko39WeBxWlQ,a3V5iO5GS627Wxhx3WnqdQ
V5HAkf8lSM2zY7HW2a-p2Q,Z32ubQWyTcqYnzVpgdg5LQ,saep_acp_load139627@testmail.qalabs.symantec.com,F0xfD6Y_TLidYbSyOHc3fw,71wA5nMoQ4mJ97zbh99z3w
DtoR54h5Qoq-FzvOJUAOag,-8esi_MeR5mDYfh3qSQZaA,saep_acp_load185568@testmail.qalabs.symantec.com,ZWbYGAk9TQGko39WeBxWlQ,HaMOv2Q4QNiPqUrLV-UK0w
V5HAkf8lSM2zY7HW2a-p2Q,Z32ubQWyTcqYnzVpgdg5LQ,saep_acp_load139627@testmail.qalabs.symantec.com,F0xfD6Y_TLidYbSyOHc3fw,-piCaEHPQm2AaGT7BgEM7Q
DtoR54h5Qoq-FzvOJUAOag,-8esi_MeR5mDYfh3qSQZaA,saep_acp_load185568@testmail.qalabs.symantec.com,ZWbYGAk9TQGko39WeBxWlQ,spH3Qj-LT9mET1xr_qKlEQ
V5HAkf8lSM2zY7HW2a-p2Q,Z32ubQWyTcqYnzVpgdg5LQ,saep_acp_load139627@testmail.qalabs.symantec.com,F0xfD6Y_TLidYbSyOHc3fw,QkrRwT_-RcqCN8zuj_zydA
DtoR54h5Qoq-FzvOJUAOag,-8esi_MeR5mDYfh3qSQZaA,saep_acp_load185568@testmail.qalabs.symantec.com,ZWbYGAk9TQGko39WeBxWlQ,kikLjyF3SRi1dlTltEh1aw
V5HAkf8lSM2zY7HW2a-p2Q,Z32ubQWyTcqYnzVpgdg5LQ,saep_acp_load139627@testmail.qalabs.symantec.com,F0xfD6Y_TLidYbSyOHc3fw,r1sTFJTAQnWbtvXcFT7boQ
DtoR54h5Qoq-FzvOJUAOag,-8esi_MeR5mDYfh3qSQZaA,saep_acp_load185568@testmail.qalabs.symantec.com,ZWbYGAk9TQGko39WeBxWlQ,_SvFEPiOTZuxpthQfP4pxw
V5HAkf8lSM2zY7HW2a-p2Q,Z32ubQWyTcqYnzVpgdg5LQ,saep_acp_load139627@testmail.qalabs.symantec.com,F0xfD6Y_TLidYbSyOHc3fw,JCKgRg4ORqWZBjFJ-aSLVg
DtoR54h5Qoq-FzvOJUAOag,-8esi_MeR5mDYfh3qSQZaA,saep_acp_load185568@testmail.qalabs.symantec.com,ZWbYGAk9TQGko39WeBxWlQ,4gMxzkK2R8Crwb3J8DcvUA
V5HAkf8lSM2zY7HW2a-p2Q,Z32ubQWyTcqYnzVpgdg5LQ,saep_acp_load139627@testmail.qalabs.symantec.com,F0xfD6Y_TLidYbSyOHc3fw,OjXKq2kTRDyLiTbaYxSPgA
DtoR54h5Qoq-FzvOJUAOag,-8esi_MeR5mDYfh3qSQZaA,saep_acp_load185568@testmail.qalabs.symantec.com,ZWbYGAk9TQGko39WeBxWlQ,F1qspC5TRl6OGaYUNsPhkg
V5HAkf8lSM2zY7HW2a-p2Q,Z32ubQWyTcqYnzVpgdg5LQ,saep_acp_load139627@testmail.qalabs.symantec.com,F0xfD6Y_TLidYbSyOHc3fw,NSgm03TgStGcEtBnV4nMqw
DtoR54h5Qoq-FzvOJUAOag,-8esi_MeR5mDYfh3qSQZaA,saep_acp_load185568@testmail.qalabs.symantec.com,ZWbYGAk9TQGko39WeBxWlQ,XePqUADcSjy55r-U9jRo9A
V5HAkf8lSM2zY7HW2a-p2Q,Z32ubQWyTcqYnzVpgdg5LQ,saep_acp_load139627@testmail.qalabs.symantec.com,F0xfD6Y_TLidYbSyOHc3fw,_I157HFbRuejiUao-1ZopQ
DtoR54h5Qoq-FzvOJUAOag,-8esi_MeR5mDYfh3qSQZaA,saep_acp_load185568@testmail.qalabs.symantec.com,ZWbYGAk9TQGko39WeBxWlQ,J4lK8H9wTgu0D0Tw9fQflw
V5HAkf8lSM2zY7HW2a-p2Q,Z32ubQWyTcqYnzVpgdg5LQ,saep_acp_load139627@testmail.qalabs.symantec.com,F0xfD6Y_TLidYbSyOHc3fw,NRmLE64wSDmCWw1-KxyFFQ
DtoR54h5Qoq-FzvOJUAOag,-8esi_MeR5mDYfh3qSQZaA,saep_acp_load185568@testmail.qalabs.symantec.com,ZWbYGAk9TQGko39WeBxWlQ,aDcD4naJQ_2i9lz09in5QQ
V5HAkf8lSM2zY7HW2a-p2Q,Z32ubQWyTcqYnzVpgdg5LQ,saep_acp_load139627@testmail.qalabs.symantec.com,F0xfD6Y_TLidYbSyOHc3fw,YGs_N9F0Q7mpTXoYVLDesQ
DtoR54h5Qoq-FzvOJUAOag,-8esi_MeR5mDYfh3qSQZaA,saep_acp_load185568@testmail.qalabs.symantec.com,ZWbYGAk9TQGko39WeBxWlQ,JVt0d4zoT9W_1t4q4D16sw
V5HAkf8lSM2zY7HW2a-p2Q,Z32ubQWyTcqYnzVpgdg5LQ,saep_acp_load139627@testmail.qalabs.symantec.com,F0xfD6Y_TLidYbSyOHc3fw,9Wi2NRzWQIGPO-4vlwBWfg
DtoR54h5Qoq-FzvOJUAOag,-8esi_MeR5mDYfh3qSQZaA,saep_acp_load185568@testmail.qalabs.symantec.com,ZWbYGAk9TQGko39WeBxWlQ,gtwYhJWQT5KjKpjrAgrlcA
V5HAkf8lSM2zY7HW2a-p2Q,Z32ubQWyTcqYnzVpgdg5LQ,saep_acp_load139627@testmail.qalabs.symantec.com,F0xfD6Y_TLidYbSyOHc3fw,nEYzDAIUTZy0o2dTqvWUEQ
DtoR54h5Qoq-FzvOJUAOag,-8esi_MeR5mDYfh3qSQZaA,saep_acp_load185568@testmail.qalabs.symantec.com,ZWbYGAk9TQGko39WeBxWlQ,DxjFmQSPS_eyrC4vLAdHtA
V5HAkf8lSM2zY7HW2a-p2Q,Z32ubQWyTcqYnzVpgdg5LQ,saep_acp_load139627@testmail.qalabs.symantec.com,F0xfD6Y_TLidYbSyOHc3fw,yqCc67pXTem4zIkB74BCkg
DtoR54h5Qoq-FzvOJUAOag,-8esi_MeR5mDYfh3qSQZaA,saep_acp_load185568@testmail.qalabs.symantec.com,ZWbYGAk9TQGko39WeBxWlQ,M1xaKkYtTJ2aQtEmyt1elw
V5HAkf8lSM2zY7HW2a-p2Q,Z32ubQWyTcqYnzVpgdg5LQ,saep_acp_load139627@testmail.qalabs.symantec.com,F0xfD6Y_TLidYbSyOHc3fw,hBfArvwoQSCe1mRHvYDU4Q
DtoR54h5Qoq-FzvOJUAOag,-8esi_MeR5mDYfh3qSQZaA,saep_acp_load185568@testmail.qalabs.symantec.com,ZWbYGAk9TQGko39WeBxWlQ,eGzJ3RZlTk2u2oHRVCVg7w
DtoR54h5Qoq-FzvOJUAOag,-8esi_MeR5mDYfh3qSQZaA,saep_acp_load185568@testmail.qalabs.symantec.com,ZWbYGAk9TQGko39WeBxWlQ,oQCHjHT8ToWZf6o2jv6Lsw
V5HAkf8lSM2zY7HW2a-p2Q,Z32ubQWyTcqYnzVpgdg5LQ,saep_acp_load139627@testmail.qalabs.symantec.com,F0xfD6Y_TLidYbSyOHc3fw,Cij14-WPTPeg30m_ir74ng
V5HAkf8lSM2zY7HW2a-p2Q,Z32ubQWyTcqYnzVpgdg5LQ,saep_acp_load139627@testmail.qalabs.symantec.com,F0xfD6Y_TLidYbSyOHc3fw,Asp6OYU4TaWheiC0ZU4upA
V5HAkf8lSM2zY7HW2a-p2Q,Z32ubQWyTcqYnzVpgdg5LQ,saep_acp_load139627@testmail.qalabs.symantec.com,F0xfD6Y_TLidYbSyOHc3fw,yxgExDAJRNywTeEvGu2Kww
V5HAkf8lSM2zY7HW2a-p2Q,Z32ubQWyTcqYnzVpgdg5LQ,saep_acp_load139627@testmail.qalabs.symantec.com,F0xfD6Y_TLidYbSyOHc3fw,vtNgKKsWQw-6A_6XuIkiaQ
V5HAkf8lSM2zY7HW2a-p2Q,Z32ubQWyTcqYnzVpgdg5LQ,saep_acp_load139627@testmail.qalabs.symantec.com,F0xfD6Y_TLidYbSyOHc3fw,zpJSyA7pTlOi2L8SmX5wiQ
OpwdCpp-QA29uFzn2HbJrw,7g3Sxdy1RhSdudJrJC2Ukg,saep_acp_load153301@testmail.qalabs.symantec.com,u90EvVndSwW9bNACQRzeyA,Dn1bfbGgSGaECRbMrIwsww
OpwdCpp-QA29uFzn2HbJrw,7g3Sxdy1RhSdudJrJC2Ukg,saep_acp_load153301@testmail.qalabs.symantec.com,u90EvVndSwW9bNACQRzeyA,P-XcLpnxQjCoRJrqQUOGiA
OpwdCpp-QA29uFzn2HbJrw,7g3Sxdy1RhSdudJrJC2Ukg,saep_acp_load153301@testmail.qalabs.symantec.com,u90EvVndSwW9bNACQRzeyA,nDDyXrzyTCG_WNNVnrKgkQ
OpwdCpp-QA29uFzn2HbJrw,7g3Sxdy1RhSdudJrJC2Ukg,saep_acp_load153301@testmail.qalabs.symantec.com,u90EvVndSwW9bNACQRzeyA,1f3NLzdfQFWkcwZnI3Q8uw
OpwdCpp-QA29uFzn2HbJrw,7g3Sxdy1RhSdudJrJC2Ukg,saep_acp_load153301@testmail.qalabs.symantec.com,u90EvVndSwW9bNACQRzeyA,WYVpbEq8QuWyCcc_NCnacA
OpwdCpp-QA29uFzn2HbJrw,7g3Sxdy1RhSdudJrJC2Ukg,saep_acp_load153301@testmail.qalabs.symantec.com,u90EvVndSwW9bNACQRzeyA,vHqqXcjbTh68zeMql8Lb4Q
OpwdCpp-QA29uFzn2HbJrw,7g3Sxdy1RhSdudJrJC2Ukg,saep_acp_load153301@testmail.qalabs.symantec.com,u90EvVndSwW9bNACQRzeyA,Beyli8_NSWCcvdEezWyF1A
OpwdCpp-QA29uFzn2HbJrw,7g3Sxdy1RhSdudJrJC2Ukg,saep_acp_load153301@testmail.qalabs.symantec.com,u90EvVndSwW9bNACQRzeyA,pdpx9GeTRZ69E33jJYZGZA
OpwdCpp-QA29uFzn2HbJrw,7g3Sxdy1RhSdudJrJC2Ukg,saep_acp_load153301@testmail.qalabs.symantec.com,u90EvVndSwW9bNACQRzeyA,dHMtwLMRRc2ae1fxPTnbxg
OpwdCpp-QA29uFzn2HbJrw,7g3Sxdy1RhSdudJrJC2Ukg,saep_acp_load153301@testmail.qalabs.symantec.com,u90EvVndSwW9bNACQRzeyA,eT9gxf8QQE-0SuaLb0iCvg
OpwdCpp-QA29uFzn2HbJrw,7g3Sxdy1RhSdudJrJC2Ukg,saep_acp_load153301@testmail.qalabs.symantec.com,u90EvVndSwW9bNACQRzeyA,CTlS501TS8SXnHJ1jKHbcQ
OpwdCpp-QA29uFzn2HbJrw,7g3Sxdy1RhSdudJrJC2Ukg,saep_acp_load153301@testmail.qalabs.symantec.com,u90EvVndSwW9bNACQRzeyA,rfwOguavTN2tidB4EdhkyQ
OpwdCpp-QA29uFzn2HbJrw,7g3Sxdy1RhSdudJrJC2Ukg,saep_acp_load153301@testmail.qalabs.symantec.com,u90EvVndSwW9bNACQRzeyA,ub-8_8dWQTOMixlR8GFfkA
OpwdCpp-QA29uFzn2HbJrw,7g3Sxdy1RhSdudJrJC2Ukg,saep_acp_load153301@testmail.qalabs.symantec.com,u90EvVndSwW9bNACQRzeyA,PafB9_wbRJuGyvjNBEmzUw
OpwdCpp-QA29uFzn2HbJrw,7g3Sxdy1RhSdudJrJC2Ukg,saep_acp_load153301@testmail.qalabs.symantec.com,u90EvVndSwW9bNACQRzeyA,dEf_UFPQR0iFOSn7ToulFQ
OpwdCpp-QA29uFzn2HbJrw,7g3Sxdy1RhSdudJrJC2Ukg,saep_acp_load153301@testmail.qalabs.symantec.com,u90EvVndSwW9bNACQRzeyA,B8r7FxmAS2ywctJi1TZGTQ
OpwdCpp-QA29uFzn2HbJrw,7g3Sxdy1RhSdudJrJC2Ukg,saep_acp_load153301@testmail.qalabs.symantec.com,u90EvVndSwW9bNACQRzeyA,ZgwTkAu3QuqthHIJC7N_2g
OpwdCpp-QA29uFzn2HbJrw,7g3Sxdy1RhSdudJrJC2Ukg,saep_acp_load153301@testmail.qalabs.symantec.com,u90EvVndSwW9bNACQRzeyA,VU4AxDj_RUS6qlWloy2K_A
OpwdCpp-QA29uFzn2HbJrw,7g3Sxdy1RhSdudJrJC2Ukg,saep_acp_load153301@testmail.qalabs.symantec.com,u90EvVndSwW9bNACQRzeyA,tRAJajddRnaI7pXI5fPgJw
OpwdCpp-QA29uFzn2HbJrw,7g3Sxdy1RhSdudJrJC2Ukg,saep_acp_load153301@testmail.qalabs.symantec.com,u90EvVndSwW9bNACQRzeyA,V2IfZEpiT--vprZxqAgEfw
OpwdCpp-QA29uFzn2HbJrw,7g3Sxdy1RhSdudJrJC2Ukg,saep_acp_load153301@testmail.qalabs.symantec.com,u90EvVndSwW9bNACQRzeyA,3F_-g4zMSoGTV4RcdRBD7Q
OpwdCpp-QA29uFzn2HbJrw,7g3Sxdy1RhSdudJrJC2Ukg,saep_acp_load153301@testmail.qalabs.symantec.com,u90EvVndSwW9bNACQRzeyA,tJ8jSFx4RMKIZabVSrbEwQ
OpwdCpp-QA29uFzn2HbJrw,7g3Sxdy1RhSdudJrJC2Ukg,saep_acp_load153301@testmail.qalabs.symantec.com,u90EvVndSwW9bNACQRzeyA,VXO0wcrhQNOP39EvDWlnQw
OpwdCpp-QA29uFzn2HbJrw,7g3Sxdy1RhSdudJrJC2Ukg,saep_acp_load153301@testmail.qalabs.symantec.com,u90EvVndSwW9bNACQRzeyA,wl_Zykm2Qcux82gkC0ldrw
OpwdCpp-QA29uFzn2HbJrw,7g3Sxdy1RhSdudJrJC2Ukg,saep_acp_load153301@testmail.qalabs.symantec.com,u90EvVndSwW9bNACQRzeyA,JnWXHF5WRcOYxGQOYGFbLA
OpwdCpp-QA29uFzn2HbJrw,7g3Sxdy1RhSdudJrJC2Ukg,saep_acp_load153301@testmail.qalabs.symantec.com,u90EvVndSwW9bNACQRzeyA,kmZAj6xbQ420zGhS86z5Hg
OpwdCpp-QA29uFzn2HbJrw,7g3Sxdy1RhSdudJrJC2Ukg,saep_acp_load153301@testmail.qalabs.symantec.com,u90EvVndSwW9bNACQRzeyA,r9W_LVGzQMeGTXAo4Q6WmQ
OpwdCpp-QA29uFzn2HbJrw,7g3Sxdy1RhSdudJrJC2Ukg,saep_acp_load153301@testmail.qalabs.symantec.com,u90EvVndSwW9bNACQRzeyA,vnTB7PpmRI2OpkBMCGPK6Q
OpwdCpp-QA29uFzn2HbJrw,7g3Sxdy1RhSdudJrJC2Ukg,saep_acp_load153301@testmail.qalabs.symantec.com,u90EvVndSwW9bNACQRzeyA,jo1afyhBTqyWyXTPLGL-QQ
OpwdCpp-QA29uFzn2HbJrw,7g3Sxdy1RhSdudJrJC2Ukg,saep_acp_load153301@testmail.qalabs.symantec.com,u90EvVndSwW9bNACQRzeyA,d28CfQEQTdqOTuGDB5h-Xg
OpwdCpp-QA29uFzn2HbJrw,7g3Sxdy1RhSdudJrJC2Ukg,saep_acp_load153301@testmail.qalabs.symantec.com,u90EvVndSwW9bNACQRzeyA,KbmGUSwvSTiom_oFxq4hJw
OpwdCpp-QA29uFzn2HbJrw,7g3Sxdy1RhSdudJrJC2Ukg,saep_acp_load153301@testmail.qalabs.symantec.com,u90EvVndSwW9bNACQRzeyA,WeP5TuWQRBKFvryK2pcavg
OpwdCpp-QA29uFzn2HbJrw,7g3Sxdy1RhSdudJrJC2Ukg,saep_acp_load153301@testmail.qalabs.symantec.com,u90EvVndSwW9bNACQRzeyA,-eeLUM8qR0WsB2WksIodOg
OpwdCpp-QA29uFzn2HbJrw,7g3Sxdy1RhSdudJrJC2Ukg,saep_acp_load153301@testmail.qalabs.symantec.com,u90EvVndSwW9bNACQRzeyA,LtQZkYTqR3uCoziPbDm6oA
OpwdCpp-QA29uFzn2HbJrw,7g3Sxdy1RhSdudJrJC2Ukg,saep_acp_load153301@testmail.qalabs.symantec.com,u90EvVndSwW9bNACQRzeyA,alAARAWDQnih4yqgJPy93g
OpwdCpp-QA29uFzn2HbJrw,7g3Sxdy1RhSdudJrJC2Ukg,saep_acp_load153301@testmail.qalabs.symantec.com,u90EvVndSwW9bNACQRzeyA,-HgXD3i1TdKJvtPkH0aA3g
OpwdCpp-QA29uFzn2HbJrw,7g3Sxdy1RhSdudJrJC2Ukg,saep_acp_load153301@testmail.qalabs.symantec.com,u90EvVndSwW9bNACQRzeyA,K8PYevuFQ6W6LgJP1L2EAg
OpwdCpp-QA29uFzn2HbJrw,7g3Sxdy1RhSdudJrJC2Ukg,saep_acp_load153301@testmail.qalabs.symantec.com,u90EvVndSwW9bNACQRzeyA,KfZnVFaYSZWdri5B0C09UA
OpwdCpp-QA29uFzn2HbJrw,7g3Sxdy1RhSdudJrJC2Ukg,saep_acp_load153301@testmail.qalabs.symantec.com,u90EvVndSwW9bNACQRzeyA,p3aNNwN5SPS-Ufa3GvE1OQ
OpwdCpp-QA29uFzn2HbJrw,7g3Sxdy1RhSdudJrJC2Ukg,saep_acp_load153301@testmail.qalabs.symantec.com,u90EvVndSwW9bNACQRzeyA,GPTkQtdTQZORLtJFbD2hSw
OpwdCpp-QA29uFzn2HbJrw,7g3Sxdy1RhSdudJrJC2Ukg,saep_acp_load153301@testmail.qalabs.symantec.com,u90EvVndSwW9bNACQRzeyA,e1DuYKN9Qqyo3Dn6si-H-w
OpwdCpp-QA29uFzn2HbJrw,7g3Sxdy1RhSdudJrJC2Ukg,saep_acp_load153301@testmail.qalabs.symantec.com,u90EvVndSwW9bNACQRzeyA,MHRu0oLySRuF7HBBS2DBLQ
OpwdCpp-QA29uFzn2HbJrw,7g3Sxdy1RhSdudJrJC2Ukg,saep_acp_load153301@testmail.qalabs.symantec.com,u90EvVndSwW9bNACQRzeyA,ASmOTyevQ0-0ulez-B288Q
OpwdCpp-QA29uFzn2HbJrw,7g3Sxdy1RhSdudJrJC2Ukg,saep_acp_load153301@testmail.qalabs.symantec.com,u90EvVndSwW9bNACQRzeyA,CPC82nznQDKT5YU8jXeq1A
OpwdCpp-QA29uFzn2HbJrw,7g3Sxdy1RhSdudJrJC2Ukg,saep_acp_load153301@testmail.qalabs.symantec.com,u90EvVndSwW9bNACQRzeyA,OKbbjdEuRsOH27uB6ngLIg
OpwdCpp-QA29uFzn2HbJrw,7g3Sxdy1RhSdudJrJC2Ukg,saep_acp_load153301@testmail.qalabs.symantec.com,u90EvVndSwW9bNACQRzeyA,AH3wfY0LS2Sp63ZABk1rcw
OpwdCpp-QA29uFzn2HbJrw,7g3Sxdy1RhSdudJrJC2Ukg,saep_acp_load153301@testmail.qalabs.symantec.com,u90EvVndSwW9bNACQRzeyA,S66P9uSPTVmwKeJRZZF0pQ
OpwdCpp-QA29uFzn2HbJrw,7g3Sxdy1RhSdudJrJC2Ukg,saep_acp_load153301@testmail.qalabs.symantec.com,u90EvVndSwW9bNACQRzeyA,gLx6o7qkQYqObvzSLpZHjA
OpwdCpp-QA29uFzn2HbJrw,7g3Sxdy1RhSdudJrJC2Ukg,saep_acp_load153301@testmail.qalabs.symantec.com,u90EvVndSwW9bNACQRzeyA,NeL0WA-1QS60xsoZrSAGqA
OpwdCpp-QA29uFzn2HbJrw,7g3Sxdy1RhSdudJrJC2Ukg,saep_acp_load153301@testmail.qalabs.symantec.com,u90EvVndSwW9bNACQRzeyA,eZFIeQgpRiC33Fc_DCiEKg
